#line 1 "GUI\\GUIConf.c"
























 



 




 



 



 
 

 

 

 

 

 

 

 

 

 

 

 



 
 

 

 

 

 

 

 

 

 

 

 

 



 



 




 

#line 1 "GUI\\GUI.h"































 




#line 1 "GUI\\GUI_ConfDefaults.h"



































 




#line 1 "GUI\\GUIConf.h"































 









 






 






 




 





 
#line 78 "GUI\\GUIConf.h"



 


#line 42 "GUI\\GUI_ConfDefaults.h"

#line 50 "GUI\\GUI_ConfDefaults.h"



#line 59 "GUI\\GUI_ConfDefaults.h"






 




 
#line 77 "GUI\\GUI_ConfDefaults.h"




 
















































 
#line 138 "GUI\\GUI_ConfDefaults.h"

 





 














 
#line 38 "GUI\\GUI.h"
#line 1 "GUI\\GUI_Type.h"



































 




#line 1 "GUI\\LCD.h"































 




#line 38 "GUI\\LCD.h"
#line 1 "GUI\\Global.h"































 









 









 
#line 39 "GUI\\LCD.h"
#line 1 "C:\\Keil\\ARM\\RV31\\INC\\RTL.h"









 




 

 



#line 28 "C:\\Keil\\ARM\\RV31\\INC\\RTL.h"







 typedef unsigned int   size_t;


typedef signed char     S8;
typedef unsigned char   U8;
typedef short           S16;
typedef unsigned short  U16;
typedef int             S32;
typedef unsigned int    U32;
typedef long long       S64;
typedef unsigned long long U64;
typedef unsigned char   BIT;
typedef unsigned int    BOOL;

#line 55 "C:\\Keil\\ARM\\RV31\\INC\\RTL.h"

#line 71 "C:\\Keil\\ARM\\RV31\\INC\\RTL.h"



 





 
typedef U32 OS_SEM[2];

 

typedef U32 OS_MBX[];

 
typedef U32 OS_MUT[3];

 
typedef U32 OS_TID;

 
typedef void *OS_ID;

 
typedef U32 OS_RESULT;

 












 




#line 202 "C:\\Keil\\ARM\\RV31\\INC\\RTL.h"



 



 
extern void      os_set_env    (void);
extern void      rt_sys_init   (void (*task)(void), U8 priority, void *stk);
extern void      rt_tsk_pass   (void);
extern OS_TID    rt_tsk_self   (void);
extern OS_RESULT rt_tsk_prio   (OS_TID task_id, U8 new_prio);
extern OS_TID    rt_tsk_create (void (*task)(void), U8 priority, void *stk, void *argv);
extern OS_RESULT rt_tsk_delete (OS_TID task_id);

#line 238 "C:\\Keil\\ARM\\RV31\\INC\\RTL.h"

extern void      _os_sys_init(U32 p, void (*task)(void), U32 prio_stksz,
                                     void *stk)                        __svc_indirect(0);
extern OS_TID    _os_tsk_create (U32 p, void (*task)(void), U32 prio_stksz,
                                        void *stk, void *argv)         __svc_indirect(0);
extern OS_TID    _os_tsk_create_ex (U32 p, void (*task)(void *), U32 prio_stksz,
                                           void *stk, void *argv)      __svc_indirect(0);
extern OS_TID    _os_tsk_self (U32 p)                                  __svc_indirect(0);
extern void      _os_tsk_pass (U32 p)                                  __svc_indirect(0);
extern OS_RESULT _os_tsk_prio (U32 p, OS_TID task_id, U8 new_prio)     __svc_indirect(0);
extern OS_RESULT _os_tsk_delete (U32 p, OS_TID task_id)                __svc_indirect(0);

 
extern OS_RESULT rt_evt_wait (U16 wait_flags,  U16 timeout, BOOL and_wait);
extern void      rt_evt_set  (U16 event_flags, OS_TID task_id);
extern void      rt_evt_clr  (U16 clear_flags, OS_TID task_id);
extern U16       rt_evt_get  (void);







extern OS_RESULT _os_evt_wait(U32 p, U16 wait_flags, U16 timeout,
                                     BOOL and_wait)                    __svc_indirect(0);
extern void      _os_evt_set (U32 p, U16 event_flags, OS_TID task_id)  __svc_indirect(0);
extern void      _os_evt_clr (U32 p, U16 clear_flags, OS_TID task_id)  __svc_indirect(0);
extern U16       _os_evt_get (U32 p)                                   __svc_indirect(0);
extern void      isr_evt_set (U16 event_flags, OS_TID task_id);

 
extern void      rt_sem_init (OS_ID semaphore, U16 token_count);
extern OS_RESULT rt_sem_send (OS_ID semaphore);
extern OS_RESULT rt_sem_wait (OS_ID semaphore, U16 timeout);





extern void      _os_sem_init (U32 p, OS_ID semaphore, 
                                      U16 token_count)                 __svc_indirect(0);
extern OS_RESULT _os_sem_send (U32 p, OS_ID semaphore)                 __svc_indirect(0);
extern OS_RESULT _os_sem_wait (U32 p, OS_ID semaphore, U16 timeout)    __svc_indirect(0);
extern void      isr_sem_send (OS_ID semaphore);

 
extern void      rt_mbx_init  (OS_ID mailbox, U16 mbx_size);
extern OS_RESULT rt_mbx_send  (OS_ID mailbox, void *p_msg,    U16 timeout);
extern OS_RESULT rt_mbx_wait  (OS_ID mailbox, void **message, U16 timeout);
extern OS_RESULT rt_mbx_check (OS_ID mailbox);







extern void      _os_mbx_init (U32 p, OS_ID mailbox, U16 mbx_size)     __svc_indirect(0);
extern OS_RESULT _os_mbx_send (U32 p, OS_ID mailbox, void *message_ptr,
                                      U16 timeout)                     __svc_indirect(0);
extern OS_RESULT _os_mbx_wait (U32 p, OS_ID mailbox, void  **message,
                                      U16 timeout)                     __svc_indirect(0);
extern OS_RESULT _os_mbx_check (U32 p, OS_ID mailbox)                  __svc_indirect(0);
extern void      isr_mbx_send (OS_ID mailbox, void *message_ptr);
extern OS_RESULT isr_mbx_receive (OS_ID mailbox, void **message);

 
extern void      rt_mut_init    (OS_ID mutex);
extern OS_RESULT rt_mut_release (OS_ID mutex);
extern OS_RESULT rt_mut_wait    (OS_ID mutex, U16 timeout);





extern void      _os_mut_init (U32 p, OS_ID mutex)                     __svc_indirect(0);
extern OS_RESULT _os_mut_release (U32 p, OS_ID mutex)                  __svc_indirect(0);
extern OS_RESULT _os_mut_wait (U32 p, OS_ID mutex, U16 timeout)        __svc_indirect(0);

 
extern U32       rt_time_get (void);
extern void      rt_dly_wait (U16 delay_time);
extern void      rt_itv_set  (U16 interval_time);
extern void      rt_itv_wait (void);






extern U32       _os_time_get (U32 p)                                  __svc_indirect(0);
extern void      _os_dly_wait (U32 p, U16 delay_time)                  __svc_indirect(0);
extern void      _os_itv_set (U32 p, U16 interval_time)                __svc_indirect(0);
extern void      _os_itv_wait (U32 p)                                  __svc_indirect(0);

 
extern OS_ID     rt_tmr_create (U16 tcnt, U16 info);
extern OS_ID     rt_tmr_kill   (OS_ID timer);




extern OS_ID     _os_tmr_create (U32 p, U16 tcnt, U16 info)            __svc_indirect(0);
extern OS_ID     _os_tmr_kill (U32 p, OS_ID timer)                     __svc_indirect(0);

 
extern U32       rt_suspend    (void);
extern void      rt_resume     (U32 sleep_time);
extern void      rt_tsk_lock   (void);
extern void      rt_tsk_unlock (void);






extern U32       _os_suspend (U32 p)                                   __svc_indirect(0);
extern void      _os_resume (U32 p, U32 sleep_time)                    __svc_indirect(0);
extern void      _os_tsk_lock (U32 p)                                  __svc_indirect(0);
extern void      _os_tsk_unlock (U32 p)                                __svc_indirect(0);

 
extern int       _init_box (void *box_mem, U32 box_size, U32 blk_size);
extern void     *_alloc_box (void *box_mem);
extern void     *_calloc_box (void *box_mem);
extern int       _free_box (void *box_mem, void *box);








 




 

typedef struct {                         
  U8  hr;                                
  U8  min;                               
  U8  sec;                               
  U8  day;                               
  U8  mon;                               
  U16 year;                              
} RL_TIME;

typedef struct {                         
  S8  name[256];                         
  U32 size;                              
  U16 fileID;                            
  U8  attrib;                            
  RL_TIME time;                          
} FINFO;

extern int finit (const char *drive);
extern int funinit (const char *drive);
extern int fdelete (const char *filename);
extern int frename (const char *oldname, const char *newname);
extern int ffind (const char *pattern, FINFO *info);
extern U64 ffree (const char *drive);
extern int fformat (const char *drive);
extern int fanalyse (const char *drive);
extern int fcheck (const char *drive);
extern int fdefrag (const char *drive);
extern int fattrib (const char *par, const char *path);
extern int fvol    (const char *drive, char *buf);

 




 

 



 
#line 428 "C:\\Keil\\ARM\\RV31\\INC\\RTL.h"

 
#line 436 "C:\\Keil\\ARM\\RV31\\INC\\RTL.h"

 
#line 449 "C:\\Keil\\ARM\\RV31\\INC\\RTL.h"

 




 




 



 



 



 
#line 484 "C:\\Keil\\ARM\\RV31\\INC\\RTL.h"

 



 





 



 





 
#line 512 "C:\\Keil\\ARM\\RV31\\INC\\RTL.h"

 




 
#line 527 "C:\\Keil\\ARM\\RV31\\INC\\RTL.h"

 
#line 537 "C:\\Keil\\ARM\\RV31\\INC\\RTL.h"

 
#line 545 "C:\\Keil\\ARM\\RV31\\INC\\RTL.h"

 



 
typedef struct sockaddr {          
  U16  sa_family;                  
  char sa_data[14];                
} SOCKADDR;

#pragma push
#pragma anon_unions

typedef struct in_addr {           
  union {
    struct {
      U8 s_b1,s_b2,s_b3,s_b4;      
    };
    struct {
      U16 s_w1,s_w2;               
    };
    U32 s_addr;                    
  };
} IN_ADDR;
#pragma pop

typedef struct sockaddr_in {       
  S16 sin_family;                  
  U16 sin_port;                    
  IN_ADDR sin_addr;                
  S8  sin_zero[8];                 
} SOCKADDR_IN;

typedef struct hostent {           
  char *h_name;                    
  char **h_aliases;                
  S16  h_addrtype;                 
  S16  h_length;                   
  char **h_addr_list;              
} HOSTENT;

extern void init_TcpNet (void);
extern BOOL main_TcpNet (void);
extern void timer_tick (void);
extern U8   udp_get_socket (U8 tos, U8 opt, 
                            U16 (*listener)(U8 socket, U8 *remip, U16 port, U8 *buf, U16 len));
extern BOOL udp_release_socket (U8 socket);
extern BOOL udp_open (U8 socket, U16 locport);
extern BOOL udp_close (U8 socket);
extern BOOL udp_mcast_ttl (U8 socket, U8 ttl);
extern U8  *udp_get_buf (U16 size);
extern BOOL udp_send (U8 socket, U8 *remip, U16 remport, U8 *buf, U16 dlen);
extern U8   tcp_get_socket (U8 type, U8 tos, U16 tout,
                            U16 (*listener)(U8 socket, U8 event, U8 *buf, U16 len));
extern BOOL tcp_release_socket (U8 socket);
extern BOOL tcp_listen (U8 socket, U16 locport);
extern BOOL tcp_connect (U8 socket, U8 *remip, U16 remport, U16 locport);
extern U8  *tcp_get_buf (U16 size);
extern U16  tcp_max_dsize (U8 socket);
extern BOOL tcp_check_send (U8 socket);
extern U8   tcp_get_state (U8 socket);
extern BOOL tcp_send (U8 socket, U8 *buf, U16 dlen);
extern BOOL tcp_close (U8 socket);
extern BOOL tcp_abort (U8 socket);
extern void tcp_reset_window (U8 socket);
extern BOOL arp_cache_ip (U8 *ipadr, U8 type);
extern BOOL arp_cache_mac (U8 *hwadr);
extern void ppp_listen (const char *user, const char *passw);
extern void ppp_connect (const char *dialnum, const char *user, const char *passw);
extern void ppp_close (void);
extern BOOL ppp_is_up (void);
extern void slip_listen (void);
extern void slip_connect (const char *dialnum);
extern void slip_close (void);
extern BOOL slip_is_up (void);
extern U8   get_host_by_name (U8 *hostn, void (*cbfunc)(U8 event, U8 *host_ip));
extern BOOL smtp_connect (U8 *ipadr, U16 port, void (*cbfunc)(U8 event));
extern void dhcp_disable (void);
extern BOOL igmp_join (U8 *group_ip);
extern BOOL igmp_leave (U8 *group_ip);
extern BOOL snmp_trap (U8 *manager_ip, U8 gen_trap, U8 spec_trap, U16 *obj_list);
extern BOOL snmp_set_community (const char *community);
extern BOOL icmp_ping (U8 *remip, void (*cbfunc)(U8 event));
extern BOOL ftpc_connect (U8 *ipadr, U16 port, U8 command, void (*cbfunc)(U8 event));
extern BOOL tftpc_put (U8 *ipadr, U16 port,
                       const char *src, const char *dst, void (*cbfunc)(U8 event));
extern BOOL tftpc_get (U8 *ipadr, U16 port, 
                       const char *src, const char *dst, void (*cbfunc)(U8 event));

 
extern int  socket (int family, int type, int protocol);
extern int  bind (int sock, const SOCKADDR *addr, int addrlen);
extern int  listen (int sock, int backlog);
extern int  accept (int sock, SOCKADDR *addr, int *addrlen);
extern int  connect (int sock, SOCKADDR *addr, int addrlen);
extern int  send (int sock, const char *buf, int len, int flags);
extern int  sendto (int sock, const char *buf, int len, int flags, SOCKADDR *to, int tolen);
extern int  recv (int sock, char *buf, int len, int flags);
extern int  recvfrom (int sock, char *buf, int len, int flags, SOCKADDR *from, int *fromlen);
extern int  closesocket (int sock);
extern int  getpeername (int sock, SOCKADDR *name, int *namelen);
extern int  getsockname (int sock, SOCKADDR *name, int *namelen);
extern int  ioctlsocket (int sock, long cmd, unsigned long *argp);
extern HOSTENT *gethostbyname (const char *name, int *err);







 


 
#line 40 "GUI\\LCD.h"















 












 








 







 








 
typedef int LCD_DRAWMODE;
typedef U32 LCD_COLOR;




 
typedef struct { signed short x,y; } GUI_POINT;
typedef struct { signed short x0,y0,x1,y1; } LCD_RECT;

typedef struct {
  int              NumEntries;
  char             HasTrans;
  const LCD_COLOR  * pPalEntries;
} LCD_LOGPALETTE;

 
typedef struct {
  int x,y;
  unsigned char KeyStat;
} LCD_tMouseState;

typedef struct {
  int               NumEntries;
  const LCD_COLOR * pPalEntries;
} LCD_PHYSPALETTE;




 
typedef LCD_COLOR      tLCDDEV_Index2Color  (unsigned Index);
typedef unsigned int   tLCDDEV_Color2Index  (LCD_COLOR Color);
typedef unsigned int   tLCDDEV_GetIndexMask (void);

typedef void tLCDDEV_Index2ColorBulk(void * pIndex, LCD_COLOR * pColor, U32 NumItems, U8 SizeOfIndex);
typedef void tLCDDEV_Color2IndexBulk(LCD_COLOR * pColor, void * pIndex, U32 NumItems, U8 SizeOfIndex);




 
typedef struct {
  tLCDDEV_Color2Index  * pfColor2Index;
  tLCDDEV_Index2Color  * pfIndex2Color;
  tLCDDEV_GetIndexMask * pfGetIndexMask;
  int NoAlpha;
  tLCDDEV_Color2IndexBulk * pfColor2IndexBulk;
  tLCDDEV_Index2ColorBulk * pfIndex2ColorBulk;
} LCD_API_COLOR_CONV;

extern const LCD_API_COLOR_CONV LCD_API_ColorConv_0;
extern const LCD_API_COLOR_CONV LCD_API_ColorConv_1;
extern const LCD_API_COLOR_CONV LCD_API_ColorConv_1_2;
extern const LCD_API_COLOR_CONV LCD_API_ColorConv_1_4;
extern const LCD_API_COLOR_CONV LCD_API_ColorConv_1_5;
extern const LCD_API_COLOR_CONV LCD_API_ColorConv_1_8;
extern const LCD_API_COLOR_CONV LCD_API_ColorConv_1_16;
extern const LCD_API_COLOR_CONV LCD_API_ColorConv_1_24;
extern const LCD_API_COLOR_CONV LCD_API_ColorConv_M1;
extern const LCD_API_COLOR_CONV LCD_API_ColorConv_2;
extern const LCD_API_COLOR_CONV LCD_API_ColorConv_M2;
extern const LCD_API_COLOR_CONV LCD_API_ColorConv_4;
extern const LCD_API_COLOR_CONV LCD_API_ColorConv_M4;
extern const LCD_API_COLOR_CONV LCD_API_ColorConv_5;
extern const LCD_API_COLOR_CONV LCD_API_ColorConv_16;
extern const LCD_API_COLOR_CONV LCD_API_ColorConv_111;
extern const LCD_API_COLOR_CONV LCD_API_ColorConv_222;
extern const LCD_API_COLOR_CONV LCD_API_ColorConv_233;
extern const LCD_API_COLOR_CONV LCD_API_ColorConv_323;
extern const LCD_API_COLOR_CONV LCD_API_ColorConv_332;
extern const LCD_API_COLOR_CONV LCD_API_ColorConv_444_12;
extern const LCD_API_COLOR_CONV LCD_API_ColorConv_444_12_1;
extern const LCD_API_COLOR_CONV LCD_API_ColorConv_444_16;
extern const LCD_API_COLOR_CONV LCD_API_ColorConv_555;
extern const LCD_API_COLOR_CONV LCD_API_ColorConv_565;
extern const LCD_API_COLOR_CONV LCD_API_ColorConv_556;
extern const LCD_API_COLOR_CONV LCD_API_ColorConv_655;
extern const LCD_API_COLOR_CONV LCD_API_ColorConv_666;
extern const LCD_API_COLOR_CONV LCD_API_ColorConv_666_9;
extern const LCD_API_COLOR_CONV LCD_API_ColorConv_822216;
extern const LCD_API_COLOR_CONV LCD_API_ColorConv_84444;
extern const LCD_API_COLOR_CONV LCD_API_ColorConv_8666;
extern const LCD_API_COLOR_CONV LCD_API_ColorConv_8666_1;
extern const LCD_API_COLOR_CONV LCD_API_ColorConv_888;
extern const LCD_API_COLOR_CONV LCD_API_ColorConv_8888;
extern const LCD_API_COLOR_CONV LCD_API_ColorConv_M111;
extern const LCD_API_COLOR_CONV LCD_API_ColorConv_M222;
extern const LCD_API_COLOR_CONV LCD_API_ColorConv_M233;
extern const LCD_API_COLOR_CONV LCD_API_ColorConv_M323;
extern const LCD_API_COLOR_CONV LCD_API_ColorConv_M332;
extern const LCD_API_COLOR_CONV LCD_API_ColorConv_M444_12;
extern const LCD_API_COLOR_CONV LCD_API_ColorConv_M444_16;
extern const LCD_API_COLOR_CONV LCD_API_ColorConv_M555;
extern const LCD_API_COLOR_CONV LCD_API_ColorConv_M565;
extern const LCD_API_COLOR_CONV LCD_API_ColorConv_M556;
extern const LCD_API_COLOR_CONV LCD_API_ColorConv_M655;
extern const LCD_API_COLOR_CONV LCD_API_ColorConv_M666;
extern const LCD_API_COLOR_CONV LCD_API_ColorConv_M666_9;
extern const LCD_API_COLOR_CONV LCD_API_ColorConv_M8565;
extern const LCD_API_COLOR_CONV LCD_API_ColorConv_M888;
extern const LCD_API_COLOR_CONV LCD_API_ColorConv_M8888;

#line 249 "GUI\\LCD.h"




 
#line 262 "GUI\\LCD.h"












 
typedef void         tLCDDEV_DrawPixel    (int x, int y);
typedef void         tLCDDEV_DrawHLine    (int x0, int y0,  int x1);
typedef void         tLCDDEV_DrawVLine    (int x , int y0,  int y1);
typedef void         tLCDDEV_FillRect     (int x0, int y0, int x1, int y1);
typedef unsigned int tLCDDEV_GetPixelIndex(int x, int y);
typedef void         tLCDDEV_SetPixelIndex(int x, int y, int ColorIndex);
typedef void         tLCDDEV_XorPixel     (int x, int y);
typedef void         tLCDDEV_FillPolygon  (const GUI_POINT* pPoints, int NumPoints, int x0, int y0);
typedef void         tLCDDEV_FillPolygonAA(const GUI_POINT* pPoints, int NumPoints, int x0, int y0);
typedef void         tLCDDEV_GetRect      (LCD_RECT*pRect);
typedef int          tLCDDEV_Init         (void);
typedef void         tLCDDEV_On           (void);
typedef void         tLCDDEV_Off          (void);
typedef void         tLCDDEV_SetLUTEntry  (U8 Pos, LCD_COLOR color);
typedef void *       tLCDDEV_GetDevFunc   (int Index);
typedef signed long          tLCDDEV_GetDevProp   (int Index);
typedef void         tLCDDEV_SetOrg       (int x, int y);




 
typedef struct GUI_DEVICE     GUI_DEVICE;
typedef struct GUI_DEVICE_API GUI_DEVICE_API;

typedef void tLCDDEV_DrawBitmap   (int x0, int y0, int xsize, int ysize,
                       int BitsPerPixel, int BytesPerLine,
                       const U8  * pData, int Diff,
                       const void* pTrans);    


















 

#line 339 "GUI\\LCD.h"

int LCD_GetXSizeMax(void);
int LCD_GetYSizeMax(void);
int LCD_GetVXSizeMax(void);
int LCD_GetVYSizeMax(void);
int LCD_GetBitsPerPixelMax(void);

int LCD_GetXSizeEx          (int LayerIndex);
int LCD_GetYSizeEx          (int LayerIndex);
int LCD_GetVXSizeEx         (int LayerIndex);
int LCD_GetVYSizeEx         (int LayerIndex);
int LCD_GetBitsPerPixelEx   (int LayerIndex);
U32 LCD_GetNumColorsEx      (int LayerIndex);
int LCD_GetXMagEx           (int LayerIndex);
int LCD_GetYMagEx           (int LayerIndex);
int LCD_GetMirrorXEx        (int LayerIndex);
int LCD_GetMirrorYEx        (int LayerIndex);
int LCD_GetSwapXYEx         (int LayerIndex);
int LCD_GetReversLUTEx      (int LayerIndex);
int LCD_GetPhysColorsInRAMEx(int LayerIndex);

int LCD_GetXSize            (void);
int LCD_GetYSize            (void);
int LCD_GetVXSize           (void);
int LCD_GetVYSize           (void);
int LCD_GetBitsPerPixel     (void);
U32 LCD_GetNumColors        (void);
int LCD_GetXMag             (void);
int LCD_GetYMag             (void);
int LCD_GetMirrorX          (void);
int LCD_GetMirrorY          (void);
int LCD_GetSwapXY           (void);
int LCD_GetReversLUT        (void);
int LCD_GetPhysColorsInRAM  (void);

signed long LCD__GetBPP      (U32 IndexMask);
signed long LCD__GetBPPDevice(U32 IndexMask);

tLCDDEV_Index2Color * LCD_GetpfIndex2ColorEx(int LayerIndex);
tLCDDEV_Color2Index * LCD_GetpfColor2IndexEx(int LayerIndex);

tLCDDEV_Color2Index * LCD_GetpfColor2Index(void);

int LCD_GetNumLayers(void);

LCD_COLOR * LCD_GetPalette  (void);
LCD_COLOR * LCD_GetPaletteEx(int LayerIndex);




 
                                        
#line 416 "GUI\\LCD.h"
                                        









 
                                           





 
                                        






 
typedef struct {
  void * pVRAM;
} LCD_X_SETVRAMADDR_INFO;

typedef struct {
  int xPos, yPos;
} LCD_X_SETORG_INFO;

typedef struct {
  LCD_COLOR Color;
  U8 Pos;
} LCD_X_SETLUTENTRY_INFO;

typedef struct {
  int xSize, ySize;
} LCD_X_SETSIZE_INFO;

typedef struct {
  int xPos, yPos;
} LCD_X_SETPOS_INFO;

typedef struct {
  int Alpha;
} LCD_X_SETALPHA_INFO;

typedef struct {
  int OnOff;
} LCD_X_SETVIS_INFO;

typedef struct {
  int AlphaMode;
} LCD_X_SETALPHAMODE_INFO;

typedef struct {
  int ChromaMode;
} LCD_X_SETCHROMAMODE_INFO;

typedef struct {
  LCD_COLOR ChromaMin;
  LCD_COLOR ChromaMax;
} LCD_X_SETCHROMA_INFO;

typedef struct {
  int Index;
} LCD_X_SHOWBUFFER_INFO;




 
#line 506 "GUI\\LCD.h"

int  LCD_X_DisplayDriver(unsigned LayerIndex, unsigned Cmd, void * pData);
void LCD_X_Config(void);




 
int LCD_SetAlphaEx     (int LayerIndex, int Alpha);
int LCD_SetPosEx       (int LayerIndex, int xPos, int yPos);
int LCD_SetSizeEx      (int LayerIndex, int xSize, int ySize);
int LCD_SetVisEx       (int LayerIndex, int OnOff);
int LCD_SetVRAMAddrEx  (int LayerIndex, void * pVRAM);
int LCD_SetVSizeEx     (int LayerIndex, int xSize, int ySize);
int LCD_SetAlphaModeEx (int LayerIndex, int AlphaMode);
int LCD_SetChromaModeEx(int LayerIndex, int ChromaMode);
int LCD_SetChromaEx    (int LayerIndex, LCD_COLOR ChromaMin, LCD_COLOR ChromaMax);

int LCD_SetAlpha     (int Alpha);
int LCD_SetVRAMAddr  (void * pVRAM);
int LCD_SetVSize     (int xSize, int ySize);
int LCD_SetSize      (int xSize, int ySize);
int LCD_SetVis       (int OnOff);
int LCD_SetPos       (int xPos, int yPos);
int LCD_SetAlphaMode (int AlphaMode);
int LCD_SetChromaMode(int ChromaMode);
int LCD_SetChroma    (LCD_COLOR ChromaMin, LCD_COLOR ChromaMax);
int LCD_SetLUTEntry  (U8 Pos, LCD_COLOR Color);
int LCD_SetDevFunc   (int LayerIndex, int IdFunc, void (* pDriverFunc)(void));




 
int LCD_GetPosEx(int LayerIndex, int * pxPos, int * pyPos);

int LCD_GetPos  (int * pxPos, int * pyPos);




 
int LCD_Refresh  (void);
int LCD_RefreshEx(int LayerIndex);




 
typedef struct {
  int  (* pfStart)   (int x0, int y0, int x1, int y1);
  void (* pfSetPixel)(int PixelIndex);
  void (* pfNextLine)(void);
  void (* pfEnd)     (void);
} LCD_API_NEXT_PIXEL;

LCD_API_NEXT_PIXEL * LCD_GetNextPixelAPI(void);




 
typedef void         tLCD_HL_DrawHLine    (int x0, int y0,  int x1);
typedef void         tLCD_HL_DrawPixel    (int x0, int y0);

typedef struct {
  tLCD_HL_DrawHLine*          pfDrawHLine;
  tLCD_HL_DrawPixel*          pfDrawPixel;
} tLCD_HL_APIList;

void LCD_DrawHLine(int x0, int y0,  int x1);
void LCD_DrawPixel(int x0, int y0);
void LCD_DrawVLine  (int x, int y0,  int y1);





 
void LCD_SetClipRectEx(const LCD_RECT* pRect);
void LCD_SetClipRectMax(void);

 
signed long  LCD_GetDevCap  (int Index);
signed long  LCD_GetDevCapEx(int LayerIndex, int Index);

 
int LCD_Init(void);
int LCD_InitColors(void);

void LCD_SetBkColor   (LCD_COLOR Color);  
void LCD_SetColor     (LCD_COLOR Color);  
void LCD_SetPixelIndex(int x, int y, int ColorIndex);

 
void LCD_InitLUT(void);
int  LCD_SetLUTEntryEx(int LayerIndex, U8 Pos, LCD_COLOR Color);
void LCD_SetLUTEx(int LayerIndex, const LCD_PHYSPALETTE * pPalette);
void LCD_SetLUT  (const LCD_PHYSPALETTE * pPalette);

LCD_DRAWMODE LCD_SetDrawMode  (LCD_DRAWMODE dm);
void LCD_SetColorIndex(unsigned PixelIndex);
void LCD_SetBkColorIndex(unsigned PixelIndex);
void LCD_FillRect(int x0, int y0, int x1, int y1);
typedef void tLCD_SetPixelAA(int x, int y, U8 Intens);

void LCD_SetPixelAA        (int x, int y, U8 Intens);
void LCD_SetPixelAA_NoTrans(int x, int y, U8 Intens);
void LCD_SetPixelAA_Xor    (int x, int y, U8 Intens);

LCD_COLOR    LCD_AA_MixColors(LCD_COLOR Color, LCD_COLOR BkColor, U8 Intens);
LCD_COLOR    LCD_MixColors256(LCD_COLOR Color, LCD_COLOR BkColor, unsigned Intens);
LCD_COLOR    LCD_GetPixelColor(int x, int y);      
unsigned int LCD_GetPixelIndex(int x, int y);
int          LCD_GetBkColorIndex (void);
int          LCD_GetColorIndex (void);
U32          LCD_AA_SetAndMask(U32 AndMask);

 
int LCD_SetMaxNumColors(unsigned MaxNumColors);




 


typedef void tLCD_DrawBitmap(int x0, int y0, int xsize, int ysize,
                             int xMul, int yMul, int BitsPerPixel, int BytesPerLine,
                             const U8  * pPixel, const void * pTrans);
typedef void tRect2TextRect (LCD_RECT * pRect);

struct tLCD_APIList_struct {
  tLCD_DrawBitmap   * pfDrawBitmap;
  tRect2TextRect    * pfRect2TextRect;
};

typedef struct tLCD_APIList_struct tLCD_APIList;

extern tLCD_APIList LCD_APIListCCW;
extern tLCD_APIList LCD_APIListCW;
extern tLCD_APIList LCD_APIList180;

#line 655 "GUI\\LCD.h"




 
void LCD__SetPhysColor(U8 Pos, LCD_COLOR Color);




 




int LCD_ControlCache  (int Cmd);
int LCD_ControlCacheEx(int LayerIndex, int Cmd);




 
unsigned         LCD_Color2Index     (LCD_COLOR Color);
LCD_COLOR        LCD_Index2Color     (int Index);
LCD_COLOR        LCD_Index2ColorEx   (int i, unsigned LayerIndex);




 
unsigned char LCD_X_Read00(void);
unsigned char LCD_X_Read01(void);
void LCD_X_Write00 (unsigned char c);
void LCD_X_Write01 (unsigned char c);
void LCD_X_WriteM01(unsigned char * pData, int NumBytes);







 
#line 42 "GUI\\GUI_Type.h"
#line 43 "GUI\\GUI_Type.h"




 
typedef const char *  GUI_ConstString;

typedef LCD_COLOR       GUI_COLOR;
typedef LCD_LOGPALETTE  GUI_LOGPALETTE;
typedef LCD_DRAWMODE    GUI_DRAWMODE;
typedef LCD_RECT        GUI_RECT;

typedef struct {
  void      (* pfDraw)  (int x0,
                         int y0,
                         int xsize, 
                         int ysize, 
                         const U8  * pPixel, 
                         const LCD_LOGPALETTE  * pLogPal, 
                         int xMag, 
                         int yMag);
  GUI_COLOR (* pfIndex2Color)(unsigned Index);
  void      (* pfDrawHW)(int x0,
                         int y0,
                         int xsize, 
                         int ysize, 
                         const U8  * pPixel, 
                         const LCD_LOGPALETTE  * pLogPal, 
                         int xMag, 
                         int yMag);
} GUI_BITMAP_METHODS;

typedef struct {
  U16 XSize;
  U16 YSize;
  U16 BytesPerLine;
  U16 BitsPerPixel;
  const U8  * pData;
  const GUI_LOGPALETTE  * pPal;
  const GUI_BITMAP_METHODS * pMethods;
} GUI_BITMAP;





 
typedef struct {
  U16 ID;
  U16 Format;
  U16 XSize;
  U16 YSize;
  U16 BytesPerLine;
  U16 BitsPerPixel;
  U16 NumColors;
  U16 HasTrans;
} GUI_BITMAP_STREAM;

typedef struct {
  int    Cmd;
  U32    v;
  void * p;
} GUI_BITMAPSTREAM_PARAM;

typedef struct {
  int XSize;
  int YSize;
  int BitsPerPixel;
  int NumColors;
  int HasTrans;
} GUI_BITMAPSTREAM_INFO;

typedef void * (* GUI_BITMAPSTREAM_CALLBACK)(GUI_BITMAPSTREAM_PARAM * pParam);

typedef struct {
  int x,y;
  U8  Pressed;
  U8  Layer;
} GUI_PID_STATE;

typedef struct {
  int Key;
  int Pressed;
} GUI_KEY_STATE;

typedef struct {
  int xPos;
  int yPos;
  int xSize;
  int ySize;
  int Delay;
} GUI_GIF_IMAGE_INFO;

typedef struct {
  int xSize;
  int ySize;
  int NumImages;
} GUI_GIF_INFO;

typedef struct GUI_REGISTER_EXIT GUI_REGISTER_EXIT;

struct GUI_REGISTER_EXIT {
  void (* pfVoid)(void);
  GUI_REGISTER_EXIT * pNext;
};




 



 
typedef struct {
  signed short c0;
  signed short c1;
} GUI_FONT_TRANSLIST;

typedef struct {
  U16 FirstChar;
  U16 LastChar;
  const GUI_FONT_TRANSLIST  * pList;
} GUI_FONT_TRANSINFO;

typedef struct {
  U8 XSize;
  U8 XDist;
  U8 BytesPerLine;
  const unsigned char  * pData;
} GUI_CHARINFO;

typedef struct {
  U8 XSize;
  U8 YSize;
  signed char XPos;
  signed char YPos;
  U8 XDist;
  const unsigned char  * pData;
} GUI_CHARINFO_EXT;

typedef struct GUI_FONT_PROP {
  U16 First;                                               
  U16 Last;                                                
  const GUI_CHARINFO          * paCharInfo;      
  const struct GUI_FONT_PROP  * pNext;           
} GUI_FONT_PROP;

typedef struct GUI_FONT_PROP_EXT {
  U16 First;                                               
  U16 Last;                                                
  const GUI_CHARINFO_EXT          * paCharInfo;  
  const struct GUI_FONT_PROP_EXT  * pNext;       
} GUI_FONT_PROP_EXT;

typedef struct {
  const unsigned char  * pData;
  const U8  * pTransData;
  const GUI_FONT_TRANSINFO  * pTrans;
  U16 FirstChar;
  U16 LastChar;
  U8 XSize;
  U8 XDist;
  U8 BytesPerLine;
} GUI_FONT_MONO;







 
typedef struct {
  U16 Flags;
  U8 Baseline;
  U8 LHeight;      
  U8 CHeight;      
} GUI_FONTINFO;

#line 229 "GUI\\GUI_Type.h"




 
typedef U16  tGUI_GetCharCode(const char  *s);
typedef int  tGUI_GetCharSize(const char  *s);
typedef int  tGUI_CalcSizeOfChar(U16 Char);
typedef int  tGUI_Encode(char *s, U16 Char);

typedef struct {
  tGUI_GetCharCode*            pfGetCharCode;
  tGUI_GetCharSize*            pfGetCharSize;
  tGUI_CalcSizeOfChar*         pfCalcSizeOfChar;
  tGUI_Encode*                 pfEncode;
} GUI_UC_ENC_APILIST;




 
typedef int  tGUI_GetLineDistX(const char  *s, int Len);
typedef int  tGUI_GetLineLen(const char  *s, int MaxLen);
typedef void tGL_DispLine(const char  *s, int Len);

typedef struct {
  tGUI_GetLineDistX*          pfGetLineDistX;
  tGUI_GetLineLen*            pfGetLineLen;
  tGL_DispLine*               pfDispLine;
} tGUI_ENC_APIList;

extern const tGUI_ENC_APIList GUI_ENC_APIList_SJIS;
extern const tGUI_ENC_APIList GUI_ENC_APIList_EXT;




 
typedef struct GUI_FONT GUI_FONT;

typedef void GUI_DISPCHAR    (U16 c);
typedef int  GUI_GETCHARDISTX(U16 c, int * pSizeX);
typedef void GUI_GETFONTINFO (const GUI_FONT  * pFont, GUI_FONTINFO * pfi);
typedef char GUI_ISINFONT    (const GUI_FONT  * pFont, U16 c);
typedef int  GUI_GETCHARINFO (U16 c, GUI_CHARINFO_EXT * pInfo);

#line 281 "GUI\\GUI_Type.h"





void GUIMONO_DispChar (U16 c); int GUIMONO_GetCharDistX(U16 c, int * pSizeX); void GUIMONO_GetFontInfo (const GUI_FONT  * pFont, GUI_FONTINFO * pfi); char GUIMONO_IsInFont (const GUI_FONT  * pFont, U16 c); int GUIMONO_GetCharInfo (U16 c, GUI_CHARINFO_EXT * pInfo);
void GUIPROP_DispChar (U16 c); int GUIPROP_GetCharDistX(U16 c, int * pSizeX); void GUIPROP_GetFontInfo (const GUI_FONT  * pFont, GUI_FONTINFO * pfi); char GUIPROP_IsInFont (const GUI_FONT  * pFont, U16 c); int GUIPROP_GetCharInfo (U16 c, GUI_CHARINFO_EXT * pInfo);
void GUIPROP_EXT_DispChar (U16 c); int GUIPROP_EXT_GetCharDistX(U16 c, int * pSizeX); void GUIPROP_EXT_GetFontInfo (const GUI_FONT  * pFont, GUI_FONTINFO * pfi); char GUIPROP_EXT_IsInFont (const GUI_FONT  * pFont, U16 c); int GUIPROP_EXT_GetCharInfo (U16 c, GUI_CHARINFO_EXT * pInfo);
void GUIPROP_FRM_DispChar (U16 c); int GUIPROP_FRM_GetCharDistX(U16 c, int * pSizeX); void GUIPROP_FRM_GetFontInfo (const GUI_FONT  * pFont, GUI_FONTINFO * pfi); char GUIPROP_FRM_IsInFont (const GUI_FONT  * pFont, U16 c); int GUIPROP_FRM_GetCharInfo (U16 c, GUI_CHARINFO_EXT * pInfo);
void GUIPROPAA_DispChar (U16 c); int GUIPROPAA_GetCharDistX(U16 c, int * pSizeX); void GUIPROPAA_GetFontInfo (const GUI_FONT  * pFont, GUI_FONTINFO * pfi); char GUIPROPAA_IsInFont (const GUI_FONT  * pFont, U16 c); int GUIPROPAA_GetCharInfo (U16 c, GUI_CHARINFO_EXT * pInfo);
void GUIPROP_AA2_DispChar (U16 c); int GUIPROP_AA2_GetCharDistX(U16 c, int * pSizeX); void GUIPROP_AA2_GetFontInfo (const GUI_FONT  * pFont, GUI_FONTINFO * pfi); char GUIPROP_AA2_IsInFont (const GUI_FONT  * pFont, U16 c); int GUIPROP_AA2_GetCharInfo (U16 c, GUI_CHARINFO_EXT * pInfo);
void GUIPROP_AA2_EXT_DispChar (U16 c); int GUIPROP_AA2_EXT_GetCharDistX(U16 c, int * pSizeX); void GUIPROP_AA2_EXT_GetFontInfo (const GUI_FONT  * pFont, GUI_FONTINFO * pfi); char GUIPROP_AA2_EXT_IsInFont (const GUI_FONT  * pFont, U16 c); int GUIPROP_AA2_EXT_GetCharInfo (U16 c, GUI_CHARINFO_EXT * pInfo);
void GUIPROP_AA4_DispChar (U16 c); int GUIPROP_AA4_GetCharDistX(U16 c, int * pSizeX); void GUIPROP_AA4_GetFontInfo (const GUI_FONT  * pFont, GUI_FONTINFO * pfi); char GUIPROP_AA4_IsInFont (const GUI_FONT  * pFont, U16 c); int GUIPROP_AA4_GetCharInfo (U16 c, GUI_CHARINFO_EXT * pInfo);
void GUIPROP_AA4_EXT_DispChar (U16 c); int GUIPROP_AA4_EXT_GetCharDistX(U16 c, int * pSizeX); void GUIPROP_AA4_EXT_GetFontInfo (const GUI_FONT  * pFont, GUI_FONTINFO * pfi); char GUIPROP_AA4_EXT_IsInFont (const GUI_FONT  * pFont, U16 c); int GUIPROP_AA4_EXT_GetCharInfo (U16 c, GUI_CHARINFO_EXT * pInfo);

 
#line 304 "GUI\\GUI_Type.h"

 
#line 313 "GUI\\GUI_Type.h"

 
#line 322 "GUI\\GUI_Type.h"

 
#line 331 "GUI\\GUI_Type.h"

 
#line 340 "GUI\\GUI_Type.h"

 
#line 349 "GUI\\GUI_Type.h"

 
#line 358 "GUI\\GUI_Type.h"

 
#line 367 "GUI\\GUI_Type.h"

 
#line 376 "GUI\\GUI_Type.h"

 
#line 385 "GUI\\GUI_Type.h"

 
#line 394 "GUI\\GUI_Type.h"

 
#line 403 "GUI\\GUI_Type.h"





struct GUI_FONT {
  GUI_DISPCHAR     * pfDispChar; 
  GUI_GETCHARDISTX * pfGetCharDistX; 
  GUI_GETFONTINFO  * pfGetFontInfo; 
  GUI_ISINFONT     * pfIsInFont;
  GUI_GETCHARINFO  * pfGetCharInfo;
  const tGUI_ENC_APIList* pafEncode;
  U8 YSize;
  U8 YDist;
  U8 XMag;
  U8 YMag;
  union {
    const void               * pFontData;
    const GUI_FONT_MONO      * pMono;
    const GUI_FONT_PROP      * pProp;
    const GUI_FONT_PROP_EXT  * pPropExt;
  } p;
  U8 Baseline;
  U8 LHeight;      
  U8 CHeight;      
};




 
typedef struct {
  U32 ID;            
  U16 YSize;         
  U16 YDist;         
  U16 Baseline;      
  U16 LHeight;       
  U16 CHeight;       
  U16 NumAreas;      
} GUI_SI_FONT;

typedef struct {
  U16 First;         
  U16 Last;          
} GUI_SIF_CHAR_AREA;

typedef struct {
  U16 XSize;         
  U16 XDist;         
  U16 BytesPerLine;  
  U16 Dummy;
  U32 OffData;       
} GUI_SIF_CHARINFO;

typedef struct {
  U16 XSize;         
  U16 YSize;         
  signed short XOff;          
  signed short YOff;          
  U16 XDist;         
  U16 Dummy;
  U32 OffData;       
} GUI_SIF_CHARINFO_EXT;

typedef struct tGUI_SIF_APIList_struct {
  GUI_DISPCHAR          * pfDispChar;
  GUI_GETCHARDISTX      * pfGetCharDistX;
  GUI_GETFONTINFO       * pfGetFontInfo;
  GUI_ISINFONT          * pfIsInFont;
  GUI_GETCHARINFO       * pfGetCharInfo;
  const tGUI_ENC_APIList* pafEncode;
} tGUI_SIF_APIList;

#line 484 "GUI\\GUI_Type.h"




 
typedef int GUI_XBF_GET_DATA_FUNC(U32 Off, U16 NumBytes, void * pVoid, void * pBuffer);

typedef struct {
  U16 First;                          
  U16 Last;                           
  void * pVoid;                       
  GUI_XBF_GET_DATA_FUNC * pfGetData;  
} GUI_XBF_DATA;

typedef struct tGUI_XBF_APIList_struct {
  GUI_DISPCHAR          * pfDispChar;
  GUI_GETCHARDISTX      * pfGetCharDistX;
  GUI_GETFONTINFO       * pfGetFontInfo;
  GUI_ISINFONT          * pfIsInFont;
  GUI_GETCHARINFO       * pfGetCharInfo;
  const tGUI_ENC_APIList* pafEncode;
} tGUI_XBF_APIList;

#line 513 "GUI\\GUI_Type.h"




 
typedef struct {
  const void * pData;       
  U32 NumBytes;             
} GUI_TTF_DATA;

typedef struct {
  GUI_TTF_DATA * pTTF;      
  U32 aImageTypeBuffer[4];  
  int PixelHeight;         


 
  int FaceIndex;           

 
} GUI_TTF_CS;




 
typedef void (* GUI_SIGNAL_EVENT_FUNC)    (void);
typedef void (* GUI_WAIT_EVENT_FUNC)      (void);
typedef void (* GUI_WAIT_EVENT_TIMED_FUNC)(int Period);




 




typedef     signed long      GUI_HWIN;
typedef     signed long      GUI_HSPRITE;




 
typedef struct {
  
  
  
  void (* pfWrite8_A0)  (U8 Data);
  void (* pfWrite8_A1)  (U8 Data);
  void (* pfWriteM8_A0) (U8 * pData, int NumItems);
  void (* pfWriteM8_A1) (U8 * pData, int NumItems);
  U8   (* pfRead8_A0)   (void);
  U8   (* pfRead8_A1)   (void);
  void (* pfReadM8_A0)  (U8 * pData, int NumItems);
  void (* pfReadM8_A1)  (U8 * pData, int NumItems);
  
  
  
  void (* pfWrite16_A0) (U16 Data);
  void (* pfWrite16_A1) (U16 Data);
  void (* pfWriteM16_A0)(U16 * pData, int NumItems);
  void (* pfWriteM16_A1)(U16 * pData, int NumItems);
  U16  (* pfRead16_A0)  (void);
  U16  (* pfRead16_A1)  (void);
  void (* pfReadM16_A0) (U16 * pData, int NumItems);
  void (* pfReadM16_A1) (U16 * pData, int NumItems);
  
  
  
  void (* pfWrite32_A0) (U32 Data);
  void (* pfWrite32_A1) (U32 Data);
  void (* pfWriteM32_A0)(U32 * pData, int NumItems);
  void (* pfWriteM32_A1)(U32 * pData, int NumItems);
  U32  (* pfRead32_A0)  (void);
  U32  (* pfRead32_A1)  (void);
  void (* pfReadM32_A0) (U32 * pData, int NumItems);
  void (* pfReadM32_A1) (U32 * pData, int NumItems);
  
  
  
  void (* pfSetCS)      (U8 NotActive);
  
  
  
  void (* pfFlushBuffer)(void);
} GUI_PORT_API;



 
#line 39 "GUI\\GUI.h"
#line 1 "GUI\\GUI_Version.h"































 








 
#line 40 "GUI\\GUI.h"








 










 








 
typedef struct GUI_CONTEXT GUI_CONTEXT;

#line 77 "GUI\\GUI.h"
  void GUI_Lock(void);
  void GUI_Unlock(void);
  void GUITASK_Init(void);
  void GUITASK_CopyContext(void);
  void GUITASK_SetMaxTask(int MaxTask);
  GUI_CONTEXT * GUITASK_GetpContext(int Index);









 
struct GUI_DEVICE_API {
  
  
  
  int DeviceClassIndex;
  
  
  
  void     (* pfDrawBitmap   )(GUI_DEVICE *  pDevice,  int x0, int y0, int xsize, int ysize, int BitsPerPixel, int BytesPerLine, const U8  * pData, int Diff, const U32 * pTrans);
  void     (* pfDrawHLine    )(GUI_DEVICE *  pDevice,  int x0, int y0,  int x1);
  void     (* pfDrawVLine    )(GUI_DEVICE *  pDevice,  int x , int y0,  int y1);
  void     (* pfFillRect     )(GUI_DEVICE *  pDevice,  int x0, int y0, int x1, int y1);
  unsigned (* pfGetPixelIndex)(GUI_DEVICE *  pDevice,  int x, int y);
  void     (* pfSetPixelIndex)(GUI_DEVICE *  pDevice,  int x, int y, int ColorIndex);
  void     (* pfXorPixel     )(GUI_DEVICE *  pDevice,  int x, int y);
  
  
  
  void     (* pfSetOrg       )(GUI_DEVICE *  pDevice,  int x, int y);
  
  
  
  void   (*(* pfGetDevFunc)   (GUI_DEVICE ** ppDevice, int Index))(void);
  signed long      (* pfGetDevProp   )(GUI_DEVICE *  pDevice,  int Index);
  void    *(* pfGetDevData   )(GUI_DEVICE *  pDevice,  int Index);
  void     (* pfGetRect      )(GUI_DEVICE *  pDevice,  LCD_RECT * pRect);
};




 
typedef enum {
  DEVICE_CLASS_DRIVER,
  DEVICE_CLASS_DRIVER_MODIFIER,   
  DEVICE_CLASS_VNC,
  DEVICE_CLASS_SPRITE,
  DEVICE_CLASS_MEMDEV,
  DEVICE_CLASS_ALPHA,
  DEVICE_CLASS_AUTOALPHA,
  DEVICE_CLASS_MEASDEV
} DEVICE_CLASS;






 



extern const GUI_DEVICE_API GUIDRV_Win_API;

extern const GUI_DEVICE_API GUIDRV_Template_API;



















 
struct GUI_DEVICE {
  
  
  
  GUI_DEVICE * pNext;
  GUI_DEVICE * pPrev;
  
  
  
  union {
    signed long hContext; 
    void   * pContext; 
  } u;
  
  
  
  const GUI_DEVICE_API     * pDeviceAPI;
  const LCD_API_COLOR_CONV * pColorConvAPI;
  U16 Flags;
  int LayerIndex;
};

extern const GUI_DEVICE_API GUI_MEMDEV_DEVICE_1;
extern const GUI_DEVICE_API GUI_MEMDEV_DEVICE_8;
extern const GUI_DEVICE_API GUI_MEMDEV_DEVICE_16;
extern const GUI_DEVICE_API GUI_MEMDEV_DEVICE_32;







 
typedef union {
  U8  aColorIndex8[2];
  U16 aColorIndex16[2];
  U32 aColorIndex32[2];
} LCD_COLORINDEX_UNION;

struct GUI_CONTEXT {
  
  
  
  LCD_COLORINDEX_UNION LCD;
  LCD_RECT       ClipRect;
  U8             DrawMode;
  U8             SelLayer;
  U8             TextStyle;
  
  
  
  GUI_RECT * pClipRect_HL;                 
  U8         PenSize;
  U8         PenShape;
  U8         LineStyle;
  
  
  
  const GUI_FONT            * pAFont;
  signed short LBorder;
  signed short DispPosX, DispPosY;
  signed short DrawPosX, DrawPosY;
  signed short TextMode, TextAlign;
  GUI_COLOR Color, BkColor;                
  
  
  

    const GUI_RECT * WM__pUserClipRect;
    GUI_HWIN hAWin;
    int xOff, yOff;
    U8 WM_IsActive;

  
  
  
  GUI_DEVICE * apDevice[1];
  GUI_DEVICE * apDriver[1];
  
  
  
  signed long    hDevData;
  GUI_RECT    ClipRectPrev;
  
  
  
  const tLCD_HL_APIList * pLCD_HL;       
  U8 AA_Factor;
  U8 AA_HiResEnable;
};

 









 
GUI_DEVICE * GUI_DEVICE_Create       (const GUI_DEVICE_API * pDeviceAPI, const LCD_API_COLOR_CONV * pColorConvAPI, U16 Flags, int LayerIndex);
GUI_DEVICE * GUI_DEVICE_CreateAndLink(const GUI_DEVICE_API * pDeviceAPI, const LCD_API_COLOR_CONV * pColorConvAPI, U16 Flags, int LayerIndex);
void         GUI_DEVICE_Delete       (GUI_DEVICE * pDevice);
int          GUI_DEVICE_Link         (GUI_DEVICE * pDevice);
void         GUI_DEVICE_Unlink       (GUI_DEVICE * pDevice);
GUI_DEVICE * GUI_DEVICE__GetpDriver  (int LayerIndex);
GUI_DEVICE * GUI_DEVICE__GetpDevice  (int LayerIndex, int DeviceClass);




 
typedef struct {
  void * pData;         
  int    x0, y0;        
  int    xSize, ySize;  
  int    LineOff;       
  int    BytesPerPixel; 
} GUI_DIRTYDEVICE_INFO;

int GUI_DIRTYDEVICE_Fetch (int LayerIndex, GUI_DIRTYDEVICE_INFO * pInfo);
int GUI_DIRTYDEVICE_Delete(int LayerIndex);
int GUI_DIRTYDEVICE_Create(int LayerIndex);




 
int          GUI_Init             (void);
void         GUI_Exit             (void);
void         GUI_SetDefaultFont   (const GUI_FONT  * pFont);
void         GUI_SetDefault       (void);
GUI_DRAWMODE GUI_SetDrawMode      (GUI_DRAWMODE dm);
const char * GUI_GetVersionString (void);
void         GUI_SaveContext_W      (      GUI_CONTEXT * pContext);
void         GUI_RestoreContext   (const GUI_CONTEXT * pContext);
void         GUI_SetScreenSizeX   (int xSize);
void         GUI_SetScreenSizeY   (int ySize);
int          GUI_GetScreenSizeX   (void);
int          GUI_GetScreenSizeY   (void);
const GUI_RECT * GUI_SetClipRect  (const GUI_RECT * pRect);

void         MainTask             (void);




 
int  GUI_RectsIntersect(const GUI_RECT * pr0, const GUI_RECT * pr1);
void GUI_MoveRect       (GUI_RECT * pRect, int x, int y);
void GUI_MergeRect      (GUI_RECT * pDest, const GUI_RECT * pr0, const GUI_RECT * pr1);
int  GUI__IntersectRects(GUI_RECT * pDest, const GUI_RECT * pr0, const GUI_RECT * pr1);
void GUI__IntersectRect (GUI_RECT * pDest, const GUI_RECT * pr0);
void GUI__ReduceRect    (GUI_RECT * pDest, const GUI_RECT * pRect, int Dist);




 
int  GUI__CompactPixelIndices  (U32 * pBuffer, int NumPixels, int BitsPerPixel);
int  GUI__CompactPixelIndicesEx(U32 * pBuffer, int NumPixels, int BitsPerPixel, const LCD_API_COLOR_CONV * pColorConvAPI);
void GUI__Config(void);
signed long  GUI__CosHQ(signed long Ang1000);
int  GUI__DivideRound     (int a, int b);
signed long  GUI__DivideRound32   (signed long a, signed long b);
void GUI__ExpandPixelIndices   (void * pBuffer, int NumPixels, int BitsPerPixel);
void GUI__ExpandPixelIndicesEx (void * pBuffer, int NumPixels, int BitsPerPixel, const LCD_API_COLOR_CONV * pColorConvAPI);
void GUI__memcpy(void * pDest, const void * pSrc, int NumBytes);
int  GUI__SetText(signed long * phText, const char * s);
signed long  GUI__SinHQ(signed long Ang1000);
signed long  GUI__sqrt32(signed long Square);
void GUI__DrawTwinArc2(int xl, int xr, int y0,         int r, GUI_COLOR ColorR0, GUI_COLOR ColorR1, GUI_COLOR ColorFill);
void GUI__DrawTwinArc4(int x0, int y0, int x1, int y1, int r, GUI_COLOR ColorR0, GUI_COLOR ColorR1, GUI_COLOR ColorFill);
void GUI__FillTrippleArc(int x0, int y0, int Size, GUI_COLOR ColorR0, GUI_COLOR ColorR1, GUI_COLOR ColorR2, GUI_COLOR ColorFill);
void GUI__RegisterExit(GUI_REGISTER_EXIT * pRegisterExit);




 
GUI_COLOR GUI_GetBkColor     (void);
int       GUI_GetBkColorIndex(void);
GUI_COLOR GUI_GetColor       (void);
int       GUI_GetColorIndex  (void);
U8        GUI_GetLineStyle   (void);
U8        GUI_GetPenSize     (void);
U8        GUI_GetPenShape    (void);
unsigned  GUI_GetPixelIndex  (int x, int y);

void      GUI_SetBkColor   (GUI_COLOR);
void      GUI_SetColor     (GUI_COLOR);
void      GUI_SetBkColorIndex(int Index);
void      GUI_SetColorIndex(int Index);

U8        GUI_SetPenSize   (U8 Size);
U8        GUI_SetPenShape  (U8 Shape);
U8        GUI_SetLineStyle (U8 Style);

 
char      GUI_GetDecChar(void);
char      GUI_SetDecChar(char c);




 
int       GUI_Color2Index(GUI_COLOR color);
GUI_COLOR GUI_Color2VisColor(GUI_COLOR color);
char      GUI_ColorIsAvailable(GUI_COLOR color);
GUI_COLOR GUI_Index2Color(int Index);
U32       GUI_CalcColorDist (GUI_COLOR Color0, GUI_COLOR  Color1);
U32       GUI_CalcVisColorError(GUI_COLOR color);




 
void GUI_Error(const char * s);




 
void GUI_Log      (const char * s);
void GUI_Log1     (const char * s, int p0);
void GUI_Log2     (const char * s, int p0, int p1);
void GUI_Log3     (const char * s, int p0, int p1, int p2);
void GUI_Log4     (const char * s, int p0, int p1, int p2,int p3);
void GUI_Warn     (const char * s);
void GUI_Warn1    (const char * s, int p0);
void GUI_Warn2    (const char * s, int p0, int p1);
void GUI_Warn3    (const char * s, int p0, int p1, int p2);
void GUI_Warn4    (const char * s, int p0, int p1, int p2, int p3);
void GUI_ErrorOut (const char * s);
void GUI_ErrorOut1(const char * s, int p0);
void GUI_ErrorOut2(const char * s, int p0, int p1);
void GUI_ErrorOut3(const char * s, int p0, int p1, int p2);
void GUI_ErrorOut4(const char * s, int p0, int p1, int p2, int p3);




 
void GUI_Clear            (void);
void GUI_ClearRect        (int x0, int y0, int x1, int y1);
void GUI_ClearRectEx      (const GUI_RECT * pRect);
void GUI_CopyRect         (int x0, int y0, int x1, int y1, int dx, int dy);
void GUI_DrawArc          (int x0, int y0, int rx, int ry, int a0, int a1);
void GUI_DrawBitmap       (const GUI_BITMAP  * pBM, int x0, int y0);
void GUI_DrawBitmapMag    (const GUI_BITMAP  * pBM, int x0, int y0, int XMul, int YMul);
void GUI_DrawBitmapEx     (const GUI_BITMAP  * pBM, int x0, int y0, int xCenter, int yCenter, int xMag, int yMag);
void GUI_DrawBitmapExp    (int x0, int y0, int XSize, int YSize, int XMul,  int YMul, int BitsPerPixel, int BytesPerLine, const U8  * pData, const GUI_LOGPALETTE  * pPal);
void GUI_DrawBitmapHWAlpha(const GUI_BITMAP  * pBM, int x0, int y0);
void GUI_DrawCircle       (int x0, int y0, int r);
void GUI_DrawEllipse      (int x0, int y0, int rx, int ry);
void GUI_DrawGradientH    (int x0, int y0, int x1, int y1, GUI_COLOR Color0, GUI_COLOR Color1);
void GUI_DrawGradientV    (int x0, int y0, int x1, int y1, GUI_COLOR Color0, GUI_COLOR Color1);
void GUI_DrawGradientRoundedH(int x0, int y0, int x1, int y1, int rd, GUI_COLOR Color0, GUI_COLOR Color1);
void GUI_DrawGradientRoundedV(int x0, int y0, int x1, int y1, int rd, GUI_COLOR Color0, GUI_COLOR Color1);
void GUI_DrawGraph        (signed short * pay, int NumPoints, int x0, int y0);
void GUI_DrawGraphEx      (signed short * pay, int NumPoints, int x0, int y0, int Numerator, int Denominator, int MirrorX);
void GUI_DrawHLine        (int y0, int x0, int x1);
void GUI_DrawLine         (int x0, int y0, int x1, int y1);
void GUI_DrawLineRel      (int dx, int dy);
void GUI_DrawLineTo       (int x, int y);
void GUI_DrawPie          (int x0, int y0, int r, int a0, int a1, int Type);
void GUI_DrawPixel        (int x, int y);
void GUI_DrawPoint        (int x, int y);
void GUI_DrawPolygon      (const GUI_POINT * pPoints, int NumPoints, int x0, int y0);
void GUI_DrawPolyLine     (const GUI_POINT * pPoints, int NumPoints, int x0, int y0);
void GUI_DrawFocusRect    (const GUI_RECT  * pRect, int Dist);
void GUI_DrawRect         (int x0, int y0, int x1, int y1);
void GUI_DrawRectEx       (const GUI_RECT * pRect);
void GUI_DrawRoundedFrame (int x0, int y0, int x1, int y1, int r, int w);
void GUI_DrawRoundedRect  (int x0, int y0, int x1, int y1, int r);
void GUI_DrawVLine        (int x0, int y0, int y1);
void GUI_FillCircle       (int x0, int y0, int r);
void GUI_FillEllipse      (int x0, int y0, int rx, int ry);
void GUI_FillPolygon      (const GUI_POINT * pPoints, int NumPoints, int x0, int y0);
void GUI_FillRect         (int x0, int y0, int x1, int y1);
void GUI_FillRectEx       (const GUI_RECT * pRect);
void GUI_FillRoundedFrame (int x0, int y0, int x1, int y1, int r, int w);
void GUI_FillRoundedRect  (int x0, int y0, int x1, int y1, int r);
void GUI_FillRoundedRectB (int x0, int y0, int x1, int y1, int r);
void GUI_FillRoundedRectT (int x0, int y0, int x1, int y1, int r);
void GUI_GetClientRect    (GUI_RECT * pRect);
void GUI_InvertRect       (int x0, int y0, int x1, int y1);
void GUI_MoveRel          (int dx, int dy);
void GUI_MoveTo           (int x, int y);




 
typedef int GUI_GET_DATA_FUNC(void * p, const U8 ** ppData, unsigned NumBytes, U32 Off);




 
int GUI_GIF_Draw           (const void * pGIF, U32 NumBytes,         int x0, int y0);
int GUI_GIF_DrawEx         (GUI_GET_DATA_FUNC * pfGetData, void * p, int x0, int y0);
int GUI_GIF_DrawSub        (const void * pGIF, U32 NumBytes,         int x0, int y0, int Index);
int GUI_GIF_DrawSubEx      (GUI_GET_DATA_FUNC * pfGetData, void * p, int x0, int y0, int Index);
int GUI_GIF_DrawSubScaled  (const void * pGIF, U32 NumBytes,         int x0, int y0, int Index, int Num, int Denom);
int GUI_GIF_DrawSubScaledEx(GUI_GET_DATA_FUNC * pfGetData, void * p, int x0, int y0, int Index, int Num, int Denom);
int GUI_GIF_GetComment     (const void * pGIF, U32 NumBytes,         U8 * pBuffer, int MaxSize, int Index);
int GUI_GIF_GetCommentEx   (GUI_GET_DATA_FUNC * pfGetData, void * p, U8 * pBuffer, int MaxSize, int Index);
int GUI_GIF_GetImageInfo   (const void * pGIF, U32 NumBytes,         GUI_GIF_IMAGE_INFO * pInfo, int Index);
int GUI_GIF_GetImageInfoEx (GUI_GET_DATA_FUNC * pfGetData, void * p, GUI_GIF_IMAGE_INFO * pInfo, int Index);
int GUI_GIF_GetInfo        (const void * pGIF, U32 NumBytes,         GUI_GIF_INFO * pInfo);
int GUI_GIF_GetInfoEx      (GUI_GET_DATA_FUNC * pfGetData, void * p, GUI_GIF_INFO * pInfo);
int GUI_GIF_GetXSize       (const void * pGIF);
int GUI_GIF_GetXSizeEx     (GUI_GET_DATA_FUNC * pfGetData, void * p);
int GUI_GIF_GetYSize       (const void * pGIF);
int GUI_GIF_GetYSizeEx     (GUI_GET_DATA_FUNC * pfGetData, void * p);
int GUI_GIF_SetFillTrans   (int OnOff);




 
int  GUI_BMP_Draw        (const void * pFileData,                  int x0, int y0);
int  GUI_BMP_DrawEx      (GUI_GET_DATA_FUNC * pfGetData, void * p, int x0, int y0);
int  GUI_BMP_DrawScaled  (const void * pFileData,                  int x0, int y0, int Num, int Denom);
int  GUI_BMP_DrawScaledEx(GUI_GET_DATA_FUNC * pfGetData, void * p, int x0, int y0, int Num, int Denom);
int  GUI_BMP_GetXSize    (const void * pFileData);
int  GUI_BMP_GetXSizeEx  (GUI_GET_DATA_FUNC * pfGetData, void * p);
int  GUI_BMP_GetYSize    (const void * pFileData);
int  GUI_BMP_GetYSizeEx  (GUI_GET_DATA_FUNC * pfGetData, void * p);
void GUI_BMP_EnableAlpha (void);
void GUI_BMP_DisableAlpha(void);




 
int GUI_PNG_Draw      (const void * pFileData, int DataSize, int x0, int y0);
int GUI_PNG_DrawEx    (GUI_GET_DATA_FUNC * pfGetData, void * p, int x0, int y0);
int GUI_PNG_GetXSize  (const void * pFileData, int FileSize);
int GUI_PNG_GetXSizeEx(GUI_GET_DATA_FUNC * pfGetData, void * p);
int GUI_PNG_GetYSize  (const void * pFileData, int FileSize);
int GUI_PNG_GetYSizeEx(GUI_GET_DATA_FUNC * pfGetData, void * p);




 
typedef struct {
  int XSize;
  int YSize;
} GUI_JPEG_INFO;

int GUI_JPEG_Draw        (const void * pFileData, int DataSize,    int x0, int y0);
int GUI_JPEG_DrawEx      (GUI_GET_DATA_FUNC * pfGetData, void * p, int x0, int y0);
int GUI_JPEG_DrawScaled  (const void * pFileData, int DataSize,    int x0, int y0, int Num, int Denom);
int GUI_JPEG_DrawScaledEx(GUI_GET_DATA_FUNC * pfGetData, void * p, int x0, int y0, int Num, int Denom);
int GUI_JPEG_GetInfo     (const void * pFileData, int DataSize,    GUI_JPEG_INFO * pInfo);
int GUI_JPEG_GetInfoEx   (GUI_GET_DATA_FUNC * pfGetData, void * p, GUI_JPEG_INFO * pInfo);




 



typedef struct {
  const  GUI_BITMAP * pBitmap;
  int xHot, yHot;
} GUI_CURSOR;

typedef struct {
  const  GUI_BITMAP ** ppBm;
  int                             xHot, yHot;
  unsigned                        Period;
  const unsigned                * pPeriod;
  int                             NumItems;
} GUI_CURSOR_ANIM;


  int                            GUI_CURSOR_GetState           (void);
  int                            GUI_CURSOR_GetStateEx         (int Layer);
  void                           GUI_CURSOR_Hide               (void);
  void                           GUI_CURSOR_HideEx             (int Layer);
  const GUI_CURSOR  * GUI_CURSOR_Select             (const GUI_CURSOR  * pCursor);
  const GUI_CURSOR  * GUI_CURSOR_SelectEx           (const GUI_CURSOR  * pCursor, int Layer);
  int                            GUI_CURSOR_SelectAnim         (const GUI_CURSOR_ANIM  * pCursorAnim);
  int                            GUI_CURSOR_SelectAnimEx       (const GUI_CURSOR_ANIM  * pCursorAnim, int LayerIndex);
  int                            GUI_CURSOR_SetBitmap          (const GUI_BITMAP  * pBM);
  int                            GUI_CURSOR_SetBitmapEx        (const GUI_BITMAP  * pBM, int Layer);
  void                           GUI_CURSOR_SetPosition        (int x, int y);
  void                           GUI_CURSOR_SetPositionEx      (int xNewPos, int yNewPos, int Layer);
  void                           GUI_CURSOR_Show               (void);
  void                           GUI_CURSOR_ShowEx             (int Layer);

  void                           GUI_CURSOR__SetCallback       (void (* pCB)(int Cmd, int Layer), int Layer);









 






GUI_HSPRITE GUI_SPRITE__CreateEx           (const GUI_BITMAP  * pBM, int x, int y, int Layer, U16 Flags);  
void        GUI_SPRITE__SetCallback        (GUI_HSPRITE hSprite, signed long hContext, void (* pCB)(signed long hContext, int Cmd));
GUI_HSPRITE GUI_SPRITE_Create              (const GUI_BITMAP  * pBM, int x, int y);
GUI_HSPRITE GUI_SPRITE_CreateAnim          (const GUI_BITMAP  ** ppBm, int x, int y, unsigned Period, const unsigned * pPeriod, int NumItems);
GUI_HSPRITE GUI_SPRITE_CreateEx            (const GUI_BITMAP  * pBM, int x, int y, int Layer);
GUI_HSPRITE GUI_SPRITE_CreateExAnim        (const GUI_BITMAP  ** ppBm, int x, int y, unsigned Period, const unsigned * pPeriod, int NumItems, int LayerIndex);
void        GUI_SPRITE_Delete              (GUI_HSPRITE hSprite);
int         GUI_SPRITE_GetState            (GUI_HSPRITE hSprite);
void        GUI_SPRITE_Hide                (GUI_HSPRITE hSprite);
int         GUI_SPRITE_SetBitmap           (GUI_HSPRITE hSprite, const GUI_BITMAP  * pBM);
int         GUI_SPRITE_SetBitmapAndPosition(GUI_HSPRITE hSprite, const GUI_BITMAP  * pBM, int x, int y);
void        GUI_SPRITE_SetPosition         (GUI_HSPRITE hSprite, int x, int y);
void        GUI_SPRITE_Show                (GUI_HSPRITE hSprite);




 
extern const GUI_CURSOR GUI_CursorArrowS,  GUI_CursorArrowSI;
extern const GUI_CURSOR GUI_CursorArrowM,  GUI_CursorArrowMI;
extern const GUI_CURSOR GUI_CursorArrowL,  GUI_CursorArrowLI;
extern const GUI_CURSOR GUI_CursorCrossS,  GUI_CursorCrossSI;
extern const GUI_CURSOR GUI_CursorCrossM,  GUI_CursorCrossMI;
extern const GUI_CURSOR GUI_CursorCrossL,  GUI_CursorCrossLI;
extern const GUI_CURSOR GUI_CursorHeaderM, GUI_CursorHeaderMI;

extern const GUI_BITMAP GUI_BitmapArrowS, GUI_BitmapArrowSI;
extern const GUI_BITMAP GUI_BitmapArrowM, GUI_BitmapArrowMI;
extern const GUI_BITMAP GUI_BitmapArrowL, GUI_BitmapArrowLI;
extern const GUI_BITMAP GUI_BitmapCrossS, GUI_BitmapCrossSI;
extern const GUI_BITMAP GUI_BitmapCrossM, GUI_BitmapCrossMI;
extern const GUI_BITMAP GUI_BitmapCrossL, GUI_BitmapCrossLI;

extern const GUI_CURSOR_ANIM GUI_CursorAnimHourglassM;




 
typedef enum { GUI_WRAPMODE_NONE, GUI_WRAPMODE_WORD, GUI_WRAPMODE_CHAR } GUI_WRAPMODE;




 
void  GUI_DispCEOL             (void);
void  GUI_DispChar             (U16 c);
void  GUI_DispCharAt           (U16 c, signed short x, signed short y);
void  GUI_DispChars            (U16 c, int Cnt);
void  GUI_DispNextLine         (void);
void  GUI_DispString           (const char  * s);
void  GUI_DispStringAt         (const char  * s, int x, int y);
void  GUI_DispStringAtCEOL     (const char  * s, int x, int y);
void  GUI_DispStringHCenterAt  (const char  * s, int x, int y);
void  GUI__DispStringInRect    (const char  * s, GUI_RECT * pRect, int TextAlign, int MaxNumChars);
void  GUI_DispStringInRect     (const char  * s, GUI_RECT * pRect, int TextAlign);

  void  GUI_DispStringInRectEx (const char  * s, GUI_RECT * pRect, int TextAlign, int MaxLen, const tLCD_APIList * pLCD_Api);

void  GUI_DispStringInRectMax  (const char  * s, GUI_RECT * pRect, int TextAlign, int MaxLen);  
void  GUI_DispStringInRectWrap (const char  * s, GUI_RECT * pRect, int TextAlign, GUI_WRAPMODE WrapMode);  
void  GUI_DispStringLen        (const char  * s, int Len);
void  GUI_GetTextExtend        (GUI_RECT* pRect, const char  * s, int Len);
int   GUI_GetYAdjust           (void);
int   GUI_GetDispPosX          (void);
int   GUI_GetDispPosY          (void);
const GUI_FONT  * GUI_GetFont(void);
int   GUI_GetCharDistX         (U16 c);
int   GUI_GetCharDistXEx       (U16 c, int * pSizeX);
int   GUI_GetStringDistX       (const char  * s);
GUI_DRAWMODE GUI_GetDrawMode   (void);
int   GUI_GetFontDistY         (void);
int   GUI_GetFontSizeY         (void);
void  GUI_GetFontInfo          (const GUI_FONT  * pFont, GUI_FONTINFO * pfi);
void  GUI_GetOrg               (int * px, int * py);
int   GUI_GetYSizeOfFont       (const GUI_FONT  * pFont);
int   GUI_GetYDistOfFont       (const GUI_FONT  * pFont);
int   GUI_GetTextAlign         (void);
int   GUI_GetTextMode          (void);
char  GUI_IsInFont             (const GUI_FONT  * pFont, U16 c);
int   GUI_SetTextAlign         (int Align);
int   GUI_SetTextMode          (int Mode);
char  GUI_SetTextStyle         (char Style);
int   GUI_SetLBorder           (int x);
const GUI_FONT  * GUI_SetFont(const GUI_FONT  * pNewFont);
char  GUI_GotoXY               (int x, int y);
char  GUI_GotoX                (int x);
char  GUI_GotoY                (int y);
int   GUI_WrapGetNumLines      (const char  * pText, int xSize, GUI_WRAPMODE WrapMode);

int   GUI_GetLeadingBlankCols (U16 c);
int   GUI_GetTrailingBlankCols(U16 c);





 
void GUI_SIF_CreateFont(const void * pFontData, GUI_FONT * pFont, const tGUI_SIF_APIList * pFontType);
void GUI_SIF_DeleteFont(GUI_FONT * pFont);




 
int  GUI_XBF_CreateFont(GUI_FONT * pFont, GUI_XBF_DATA * pXBF, const tGUI_XBF_APIList * pFontType, GUI_XBF_GET_DATA_FUNC * pfGetData, void * pVoid);
void GUI_XBF_DeleteFont(GUI_FONT * pFont);




 
int  GUI_TTF_CreateFont   (GUI_FONT * pFont, GUI_TTF_CS * pCS);
void GUI_TTF_DestroyCache (void);
void GUI_TTF_Done         (void);
int  GUI_TTF_GetFamilyName(GUI_FONT * pFont, char * pBuffer, int NumBytes);
int  GUI_TTF_GetStyleName (GUI_FONT * pFont, char * pBuffer, int NumBytes);
void GUI_TTF_SetCacheSize (unsigned MaxFaces, unsigned MaxSizes, U32 MaxBytes);




 
int          GUI_LANG_GetNumItems  (int IndexLang);
const char * GUI_LANG_GetText      (int IndexText);
const char * GUI_LANG_GetTextEx    (int IndexText, int IndexLang);
int          GUI_LANG_LoadCSV      (char * pFileData, U32 FileSize);
int          GUI_LANG_LoadCSVEx    (GUI_GET_DATA_FUNC * pfGetData, void * p);
int          GUI_LANG_LoadText     (char * pFileData, U32 FileSize, int IndexLang);
int          GUI_LANG_LoadTextEx   (GUI_GET_DATA_FUNC * pfGetData, void * p, int IndexLang);
int          GUI_LANG_SetLang      (int IndexLang);
unsigned     GUI_LANG_SetMaxNumLang(unsigned MaxNumLang);
U16          GUI_LANG_SetSep       (U16 Sep);




 
int   GUI_UC_ConvertUC2UTF8   (const U16  * s, int Len, char * pBuffer, int BufferSize);
int   GUI_UC_ConvertUTF82UC   (const char  * s, int Len, U16 * pBuffer, int BufferSize);
int   GUI_UC_Encode           (char * s, U16 Char);
int   GUI_UC_GetCharSize      (const char  * s);
U16   GUI_UC_GetCharCode      (const char  * s);
void  GUI_UC_SetEncodeNone    (void);
void  GUI_UC_SetEncodeUTF8    (void);
int   GUI_UC_EnableBIDI       (int OnOff);

void GUI_UC_DispString(const U16  * s);
void GUI_UC2DB (U16 Code, U8 * pOut);
U16  GUI_DB2UC (U8 Byte0, U8 Byte1);




 
void GUI_DispBin  (U32  v, U8 Len);
void GUI_DispBinAt(U32  v, signed short x, signed short y, U8 Len);
void GUI_DispDec  (signed long v, U8 Len);
void GUI_DispDecAt (signed long v, signed short x, signed short y, U8 Len);
void GUI_DispDecMin(signed long v);
void GUI_DispDecShift(signed long v, U8 Len, U8 Shift);
void GUI_DispDecSpace(signed long v, U8 MaxDigits);
void GUI_DispHex  (U32 v, U8 Len);
void GUI_DispHexAt(U32 v, signed short x, signed short y, U8 Len);
void GUI_DispSDec(signed long v, U8 Len);
void GUI_DispSDecShift(signed long v, U8 Len, U8 Shift);




 
void GUI_DispFloat    (float v, char Len);
void GUI_DispFloatFix (float v, char Len, char Fract);
void GUI_DispFloatMin (float v, char Fract);
void GUI_DispSFloatFix(float v, char Len, char Fract);
void GUI_DispSFloatMin(float v, char Fract);




 

   
  signed long GUI_ALLOC_GetNumFreeBlocks(void);
  signed long GUI_ALLOC_GetNumFreeBytes (void);
  signed long GUI_ALLOC_GetNumUsedBlocks(void);
  signed long GUI_ALLOC_GetNumUsedBytes (void);
#line 777 "GUI\\GUI.h"

signed long           GUI_ALLOC_AllocInit       (const void * pInitData, signed long Size);
signed long           GUI_ALLOC_AllocNoInit     (signed long size);
signed long           GUI_ALLOC_AllocZero       (signed long size);
void               GUI_ALLOC_AssignMemory    (void * p, U32 NumBytes);
void               GUI_ALLOC_Free            (signed long  hMem);
void               GUI_ALLOC_FreeFixedBlock  (void * p);
void               GUI_ALLOC_FreePtrArray    (signed long * pArray, int NumElems);
void               GUI_ALLOC_FreePtr         (signed long * phMem);
void *             GUI_ALLOC_GetFixedBlock   (signed long Size);
signed long GUI_ALLOC_GetMaxSize      (void);
signed long GUI_ALLOC_GetSize         (signed long  hMem);
void *             GUI_ALLOC_h2p             (signed long  hMem);
signed long           GUI_ALLOC_p2h             (void * p);
void               GUI_ALLOC_Init            (void);
void               GUI_ALLOC_Lock            (void);
void *             GUI_ALLOC_LockH           (signed long  hMem);
signed long           GUI_ALLOC_Realloc         (signed long hOld, int NewSize);
signed long GUI_ALLOC_RequestSize     (void);
void               GUI_ALLOC_SetAvBlockSize  (U32 BlockSize);
void               GUI_ALLOC_Unlock          (void);
void *             GUI_ALLOC_UnlockH         (void ** pp);
int                GUI_ALLOC_SetMaxPercentage(int MaxPercentage);





 



typedef signed long GUI_MEMDEV_Handle;
typedef void     GUI_CALLBACK_VOID_P        (void * p);
typedef int      GUI_ANIMATION_CALLBACK_FUNC(int TimeRem, void * pVoid);

extern GUI_ANIMATION_CALLBACK_FUNC * GUI_MEMDEV__pCbAnimation;
extern void                        * GUI_MEMDEV__pVoid;

typedef struct {
  GUI_RECT rView, rPrev;
  char FirstCall;
} GUI_AUTODEV;

typedef struct {
  char DrawFixed;
  char IsMeasurement;
} GUI_AUTODEV_INFO;

int  GUI_MEMDEV_CreateAuto(GUI_AUTODEV * pAutoDev);
void GUI_MEMDEV_DeleteAuto(GUI_AUTODEV * pAutoDev);
int  GUI_MEMDEV_DrawAuto  (GUI_AUTODEV * pAutoDev, GUI_AUTODEV_INFO * pAutoDevInfo, GUI_CALLBACK_VOID_P * pfDraw, void * pData);

 
GUI_MEMDEV_Handle GUI_MEMDEV_Create     (int x0, int y0, int XSize, int YSize);
GUI_MEMDEV_Handle GUI_MEMDEV_CreateEx   (int x0, int y0, int XSize, int YSize, int Flags);
GUI_MEMDEV_Handle GUI_MEMDEV_CreateFixed(int x0, int y0,
                                         int xsize, int ysize, int Flags,
                                         const GUI_DEVICE_API     * pDeviceAPI,
                                         const LCD_API_COLOR_CONV * pColorConvAPI);
void GUI_MEMDEV_Clear                (GUI_MEMDEV_Handle hMem);
void GUI_MEMDEV_CopyFromLCD          (GUI_MEMDEV_Handle hMem);
void GUI_MEMDEV_CopyFromLCDAA        (GUI_MEMDEV_Handle hMem);
void GUI_MEMDEV_CopyToLCD            (GUI_MEMDEV_Handle hMem);
void GUI_MEMDEV_CopyToLCDAA          (GUI_MEMDEV_Handle hMem);
void GUI_MEMDEV_CopyToLCDAt          (GUI_MEMDEV_Handle hMem, int x, int y);
int  GUI_MEMDEV_CompareWithLCD       (GUI_MEMDEV_Handle hMem, int * px, int * py, int * pExp, int * pAct);
void GUI_MEMDEV_Delete               (GUI_MEMDEV_Handle MemDev);
void GUI_MEMDEV_DrawPerspectiveX     (GUI_MEMDEV_Handle hMem, int x, int y, int h0, int h1, int dx, int dy);
int  GUI_MEMDEV_GetXPos              (GUI_MEMDEV_Handle hMem);
int  GUI_MEMDEV_GetXSize             (GUI_MEMDEV_Handle hMem);
int  GUI_MEMDEV_GetYPos              (GUI_MEMDEV_Handle hMem);
int  GUI_MEMDEV_GetYSize             (GUI_MEMDEV_Handle hMem);
void GUI_MEMDEV_MarkDirty            (GUI_MEMDEV_Handle hMem, int x0, int y0, int x1, int y1);
void GUI_MEMDEV_ReduceYSize          (GUI_MEMDEV_Handle hMem, int YSize);
void GUI_MEMDEV_Rotate               (GUI_MEMDEV_Handle hSrc, GUI_MEMDEV_Handle hDst, int dx, int dy, int a, int Mag);
void GUI_MEMDEV__Rotate              (GUI_MEMDEV_Handle hSrc, GUI_MEMDEV_Handle hDst, int dx, int dy, int a, int Mag, U32 AndMask);
void GUI_MEMDEV_RotateHQ             (GUI_MEMDEV_Handle hSrc, GUI_MEMDEV_Handle hDst, int dx, int dy, int a, int Mag);
void GUI_MEMDEV_RotateHQT            (GUI_MEMDEV_Handle hSrc, GUI_MEMDEV_Handle hDst, int dx, int dy, int a, int Mag);
GUI_MEMDEV_Handle GUI_MEMDEV_Select  (GUI_MEMDEV_Handle hMem);   
void  GUI_MEMDEV_SetOrg              (GUI_MEMDEV_Handle hMem, int x0, int y0);
void  GUI_MEMDEV_WriteAt             (GUI_MEMDEV_Handle hMem, int x, int y);
void  GUI_MEMDEV_Write               (GUI_MEMDEV_Handle hMem);
void  GUI_MEMDEV_WriteAlphaAt        (GUI_MEMDEV_Handle hMem, int Alpha, int x, int y);
void  GUI_MEMDEV_WriteAlpha          (GUI_MEMDEV_Handle hMem, int Alpha);
void  GUI_MEMDEV_WriteExAt           (GUI_MEMDEV_Handle hMem, int x, int y, int xMag, int yMag, int Alpha);
void  GUI_MEMDEV_WriteEx             (GUI_MEMDEV_Handle hMem, int xMag, int yMag, int Alpha);
int   GUI_MEMDEV_Draw                (GUI_RECT * pRect, GUI_CALLBACK_VOID_P * pfDraw, void * pData, int NumLines, int Flags);
void* GUI_MEMDEV_GetDataPtr          (GUI_MEMDEV_Handle hMem);
void  GUI_MEMDEV_SetColorConv        (GUI_MEMDEV_Handle hMem, const LCD_API_COLOR_CONV * pColorConvAPI);
int   GUI_MEMDEV_GetBitsPerPixel     (GUI_MEMDEV_Handle hMemDev);
int   GUI_MEMDEV_FadeDevices         (GUI_MEMDEV_Handle hMem0, GUI_MEMDEV_Handle hMem1, int Period);
void  GUI_MEMDEV_SetAnimationCallback(GUI_ANIMATION_CALLBACK_FUNC * pCbAnimation, void * pVoid);
void  GUI_MEMDEV__FadeDevice         (GUI_MEMDEV_Handle hMemWin, GUI_MEMDEV_Handle hMemBk, GUI_MEMDEV_Handle hMemDst, U8 Intens);
void  GUI_MEMDEV__FadeDeviceEx       (GUI_MEMDEV_Handle hMemWin, GUI_MEMDEV_Handle hMemBk, GUI_MEMDEV_Handle hMemDst, U8 Intens, int xPosWin, int yPosWin);
void  GUI_SelectLCD(void);




 
typedef struct {
  U32 UserAlpha;
} GUI_ALPHA_STATE;



unsigned GUI_EnableAlpha     (unsigned OnOff);
U32      GUI_RestoreUserAlpha(GUI_ALPHA_STATE * pAlphaState);
unsigned GUI_SetAlpha        (U8 Alpha);
U32      GUI_SetUserAlpha    (GUI_ALPHA_STATE * pAlphaState, U32 UserAlpha);




 
unsigned GUI_SelectLayer(unsigned Index);

int  GUI_SetLayerPosEx  (unsigned Index, int xPos, int yPos);
int  GUI_SetLayerSizeEx (unsigned Index, int xSize, int ySize);
int  GUI_SetLayerVisEx  (unsigned Index, int OnOff);
int  GUI_SetLayerAlphaEx(unsigned Index, int Alpha);
void GUI_GetLayerPosEx  (unsigned Index, int * pxPos, int * pyPos);

void     GUI_AssignCursorLayer(unsigned Index, unsigned CursorLayer);
unsigned GUI_GetCursorLayer   (unsigned Index);




 
void GUI_SetOrg(int x, int y);

void GUI_MULTIBUF_Begin          (void);
void GUI_MULTIBUF_BeginEx        (int LayerIndex);
void GUI_MULTIBUF_End            (void);
void GUI_MULTIBUF_EndEx          (int LayerIndex);
void GUI_MULTIBUF_Config         (int NumBuffers);
void GUI_MULTIBUF_ConfigEx       (int LayerIndex, int NumBuffers);
void GUI_MULTIBUF_Confirm        (int Index);
void GUI_MULTIBUF_ConfirmEx      (int LayerIndex, int BufferIndex);
int  GUI_MULTIBUF_GetNumBuffers  (void);
int  GUI_MULTIBUF_GetNumBuffersEx(int LayerIndex);
void GUI_MULTIBUF_UseSingleBuffer(void);




 



 
typedef struct {
  void     (* pfDrawBitmap   )(GUI_DEVICE * pDevice, int x0, int y0, int xsize, int ysize, int BitsPerPixel, int BytesPerLine, const U8  * pData, int Diff, const U32 * pTrans);
  void     (* pfDrawHLine    )(GUI_DEVICE * pDevice, int x0, int y0,  int x1);
  void     (* pfDrawVLine    )(GUI_DEVICE * pDevice, int x , int y0,  int y1);
  void     (* pfFillRect     )(GUI_DEVICE * pDevice, int x0, int y0, int x1, int y1);
  unsigned (* pfGetPixelIndex)(GUI_DEVICE * pDevice, int x, int y);
  void     (* pfSetPixelIndex)(GUI_DEVICE * pDevice, int x, int y, int ColorIndex);
  void     (* pfXorPixel     )(GUI_DEVICE * pDevice, int x, int y);
  int      BytesPerPixel;
} GUI_ORIENTATION_API;

extern const GUI_ORIENTATION_API GUI_OrientationAPI_C0;
extern const GUI_ORIENTATION_API GUI_OrientationAPI_C8;
extern const GUI_ORIENTATION_API GUI_OrientationAPI_C16;
extern const GUI_ORIENTATION_API GUI_OrientationAPI_C32;






int GUI_SetOrientation        (int Orientation);
int GUI_SetOrientationEx      (int Orientation, int LayerIndex);
int GUI_SetOrientationExCached(int Orientation, int LayerIndex, const GUI_ORIENTATION_API * pAPI);




 
typedef signed long GUI_MEASDEV_Handle;

GUI_MEASDEV_Handle GUI_MEASDEV_Create (void);
void               GUI_MEASDEV_Delete (GUI_MEASDEV_Handle hMemDev);
void               GUI_MEASDEV_Select (GUI_MEASDEV_Handle hMem);
void               GUI_MEASDEV_GetRect(GUI_MEASDEV_Handle hMem, GUI_RECT * pRect);
void               GUI_MEASDEV_ClearRect(GUI_MEASDEV_Handle hMem);




 
void GUI_RotatePolygon (GUI_POINT * pDest, const GUI_POINT * pSrc, int NumPoints, float Angle);
void GUI_MagnifyPolygon(GUI_POINT * pDest, const GUI_POINT * pSrc, int NumPoints, int Mag);
void GUI_EnlargePolygon(GUI_POINT * pDest, const GUI_POINT * pSrc, int NumPoints, int Len);




 






int GUI_CreateBitmapFromStreamIDX(GUI_BITMAP * pBMP, GUI_LOGPALETTE * pPAL, const void * p);
int GUI_CreateBitmapFromStreamRLE4(GUI_BITMAP * pBMP, GUI_LOGPALETTE * pPAL, const void * p);
int GUI_CreateBitmapFromStreamRLE8(GUI_BITMAP * pBMP, GUI_LOGPALETTE * pPAL, const void * p);
int GUI_CreateBitmapFromStream565(GUI_BITMAP * pBMP, GUI_LOGPALETTE * pPAL, const void * p);
int GUI_CreateBitmapFromStreamM565(GUI_BITMAP * pBMP, GUI_LOGPALETTE * pPAL, const void * p);
int GUI_CreateBitmapFromStream555(GUI_BITMAP * pBMP, GUI_LOGPALETTE * pPAL, const void * p);
int GUI_CreateBitmapFromStreamM555(GUI_BITMAP * pBMP, GUI_LOGPALETTE * pPAL, const void * p);
int GUI_CreateBitmapFromStreamRLE16(GUI_BITMAP * pBMP, GUI_LOGPALETTE * pPAL, const void * p);
int GUI_CreateBitmapFromStreamRLEM16(GUI_BITMAP * pBMP, GUI_LOGPALETTE * pPAL, const void * p);
int GUI_CreateBitmapFromStream24(GUI_BITMAP * pBMP, GUI_LOGPALETTE * pPAL, const void * p);
int GUI_CreateBitmapFromStreamAlpha(GUI_BITMAP * pBMP, GUI_LOGPALETTE * pPAL, const void * p);
int GUI_CreateBitmapFromStreamRLEAlpha(GUI_BITMAP * pBMP, GUI_LOGPALETTE * pPAL, const void * p);
int GUI_CreateBitmapFromStreamRLE32(GUI_BITMAP * pBMP, GUI_LOGPALETTE * pPAL, const void * p);

int  GUI_CreateBitmapFromStream  (GUI_BITMAP * pBMP, GUI_LOGPALETTE * pPAL, const void * p);
void GUI_DrawStreamedBitmap      (const void * p, int x, int y);
void GUI_DrawStreamedBitmapAuto  (const void * p, int x, int y);
int  GUI_DrawStreamedBitmapEx    (GUI_GET_DATA_FUNC * pfGetData, const void * p, int x, int y);
int  GUI_DrawStreamedBitmapExAuto(GUI_GET_DATA_FUNC * pfGetData, const void * p, int x, int y);
int  GUI_DrawStreamedBitmap555Ex (GUI_GET_DATA_FUNC * pfGetData, const void * p, int x, int y);
int  GUI_DrawStreamedBitmapM555Ex(GUI_GET_DATA_FUNC * pfGetData, const void * p, int x, int y);
int  GUI_DrawStreamedBitmap565Ex (GUI_GET_DATA_FUNC * pfGetData, const void * p, int x, int y);
int  GUI_DrawStreamedBitmapM565Ex(GUI_GET_DATA_FUNC * pfGetData, const void * p, int x, int y);
int  GUI_DrawStreamedBitmap24Ex  (GUI_GET_DATA_FUNC * pfGetData, const void * p, int x, int y);
void GUI_GetStreamedBitmapInfo   (const void * p, GUI_BITMAPSTREAM_INFO * pInfo);
int  GUI_GetStreamedBitmapInfoEx (GUI_GET_DATA_FUNC * pfGetData, const void * p, GUI_BITMAPSTREAM_INFO * pInfo);
void GUI_SetStreamedBitmapHook   (GUI_BITMAPSTREAM_CALLBACK pfStreamedBitmapHook);

void LCD__RLE4_SetFunc (GUI_GET_DATA_FUNC * pfGetData, void * pVoid, U32 Off, const LCD_LOGPALETTE  * pLogPal);
void LCD__RLE8_SetFunc (GUI_GET_DATA_FUNC * pfGetData, void * pVoid, U32 Off, const LCD_LOGPALETTE  * pLogPal);
void LCD__RLE16_SetFunc(GUI_GET_DATA_FUNC * pfGetData, void * pVoid, U32 Off);
void LCD__RLE32_SetFunc(GUI_GET_DATA_FUNC * pfGetData, void * pVoid, U32 Off);




 
typedef void GUI_CALLBACK_VOID_U8_P(U8 Data, void * p);

void GUI_BMP_SerializeEx(GUI_CALLBACK_VOID_U8_P * pfSerialize, int x0, int y0, int xSize, int ySize, void * p);
void GUI_BMP_Serialize  (GUI_CALLBACK_VOID_U8_P * pfSerialize, void * p);




 
void GUI_Delay  (int Period);
int  GUI_GetTime(void);
int  GUI_Exec(void);          
int  GUI_Exec1(void);         




 
int     GUI_MessageBox   (const char * sMessage, const char * sCaption, int Flags);









 



typedef signed long GUI_TIMER_HANDLE;

typedef struct {
  int   Time;
  U32              Context;
  GUI_TIMER_HANDLE hTimer;
} GUI_TIMER_MESSAGE;

typedef void GUI_TIMER_CALLBACK(  GUI_TIMER_MESSAGE* pTM);

GUI_TIMER_HANDLE GUI_TIMER_Create   (GUI_TIMER_CALLBACK * cb, int Time,  U32 Context, int Flags);
void             GUI_TIMER_Delete   (GUI_TIMER_HANDLE hObj);

 
void GUI_TIMER_SetPeriod (GUI_TIMER_HANDLE hObj, int Period);
void GUI_TIMER_SetTime   (GUI_TIMER_HANDLE hObj, int Period);
void GUI_TIMER_SetDelay  (GUI_TIMER_HANDLE hObj, int Delay);
void GUI_TIMER_Restart   (GUI_TIMER_HANDLE hObj);
int  GUI_TIMER_GetFlag   (GUI_TIMER_HANDLE hObj, int Flag);  
int  GUI_TIMER_Exec      (void);




 
void GUI_AA_DisableHiRes     (void);
void GUI_AA_EnableHiRes      (void);
int  GUI_AA_GetFactor        (void);
void GUI_AA_SetFactor        (int Factor);
void GUI_AA_DrawArc          (int x0, int y0, int rx, int ry, int a0, int a1);
void GUI_AA_DrawLine         (int x0, int y0, int x1, int y1);
void GUI_AA_DrawPolyOutline  (const GUI_POINT * pSrc, int NumPoints, int Thickness, int x, int y);
void GUI_AA_DrawPolyOutlineEx(const GUI_POINT * pSrc, int NumPoints, int Thickness, int x, int y, GUI_POINT * pBuffer);
void GUI_AA_DrawRoundedRect  (int x0, int y0, int x1, int y1, int r);
void GUI_AA_FillCircle       (int x0, int y0, int r);
void GUI_AA_FillPolygon      (GUI_POINT * pPoints, int NumPoints, int x0, int y0);
void GUI_AA_FillRoundedRect  (int x0, int y0, int x1, int y1, int r);




 
 
void GUI_StoreKeyMsg(int Key, int Pressed);
void GUI_SendKeyMsg (int Key, int Pressed);
int  GUI_PollKeyMsg (void);
void GUI_GetKeyState(GUI_KEY_STATE * pState);

 
int  GUI_GetKey(void);
int  GUI_WaitKey(void);
void GUI_StoreKey(int c);
void GUI_ClearKeyBuffer(void);




 
void GUI_WaitEvent            (void);
void GUI_SignalEvent          (void);
void GUI_SetSignalEventFunc   (GUI_SIGNAL_EVENT_FUNC     pfSignalEvent);
void GUI_SetWaitEventFunc     (GUI_WAIT_EVENT_FUNC       pfWaitEvent);
void GUI_SetWaitEventTimedFunc(GUI_WAIT_EVENT_TIMED_FUNC pfWaitEventTimed);




 
void GUI_JOYSTICK_StoreState(const GUI_PID_STATE * pState);




 
void GUI_PID_StoreState     (const GUI_PID_STATE * pState);
int  GUI_PID_GetState       (      GUI_PID_STATE * pState);
void GUI_PID_GetCurrentState(      GUI_PID_STATE * pState);
int  GUI_PID_IsEmpty        (void);
int  GUI_PID_IsPressed      (void);




 
int  GUI_MOUSE_GetState  (      GUI_PID_STATE * pState);
void GUI_MOUSE_StoreState(const GUI_PID_STATE * pState);




 
int  GUI_TOUCH_GetState     (GUI_PID_STATE * pState);
void GUI_TOUCH_GetUnstable  (int * px, int * py);   
void GUI_TOUCH_SetLayer     (int Layer);
void GUI_TOUCH_StoreState   (int x, int y);
void GUI_TOUCH_StoreStateEx (const GUI_PID_STATE * pState);
void GUI_TOUCH_StoreUnstable(int x, int y);




 
void GUI_MOUSE_DRIVER_PS2_Init(void);                
void GUI_MOUSE_DRIVER_PS2_OnRx(unsigned char Data);




 
void GUI_TOUCH_Exec                 (void);
int  GUI_TOUCH_Calibrate            (int Coord, int Log0, int Log1, int Phys0, int Phys1);
void GUI_TOUCH_SetDefaultCalibration(void);
int  GUI_TOUCH_GetxPhys             (void);     
int  GUI_TOUCH_GetyPhys             (void);     
void GUI_TOUCH_GetCalData           (int Coord, int * pMin, int * pMax);
void GUI_TOUCH_SetOrientation       (unsigned Orientation);
void GUI_TOUCH_SetOrientationPhys   (unsigned Orientation);








 
void GUI_TOUCH_X_ActivateX(void);
void GUI_TOUCH_X_ActivateY(void);
void GUI_TOUCH_X_Disable  (void);
int  GUI_TOUCH_X_MeasureX (void);
int  GUI_TOUCH_X_MeasureY (void);














 




void GUI_X_Config(void);
void GUI_X_Init(void);




int  GUI_X_GetTime(void);
void GUI_X_Delay(int Period);




void GUI_X_Unlock(void);
void GUI_X_Lock(void);
U32  GUI_X_GetTaskId(void);
void GUI_X_InitOS(void);




void GUI_X_ExecIdle(void);
void GUI_X_WaitEvent(void);
void GUI_X_WaitEventTimed(int Period);
void GUI_X_SignalEvent(void);




void GUI_X_Log(const char * s);
void GUI_X_Warn(const char * s);
void GUI_X_ErrorOut(const char * s);




 
extern const GUI_BITMAP_METHODS GUI_BitmapMethodsRLE4;
extern const GUI_BITMAP_METHODS GUI_BitmapMethodsRLE4Ex;
extern const GUI_BITMAP_METHODS GUI_BitmapMethodsRLE8;
extern const GUI_BITMAP_METHODS GUI_BitmapMethodsRLE8Ex;
extern const GUI_BITMAP_METHODS GUI_BitmapMethodsRLE16;
extern const GUI_BITMAP_METHODS GUI_BitmapMethodsRLE16Ex;
extern const GUI_BITMAP_METHODS GUI_BitmapMethodsRLEM16;
extern const GUI_BITMAP_METHODS GUI_BitmapMethodsRLEM16Ex;
extern const GUI_BITMAP_METHODS GUI_BitmapMethodsRLE32;
extern const GUI_BITMAP_METHODS GUI_BitmapMethodsRLE32Ex;
extern const GUI_BITMAP_METHODS GUI_BitmapMethodsRLEAlpha;
extern const GUI_BITMAP_METHODS GUI_BitmapMethods8888;

extern const GUI_BITMAP_METHODS GUI_BitmapMethods888;
extern const GUI_BITMAP_METHODS GUI_BitmapMethodsM888;
extern const GUI_BITMAP_METHODS GUI_BitmapMethods555;
extern const GUI_BITMAP_METHODS GUI_BitmapMethodsM555;
extern const GUI_BITMAP_METHODS GUI_BitmapMethods565;
extern const GUI_BITMAP_METHODS GUI_BitmapMethodsM565;
extern const GUI_BITMAP_METHODS GUI_BitmapMethods24;




#line 1278 "GUI\\GUI.h"

extern const tGUI_SIF_APIList GUI_SIF_APIList_Prop;
extern const tGUI_SIF_APIList GUI_SIF_APIList_Prop_Ext;
extern const tGUI_SIF_APIList GUI_SIF_APIList_Prop_Frm;
extern const tGUI_SIF_APIList GUI_SIF_APIList_Prop_AA2;
extern const tGUI_SIF_APIList GUI_SIF_APIList_Prop_AA4;
extern const tGUI_SIF_APIList GUI_SIF_APIList_Prop_AA2_EXT;
extern const tGUI_SIF_APIList GUI_SIF_APIList_Prop_AA4_EXT;

extern const tGUI_XBF_APIList GUI_XBF_APIList_Prop;
extern const tGUI_XBF_APIList GUI_XBF_APIList_Prop_Ext;
extern const tGUI_XBF_APIList GUI_XBF_APIList_Prop_Frm;
extern const tGUI_XBF_APIList GUI_XBF_APIList_Prop_AA2_Ext;
extern const tGUI_XBF_APIList GUI_XBF_APIList_Prop_AA4_Ext;









 

















#line 1330 "GUI\\GUI.h"












 
#line 1351 "GUI\\GUI.h"




#line 1365 "GUI\\GUI.h"
                          
#line 1376 "GUI\\GUI.h"
                          
#line 1387 "GUI\\GUI.h"
                          
#line 1398 "GUI\\GUI.h"






#line 1412 "GUI\\GUI.h"
                          
#line 1423 "GUI\\GUI.h"

#line 1434 "GUI\\GUI.h"














































#line 1490 "GUI\\GUI.h"

#line 1501 "GUI\\GUI.h"






 








 








 









 







 
#line 1578 "GUI\\GUI.h"






 






 



extern const GUI_FONT GUI_Font8_ASCII,        GUI_Font8_1;
extern const GUI_FONT GUI_Font10S_ASCII,      GUI_Font10S_1;
extern const GUI_FONT GUI_Font10_ASCII,       GUI_Font10_1;
extern const GUI_FONT GUI_Font13_ASCII,       GUI_Font13_1;
extern const GUI_FONT GUI_Font13B_ASCII,      GUI_Font13B_1;
extern const GUI_FONT GUI_Font13H_ASCII,      GUI_Font13H_1;
extern const GUI_FONT GUI_Font13HB_ASCII,     GUI_Font13HB_1;
extern const GUI_FONT GUI_Font16_ASCII,       GUI_Font16_1,       GUI_Font16_HK,    GUI_Font16_1HK;
extern const GUI_FONT GUI_Font16B_ASCII,      GUI_Font16B_1;
extern const GUI_FONT GUI_Font20_ASCII,       GUI_Font20_1;
extern const GUI_FONT GUI_Font20B_ASCII,      GUI_Font20B_1;
extern const GUI_FONT GUI_Font24_ASCII,       GUI_Font24_1;
extern const GUI_FONT GUI_Font24B_ASCII,      GUI_Font24B_1;
extern const GUI_FONT GUI_Font32_ASCII,       GUI_Font32_1;
extern const GUI_FONT GUI_Font32B_ASCII,      GUI_Font32B_1;




extern const GUI_FONT GUI_Font20F_ASCII;




extern const GUI_FONT GUI_Font4x6;
extern const GUI_FONT GUI_Font6x8,            GUI_Font6x9;
extern const GUI_FONT GUI_Font6x8_ASCII,      GUI_Font6x8_1;
extern const GUI_FONT GUI_Font8x8,            GUI_Font8x9;
extern const GUI_FONT GUI_Font8x8_ASCII,      GUI_Font8x8_1;
extern const GUI_FONT GUI_Font8x10_ASCII;
extern const GUI_FONT GUI_Font8x12_ASCII;
extern const GUI_FONT GUI_Font8x13_ASCII,     GUI_Font8x13_1;
extern const GUI_FONT GUI_Font8x15B_ASCII,    GUI_Font8x15B_1;
extern const GUI_FONT GUI_Font8x16,           GUI_Font8x17,       GUI_Font8x18;
extern const GUI_FONT GUI_Font8x16x1x2,       GUI_Font8x16x2x2,   GUI_Font8x16x3x3;
extern const GUI_FONT GUI_Font8x16_ASCII,     GUI_Font8x16_1;




extern const GUI_FONT GUI_FontD24x32;
extern const GUI_FONT GUI_FontD32;
extern const GUI_FONT GUI_FontD36x48;
extern const GUI_FONT GUI_FontD48;
extern const GUI_FONT GUI_FontD48x64;
extern const GUI_FONT GUI_FontD64;
extern const GUI_FONT GUI_FontD60x80;
extern const GUI_FONT GUI_FontD80;




extern const GUI_FONT GUI_FontComic18B_ASCII, GUI_FontComic18B_1;
extern const GUI_FONT GUI_FontComic24B_ASCII, GUI_FontComic24B_1;




 



#line 1689 "GUI\\GUI.h"









#line 1721 "GUI\\GUI.h"




#line 1733 "GUI\\GUI.h"
















 
#line 1758 "GUI\\GUI.h"

#line 1767 "GUI\\GUI.h"

 






 






 









 








 
#line 2058 "GUI\\GUI.h"




 
#line 2073 "GUI\\GUI.h"



 
#line 108 "GUI\\GUIConf.c"






 















 






	U16 static _aMemory[(0x3200) / 2] __attribute__ ((section ("GUI_RAM"), zero_init));







 







 
void GUI_X_Config(void) 
{
  
  GUI_ALLOC_AssignMemory(_aMemory, (0x3200));
  GUI_ALLOC_SetAvBlockSize(0x80);
}

 
