#line 1 "Modbus\\mbmaster\\rtu\\mbmrtu.c"






 

 
#line 1 "C:\\Keil\\ARM\\ARMCC\\bin\\..\\include\\stdlib.h"
 
 
 




 
 



 













  


 








#line 46 "C:\\Keil\\ARM\\ARMCC\\bin\\..\\include\\stdlib.h"


  
  typedef unsigned int size_t;










    



    typedef unsigned short wchar_t;  
#line 75 "C:\\Keil\\ARM\\ARMCC\\bin\\..\\include\\stdlib.h"

typedef struct div_t { int quot, rem; } div_t;
    
typedef struct ldiv_t { long int quot, rem; } ldiv_t;
    

typedef struct lldiv_t { __int64 quot, rem; } lldiv_t;
    


#line 96 "C:\\Keil\\ARM\\ARMCC\\bin\\..\\include\\stdlib.h"
   



 

   




 
#line 115 "C:\\Keil\\ARM\\ARMCC\\bin\\..\\include\\stdlib.h"
   


 
extern __declspec(__nothrow) int __aeabi_MB_CUR_MAX(void);

   




 

   




 




extern __declspec(__nothrow) double atof(const char *  ) __attribute__((__nonnull__(1)));
   



 
extern __declspec(__nothrow) int atoi(const char *  ) __attribute__((__nonnull__(1)));
   



 
extern __declspec(__nothrow) long int atol(const char *  ) __attribute__((__nonnull__(1)));
   



 

extern __declspec(__nothrow) __int64 atoll(const char *  ) __attribute__((__nonnull__(1)));
   



 


extern __declspec(__nothrow) double strtod(const char * __restrict  , char ** __restrict  ) __attribute__((__nonnull__(1)));
   

















 

extern __declspec(__nothrow) float strtof(const char * __restrict  , char ** __restrict  ) __attribute__((__nonnull__(1)));
extern __declspec(__nothrow) long double strtold(const char * __restrict  , char ** __restrict  ) __attribute__((__nonnull__(1)));
   

 

extern __declspec(__nothrow) long int strtol(const char * __restrict  ,
                        char ** __restrict  , int  ) __attribute__((__nonnull__(1)));
   



























 
extern __declspec(__nothrow) unsigned long int strtoul(const char * __restrict  ,
                                       char ** __restrict  , int  ) __attribute__((__nonnull__(1)));
   


























 

 
extern __declspec(__nothrow) __int64 strtoll(const char * __restrict  ,
                               char ** __restrict  , int  ) __attribute__((__nonnull__(1)));
   




 
extern __declspec(__nothrow) unsigned __int64 strtoull(const char * __restrict  ,
                                         char ** __restrict  , int  ) __attribute__((__nonnull__(1)));
   



 

extern __declspec(__nothrow) int rand(void);
   







 
extern __declspec(__nothrow) void srand(unsigned int  );
   






 

struct _rand_state { int __x[57]; };
extern __declspec(__nothrow) int _rand_r(struct _rand_state *);
extern __declspec(__nothrow) void _srand_r(struct _rand_state *, unsigned int);
struct _ANSI_rand_state { int __x[1]; };
extern __declspec(__nothrow) int _ANSI_rand_r(struct _ANSI_rand_state *);
extern __declspec(__nothrow) void _ANSI_srand_r(struct _ANSI_rand_state *, unsigned int);
   


 

extern __declspec(__nothrow) void *calloc(size_t  , size_t  );
   



 
extern __declspec(__nothrow) void free(void *  );
   





 
extern __declspec(__nothrow) void *malloc(size_t  );
   



 
extern __declspec(__nothrow) void *realloc(void *  , size_t  );
   













 

extern __declspec(__nothrow) int posix_memalign(void **  , size_t  , size_t  );
   









 

typedef int (*__heapprt)(void *, char const *, ...);
extern __declspec(__nothrow) void __heapstats(int (*  )(void *  ,
                                           char const *  , ...),
                        void *  ) __attribute__((__nonnull__(1)));
   










 
extern __declspec(__nothrow) int __heapvalid(int (*  )(void *  ,
                                           char const *  , ...),
                       void *  , int  ) __attribute__((__nonnull__(1)));
   














 
extern __declspec(__nothrow) __declspec(__noreturn) void abort(void);
   







 

extern __declspec(__nothrow) int atexit(void (*  )(void)) __attribute__((__nonnull__(1)));
   




 
#line 415 "C:\\Keil\\ARM\\ARMCC\\bin\\..\\include\\stdlib.h"


extern __declspec(__nothrow) __declspec(__noreturn) void exit(int  );
   












 

extern __declspec(__nothrow) __declspec(__noreturn) void _Exit(int  );
   







      

extern __declspec(__nothrow) char *getenv(const char *  ) __attribute__((__nonnull__(1)));
   









 

extern __declspec(__nothrow) int  system(const char *  );
   









 

extern  void *bsearch(const void *  , const void *  ,
              size_t  , size_t  ,
              int (*  )(const void *, const void *)) __attribute__((__nonnull__(1,2,5)));
   












 
#line 503 "C:\\Keil\\ARM\\ARMCC\\bin\\..\\include\\stdlib.h"


extern  void qsort(void *  , size_t  , size_t  ,
           int (*  )(const void *, const void *)) __attribute__((__nonnull__(1,4)));
   









 

#line 532 "C:\\Keil\\ARM\\ARMCC\\bin\\..\\include\\stdlib.h"

extern __declspec(__nothrow) __pure int abs(int  );
   



 

extern __declspec(__nothrow) __pure div_t div(int  , int  );
   









 
extern __declspec(__nothrow) __pure long int labs(long int  );
   



 




extern __declspec(__nothrow) __pure ldiv_t ldiv(long int  , long int  );
   











 







extern __declspec(__nothrow) __pure __int64 llabs(__int64  );
   



 




extern __declspec(__nothrow) __pure lldiv_t lldiv(__int64  , __int64  );
   











 
#line 613 "C:\\Keil\\ARM\\ARMCC\\bin\\..\\include\\stdlib.h"



 
typedef struct __sdiv32by16 { int quot, rem; } __sdiv32by16;
typedef struct __udiv32by16 { unsigned int quot, rem; } __udiv32by16;
    
typedef struct __sdiv64by32 { int rem, quot; } __sdiv64by32;

__value_in_regs extern __declspec(__nothrow) __pure __sdiv32by16 __rt_sdiv32by16(
     int  ,
     short int  );
   

 
__value_in_regs extern __declspec(__nothrow) __pure __udiv32by16 __rt_udiv32by16(
     unsigned int  ,
     unsigned short  );
   

 
__value_in_regs extern __declspec(__nothrow) __pure __sdiv64by32 __rt_sdiv64by32(
     int  , unsigned int  ,
     int  );
   

 



 
extern __declspec(__nothrow) unsigned int __fp_status(unsigned int  , unsigned int  );
   







 























 
extern __declspec(__nothrow) int mblen(const char *  , size_t  );
   












 
extern __declspec(__nothrow) int mbtowc(wchar_t * __restrict  ,
                   const char * __restrict  , size_t  );
   















 
extern __declspec(__nothrow) int wctomb(char *  , wchar_t  );
   













 





 
extern __declspec(__nothrow) size_t mbstowcs(wchar_t * __restrict  ,
                      const char * __restrict  , size_t  ) __attribute__((__nonnull__(2)));
   














 
extern __declspec(__nothrow) size_t wcstombs(char * __restrict  ,
                      const wchar_t * __restrict  , size_t  ) __attribute__((__nonnull__(2)));
   














 

extern __declspec(__nothrow) void __use_realtime_heap(void);
extern __declspec(__nothrow) void __use_realtime_division(void);
extern __declspec(__nothrow) void __use_two_region_memory(void);
extern __declspec(__nothrow) void __use_no_heap(void);
extern __declspec(__nothrow) void __use_no_heap_region(void);

extern __declspec(__nothrow) char const *__C_library_version_string(void);
extern __declspec(__nothrow) int __C_library_version_number(void);











#line 867 "C:\\Keil\\ARM\\ARMCC\\bin\\..\\include\\stdlib.h"


 

#line 11 "Modbus\\mbmaster\\rtu\\mbmrtu.c"
#line 1 "C:\\Keil\\ARM\\ARMCC\\bin\\..\\include\\string.h"
 
 
 
 




 








 












#line 38 "C:\\Keil\\ARM\\ARMCC\\bin\\..\\include\\string.h"


  
  typedef unsigned int size_t;








extern __declspec(__nothrow) void *memcpy(void * __restrict  ,
                    const void * __restrict  , size_t  ) __attribute__((__nonnull__(1,2)));
   




 
extern __declspec(__nothrow) void *memmove(void *  ,
                    const void *  , size_t  ) __attribute__((__nonnull__(1,2)));
   







 
extern __declspec(__nothrow) char *strcpy(char * __restrict  , const char * __restrict  ) __attribute__((__nonnull__(1,2)));
   




 
extern __declspec(__nothrow) char *strncpy(char * __restrict  , const char * __restrict  , size_t  ) __attribute__((__nonnull__(1,2)));
   





 

extern __declspec(__nothrow) char *strcat(char * __restrict  , const char * __restrict  ) __attribute__((__nonnull__(1,2)));
   




 
extern __declspec(__nothrow) char *strncat(char * __restrict  , const char * __restrict  , size_t  ) __attribute__((__nonnull__(1,2)));
   






 






 

extern __declspec(__nothrow) int memcmp(const void *  , const void *  , size_t  ) __attribute__((__nonnull__(1,2)));
   





 
extern __declspec(__nothrow) int strcmp(const char *  , const char *  ) __attribute__((__nonnull__(1,2)));
   




 
extern __declspec(__nothrow) int strncmp(const char *  , const char *  , size_t  ) __attribute__((__nonnull__(1,2)));
   






 
extern __declspec(__nothrow) int strcasecmp(const char *  , const char *  ) __attribute__((__nonnull__(1,2)));
   





 
extern __declspec(__nothrow) int strncasecmp(const char *  , const char *  , size_t  ) __attribute__((__nonnull__(1,2)));
   






 
extern __declspec(__nothrow) int strcoll(const char *  , const char *  ) __attribute__((__nonnull__(1,2)));
   







 

extern __declspec(__nothrow) size_t strxfrm(char * __restrict  , const char * __restrict  , size_t  ) __attribute__((__nonnull__(2)));
   













 


#line 185 "C:\\Keil\\ARM\\ARMCC\\bin\\..\\include\\string.h"
extern __declspec(__nothrow) void *memchr(const void *  , int  , size_t  ) __attribute__((__nonnull__(1)));

   





 

#line 201 "C:\\Keil\\ARM\\ARMCC\\bin\\..\\include\\string.h"
extern __declspec(__nothrow) char *strchr(const char *  , int  ) __attribute__((__nonnull__(1)));

   




 

extern __declspec(__nothrow) size_t strcspn(const char *  , const char *  ) __attribute__((__nonnull__(1,2)));
   




 

#line 224 "C:\\Keil\\ARM\\ARMCC\\bin\\..\\include\\string.h"
extern __declspec(__nothrow) char *strpbrk(const char *  , const char *  ) __attribute__((__nonnull__(1,2)));

   




 

#line 239 "C:\\Keil\\ARM\\ARMCC\\bin\\..\\include\\string.h"
extern __declspec(__nothrow) char *strrchr(const char *  , int  ) __attribute__((__nonnull__(1)));

   





 

extern __declspec(__nothrow) size_t strspn(const char *  , const char *  ) __attribute__((__nonnull__(1,2)));
   



 

#line 262 "C:\\Keil\\ARM\\ARMCC\\bin\\..\\include\\string.h"
extern __declspec(__nothrow) char *strstr(const char *  , const char *  ) __attribute__((__nonnull__(1,2)));

   





 

extern __declspec(__nothrow) char *strtok(char * __restrict  , const char * __restrict  ) __attribute__((__nonnull__(2)));
extern __declspec(__nothrow) char *_strtok_r(char *  , const char *  , char **  ) __attribute__((__nonnull__(2,3)));

extern __declspec(__nothrow) char *strtok_r(char *  , const char *  , char **  ) __attribute__((__nonnull__(2,3)));

   

































 

extern __declspec(__nothrow) void *memset(void *  , int  , size_t  ) __attribute__((__nonnull__(1)));
   



 
extern __declspec(__nothrow) char *strerror(int  );
   





 
extern __declspec(__nothrow) size_t strlen(const char *  ) __attribute__((__nonnull__(1)));
   



 

extern __declspec(__nothrow) size_t strlcpy(char *  , const char *  , size_t  ) __attribute__((__nonnull__(1,2)));
   
















 

extern __declspec(__nothrow) size_t strlcat(char *  , const char *  , size_t  ) __attribute__((__nonnull__(1,2)));
   






















 

extern __declspec(__nothrow) void _membitcpybl(void *  , const void *  , int  , int  , size_t  ) __attribute__((__nonnull__(1,2)));
extern __declspec(__nothrow) void _membitcpybb(void *  , const void *  , int  , int  , size_t  ) __attribute__((__nonnull__(1,2)));
extern __declspec(__nothrow) void _membitcpyhl(void *  , const void *  , int  , int  , size_t  ) __attribute__((__nonnull__(1,2)));
extern __declspec(__nothrow) void _membitcpyhb(void *  , const void *  , int  , int  , size_t  ) __attribute__((__nonnull__(1,2)));
extern __declspec(__nothrow) void _membitcpywl(void *  , const void *  , int  , int  , size_t  ) __attribute__((__nonnull__(1,2)));
extern __declspec(__nothrow) void _membitcpywb(void *  , const void *  , int  , int  , size_t  ) __attribute__((__nonnull__(1,2)));
extern __declspec(__nothrow) void _membitmovebl(void *  , const void *  , int  , int  , size_t  ) __attribute__((__nonnull__(1,2)));
extern __declspec(__nothrow) void _membitmovebb(void *  , const void *  , int  , int  , size_t  ) __attribute__((__nonnull__(1,2)));
extern __declspec(__nothrow) void _membitmovehl(void *  , const void *  , int  , int  , size_t  ) __attribute__((__nonnull__(1,2)));
extern __declspec(__nothrow) void _membitmovehb(void *  , const void *  , int  , int  , size_t  ) __attribute__((__nonnull__(1,2)));
extern __declspec(__nothrow) void _membitmovewl(void *  , const void *  , int  , int  , size_t  ) __attribute__((__nonnull__(1,2)));
extern __declspec(__nothrow) void _membitmovewb(void *  , const void *  , int  , int  , size_t  ) __attribute__((__nonnull__(1,2)));
    














































 







#line 494 "C:\\Keil\\ARM\\ARMCC\\bin\\..\\include\\string.h"



 

#line 12 "Modbus\\mbmaster\\rtu\\mbmrtu.c"

 
#line 1 ".\\Modbus\\Port\\mbport.h"






 






#line 1 "C:\\Keil\\ARM\\RV31\\INC\\RTL.h"









 




 

 



#line 28 "C:\\Keil\\ARM\\RV31\\INC\\RTL.h"







 typedef unsigned int   size_t;


typedef signed char     S8;
typedef unsigned char   U8;
typedef short           S16;
typedef unsigned short  U16;
typedef int             S32;
typedef unsigned int    U32;
typedef long long       S64;
typedef unsigned long long U64;
typedef unsigned char   BIT;
typedef unsigned int    BOOL;

#line 55 "C:\\Keil\\ARM\\RV31\\INC\\RTL.h"

#line 71 "C:\\Keil\\ARM\\RV31\\INC\\RTL.h"



 





 
typedef U32 OS_SEM[2];

 

typedef U32 OS_MBX[];

 
typedef U32 OS_MUT[3];

 
typedef U32 OS_TID;

 
typedef void *OS_ID;

 
typedef U32 OS_RESULT;

 












 




#line 202 "C:\\Keil\\ARM\\RV31\\INC\\RTL.h"



 



 
extern void      os_set_env    (void);
extern void      rt_sys_init   (void (*task)(void), U8 priority, void *stk);
extern void      rt_tsk_pass   (void);
extern OS_TID    rt_tsk_self   (void);
extern OS_RESULT rt_tsk_prio   (OS_TID task_id, U8 new_prio);
extern OS_TID    rt_tsk_create (void (*task)(void), U8 priority, void *stk, void *argv);
extern OS_RESULT rt_tsk_delete (OS_TID task_id);

#line 238 "C:\\Keil\\ARM\\RV31\\INC\\RTL.h"

extern void      _os_sys_init(U32 p, void (*task)(void), U32 prio_stksz,
                                     void *stk)                        __svc_indirect(0);
extern OS_TID    _os_tsk_create (U32 p, void (*task)(void), U32 prio_stksz,
                                        void *stk, void *argv)         __svc_indirect(0);
extern OS_TID    _os_tsk_create_ex (U32 p, void (*task)(void *), U32 prio_stksz,
                                           void *stk, void *argv)      __svc_indirect(0);
extern OS_TID    _os_tsk_self (U32 p)                                  __svc_indirect(0);
extern void      _os_tsk_pass (U32 p)                                  __svc_indirect(0);
extern OS_RESULT _os_tsk_prio (U32 p, OS_TID task_id, U8 new_prio)     __svc_indirect(0);
extern OS_RESULT _os_tsk_delete (U32 p, OS_TID task_id)                __svc_indirect(0);

 
extern OS_RESULT rt_evt_wait (U16 wait_flags,  U16 timeout, BOOL and_wait);
extern void      rt_evt_set  (U16 event_flags, OS_TID task_id);
extern void      rt_evt_clr  (U16 clear_flags, OS_TID task_id);
extern U16       rt_evt_get  (void);







extern OS_RESULT _os_evt_wait(U32 p, U16 wait_flags, U16 timeout,
                                     BOOL and_wait)                    __svc_indirect(0);
extern void      _os_evt_set (U32 p, U16 event_flags, OS_TID task_id)  __svc_indirect(0);
extern void      _os_evt_clr (U32 p, U16 clear_flags, OS_TID task_id)  __svc_indirect(0);
extern U16       _os_evt_get (U32 p)                                   __svc_indirect(0);
extern void      isr_evt_set (U16 event_flags, OS_TID task_id);

 
extern void      rt_sem_init (OS_ID semaphore, U16 token_count);
extern OS_RESULT rt_sem_send (OS_ID semaphore);
extern OS_RESULT rt_sem_wait (OS_ID semaphore, U16 timeout);





extern void      _os_sem_init (U32 p, OS_ID semaphore, 
                                      U16 token_count)                 __svc_indirect(0);
extern OS_RESULT _os_sem_send (U32 p, OS_ID semaphore)                 __svc_indirect(0);
extern OS_RESULT _os_sem_wait (U32 p, OS_ID semaphore, U16 timeout)    __svc_indirect(0);
extern void      isr_sem_send (OS_ID semaphore);

 
extern void      rt_mbx_init  (OS_ID mailbox, U16 mbx_size);
extern OS_RESULT rt_mbx_send  (OS_ID mailbox, void *p_msg,    U16 timeout);
extern OS_RESULT rt_mbx_wait  (OS_ID mailbox, void **message, U16 timeout);
extern OS_RESULT rt_mbx_check (OS_ID mailbox);







extern void      _os_mbx_init (U32 p, OS_ID mailbox, U16 mbx_size)     __svc_indirect(0);
extern OS_RESULT _os_mbx_send (U32 p, OS_ID mailbox, void *message_ptr,
                                      U16 timeout)                     __svc_indirect(0);
extern OS_RESULT _os_mbx_wait (U32 p, OS_ID mailbox, void  **message,
                                      U16 timeout)                     __svc_indirect(0);
extern OS_RESULT _os_mbx_check (U32 p, OS_ID mailbox)                  __svc_indirect(0);
extern void      isr_mbx_send (OS_ID mailbox, void *message_ptr);
extern OS_RESULT isr_mbx_receive (OS_ID mailbox, void **message);

 
extern void      rt_mut_init    (OS_ID mutex);
extern OS_RESULT rt_mut_release (OS_ID mutex);
extern OS_RESULT rt_mut_wait    (OS_ID mutex, U16 timeout);





extern void      _os_mut_init (U32 p, OS_ID mutex)                     __svc_indirect(0);
extern OS_RESULT _os_mut_release (U32 p, OS_ID mutex)                  __svc_indirect(0);
extern OS_RESULT _os_mut_wait (U32 p, OS_ID mutex, U16 timeout)        __svc_indirect(0);

 
extern U32       rt_time_get (void);
extern void      rt_dly_wait (U16 delay_time);
extern void      rt_itv_set  (U16 interval_time);
extern void      rt_itv_wait (void);






extern U32       _os_time_get (U32 p)                                  __svc_indirect(0);
extern void      _os_dly_wait (U32 p, U16 delay_time)                  __svc_indirect(0);
extern void      _os_itv_set (U32 p, U16 interval_time)                __svc_indirect(0);
extern void      _os_itv_wait (U32 p)                                  __svc_indirect(0);

 
extern OS_ID     rt_tmr_create (U16 tcnt, U16 info);
extern OS_ID     rt_tmr_kill   (OS_ID timer);




extern OS_ID     _os_tmr_create (U32 p, U16 tcnt, U16 info)            __svc_indirect(0);
extern OS_ID     _os_tmr_kill (U32 p, OS_ID timer)                     __svc_indirect(0);

 
extern U32       rt_suspend    (void);
extern void      rt_resume     (U32 sleep_time);
extern void      rt_tsk_lock   (void);
extern void      rt_tsk_unlock (void);






extern U32       _os_suspend (U32 p)                                   __svc_indirect(0);
extern void      _os_resume (U32 p, U32 sleep_time)                    __svc_indirect(0);
extern void      _os_tsk_lock (U32 p)                                  __svc_indirect(0);
extern void      _os_tsk_unlock (U32 p)                                __svc_indirect(0);

 
extern int       _init_box (void *box_mem, U32 box_size, U32 blk_size);
extern void     *_alloc_box (void *box_mem);
extern void     *_calloc_box (void *box_mem);
extern int       _free_box (void *box_mem, void *box);








 




 

typedef struct {                         
  U8  hr;                                
  U8  min;                               
  U8  sec;                               
  U8  day;                               
  U8  mon;                               
  U16 year;                              
} RL_TIME;

typedef struct {                         
  S8  name[256];                         
  U32 size;                              
  U16 fileID;                            
  U8  attrib;                            
  RL_TIME time;                          
} FINFO;

extern int finit (const char *drive);
extern int funinit (const char *drive);
extern int fdelete (const char *filename);
extern int frename (const char *oldname, const char *newname);
extern int ffind (const char *pattern, FINFO *info);
extern U64 ffree (const char *drive);
extern int fformat (const char *drive);
extern int fanalyse (const char *drive);
extern int fcheck (const char *drive);
extern int fdefrag (const char *drive);
extern int fattrib (const char *par, const char *path);
extern int fvol    (const char *drive, char *buf);

 




 

 



 
#line 428 "C:\\Keil\\ARM\\RV31\\INC\\RTL.h"

 
#line 436 "C:\\Keil\\ARM\\RV31\\INC\\RTL.h"

 
#line 449 "C:\\Keil\\ARM\\RV31\\INC\\RTL.h"

 




 




 



 



 



 
#line 484 "C:\\Keil\\ARM\\RV31\\INC\\RTL.h"

 



 





 



 





 
#line 512 "C:\\Keil\\ARM\\RV31\\INC\\RTL.h"

 




 
#line 527 "C:\\Keil\\ARM\\RV31\\INC\\RTL.h"

 
#line 537 "C:\\Keil\\ARM\\RV31\\INC\\RTL.h"

 
#line 545 "C:\\Keil\\ARM\\RV31\\INC\\RTL.h"

 



 
typedef struct sockaddr {          
  U16  sa_family;                  
  char sa_data[14];                
} SOCKADDR;

#pragma push
#pragma anon_unions

typedef struct in_addr {           
  union {
    struct {
      U8 s_b1,s_b2,s_b3,s_b4;      
    };
    struct {
      U16 s_w1,s_w2;               
    };
    U32 s_addr;                    
  };
} IN_ADDR;
#pragma pop

typedef struct sockaddr_in {       
  S16 sin_family;                  
  U16 sin_port;                    
  IN_ADDR sin_addr;                
  S8  sin_zero[8];                 
} SOCKADDR_IN;

typedef struct hostent {           
  char *h_name;                    
  char **h_aliases;                
  S16  h_addrtype;                 
  S16  h_length;                   
  char **h_addr_list;              
} HOSTENT;

extern void init_TcpNet (void);
extern BOOL main_TcpNet (void);
extern void timer_tick (void);
extern U8   udp_get_socket (U8 tos, U8 opt, 
                            U16 (*listener)(U8 socket, U8 *remip, U16 port, U8 *buf, U16 len));
extern BOOL udp_release_socket (U8 socket);
extern BOOL udp_open (U8 socket, U16 locport);
extern BOOL udp_close (U8 socket);
extern BOOL udp_mcast_ttl (U8 socket, U8 ttl);
extern U8  *udp_get_buf (U16 size);
extern BOOL udp_send (U8 socket, U8 *remip, U16 remport, U8 *buf, U16 dlen);
extern U8   tcp_get_socket (U8 type, U8 tos, U16 tout,
                            U16 (*listener)(U8 socket, U8 event, U8 *buf, U16 len));
extern BOOL tcp_release_socket (U8 socket);
extern BOOL tcp_listen (U8 socket, U16 locport);
extern BOOL tcp_connect (U8 socket, U8 *remip, U16 remport, U16 locport);
extern U8  *tcp_get_buf (U16 size);
extern U16  tcp_max_dsize (U8 socket);
extern BOOL tcp_check_send (U8 socket);
extern U8   tcp_get_state (U8 socket);
extern BOOL tcp_send (U8 socket, U8 *buf, U16 dlen);
extern BOOL tcp_close (U8 socket);
extern BOOL tcp_abort (U8 socket);
extern void tcp_reset_window (U8 socket);
extern BOOL arp_cache_ip (U8 *ipadr, U8 type);
extern BOOL arp_cache_mac (U8 *hwadr);
extern void ppp_listen (const char *user, const char *passw);
extern void ppp_connect (const char *dialnum, const char *user, const char *passw);
extern void ppp_close (void);
extern BOOL ppp_is_up (void);
extern void slip_listen (void);
extern void slip_connect (const char *dialnum);
extern void slip_close (void);
extern BOOL slip_is_up (void);
extern U8   get_host_by_name (U8 *hostn, void (*cbfunc)(U8 event, U8 *host_ip));
extern BOOL smtp_connect (U8 *ipadr, U16 port, void (*cbfunc)(U8 event));
extern void dhcp_disable (void);
extern BOOL igmp_join (U8 *group_ip);
extern BOOL igmp_leave (U8 *group_ip);
extern BOOL snmp_trap (U8 *manager_ip, U8 gen_trap, U8 spec_trap, U16 *obj_list);
extern BOOL snmp_set_community (const char *community);
extern BOOL icmp_ping (U8 *remip, void (*cbfunc)(U8 event));
extern BOOL ftpc_connect (U8 *ipadr, U16 port, U8 command, void (*cbfunc)(U8 event));
extern BOOL tftpc_put (U8 *ipadr, U16 port,
                       const char *src, const char *dst, void (*cbfunc)(U8 event));
extern BOOL tftpc_get (U8 *ipadr, U16 port, 
                       const char *src, const char *dst, void (*cbfunc)(U8 event));

 
extern int  socket (int family, int type, int protocol);
extern int  bind (int sock, const SOCKADDR *addr, int addrlen);
extern int  listen (int sock, int backlog);
extern int  accept (int sock, SOCKADDR *addr, int *addrlen);
extern int  connect (int sock, SOCKADDR *addr, int addrlen);
extern int  send (int sock, const char *buf, int len, int flags);
extern int  sendto (int sock, const char *buf, int len, int flags, SOCKADDR *to, int tolen);
extern int  recv (int sock, char *buf, int len, int flags);
extern int  recvfrom (int sock, char *buf, int len, int flags, SOCKADDR *from, int *fromlen);
extern int  closesocket (int sock);
extern int  getpeername (int sock, SOCKADDR *name, int *namelen);
extern int  getsockname (int sock, SOCKADDR *name, int *namelen);
extern int  ioctlsocket (int sock, long cmd, unsigned long *argp);
extern HOSTENT *gethostbyname (const char *name, int *err);







 


 
#line 15 ".\\Modbus\\Port\\mbport.h"






 



typedef char      BYTE;
typedef unsigned char UBYTE;

typedef unsigned char UCHAR;
typedef char      CHAR;

typedef unsigned short USHORT;
typedef short     SHORT;

typedef unsigned long ULONG;
typedef long      LONG;
 

































 
typedef void       *xMBPEventHandle;
typedef void       *xMBPTimerHandle;
typedef void       *xMBPSerialHandle;
typedef void       *xMBPTCPHandle;
typedef void       *xMBPTCPClientHandle;

typedef unsigned char UBYTE;

 
void                vMBPAssert( void );
void                vMBPEnterCritical( void );
void                vMBPExitCritical( void );

void vMBTCPServerPoll(void);
void				vMBPInit( void );




#line 15 "Modbus\\mbmaster\\rtu\\mbmrtu.c"

 
#line 1 ".\\Modbus\\mbmaster\\include\\mbm.h"






 









 
     
#line 1 ".\\Modbus\\Port\\mbmconfig.h"








 








 
#line 28 ".\\Modbus\\Port\\mbmconfig.h"





#line 35 ".\\Modbus\\mbmaster\\include\\mbm.h"
#line 1 ".\\Modbus\\mbmaster\\include\\internal/mbmiconfig.h"






 




 


 
 
 




 




 




 




 



















 

















 













 




 




 




 








 














 




 




 




 




 






 






 






 






 






 






 






 





 





 








 






 






 


















 















 











 





 





 










 











 





 

 

 
#line 36 ".\\Modbus\\mbmaster\\include\\mbm.h"
#line 1 ".\\Modbus\\mbmaster\\include\\common/mbtypes.h"






 










 

 

 





 




 

 
typedef void   *xMBHandle;



 
typedef enum
{
    MB_ENOERR = 0,               
    MB_ENOREG = 1,               
    MB_EINVAL = 2,               
    MB_EPORTERR = 3,             
    MB_ENORES = 4,               
    MB_EIO = 5,                  
    MB_EILLSTATE = 6,            
    MB_EAGAIN = 7,               
    MB_ETIMEDOUT = 8,            
    MB_EX_ILLEGAL_FUNCTION = 10,         
    MB_EX_ILLEGAL_DATA_ADDRESS = 11,     
    MB_EX_ILLEGAL_DATA_VALUE = 12,       
    MB_EX_SLAVE_DEVICE_FAILURE = 13,     
    MB_EX_ACKNOWLEDGE = 14,      
    MB_EX_SLAVE_BUSY = 15,       
    MB_EX_MEMORY_PARITY_ERROR = 16,      
    MB_EX_GATEWAY_PATH_UNAVAILABLE = 17,         
    MB_EX_GATEWAY_TARGET_FAILED = 18     
} eMBErrorCode;



 
typedef enum
{
    MB_RTU,                      
    MB_ASCII                     
} eMBSerialMode;



 
typedef enum
{
    MB_PAR_ODD,                  
    MB_PAR_EVEN,                 
    MB_PAR_NONE                  
} eMBSerialParity;

#line 104 ".\\Modbus\\mbmaster\\include\\common/mbtypes.h"

#line 197 ".\\Modbus\\mbmaster\\include\\common/mbtypes.h"

#line 219 ".\\Modbus\\mbmaster\\include\\common/mbtypes.h"
 

 

#line 37 ".\\Modbus\\mbmaster\\include\\mbm.h"

 
 
 
typedef void   *xMBMHandle;





 
typedef enum
{
    MBM_STATE_NONE,              
    MBM_STATE_SEND,              
    MBM_STATE_WAITING,           
    MBM_STATE_DISASSEMBLE,       
    MBM_STATE_ERROR,             
    MBM_STATE_DONE               
} eMBMQueryState;

#line 72 ".\\Modbus\\mbmaster\\include\\mbm.h"

#line 82 ".\\Modbus\\mbmaster\\include\\mbm.h"

 










 
 eMBErrorCode eMBMSetSlaveTimeout( xMBMHandle xHdl, USHORT usNMilliSeconds );








 
 eMBErrorCode eMBMClose( xMBMHandle xHdl );

#line 131 ".\\Modbus\\mbmaster\\include\\mbm.h"

#line 149 ".\\Modbus\\mbmaster\\include\\mbm.h"

 

#line 175 ".\\Modbus\\mbmaster\\include\\mbm.h"

#line 196 ".\\Modbus\\mbmaster\\include\\mbm.h"



















 
 eMBErrorCode eMBMReadInputRegisters( xMBMHandle xHdl, UCHAR ucSlaveAddress, USHORT usRegStartAddress,
                                             UBYTE ubNRegs, USHORT arusBufferOut[] );


















 
 eMBErrorCode eMBMWriteMultipleRegisters( xMBMHandle xHdl, UCHAR ucSlaveAddress, USHORT usRegStartAddress,
                                                 UBYTE ubNRegs, const USHORT arusBufferIn[] );



#line 274 ".\\Modbus\\mbmaster\\include\\mbm.h"

#line 300 ".\\Modbus\\mbmaster\\include\\mbm.h"

#line 326 ".\\Modbus\\mbmaster\\include\\mbm.h"

#line 343 ".\\Modbus\\mbmaster\\include\\mbm.h"

#line 368 ".\\Modbus\\mbmaster\\include\\mbm.h"

#line 404 ".\\Modbus\\mbmaster\\include\\mbm.h"


#line 440 ".\\Modbus\\mbmaster\\include\\mbm.h"

#line 466 ".\\Modbus\\mbmaster\\include\\mbm.h"

#line 487 ".\\Modbus\\mbmaster\\include\\mbm.h"

 
#line 516 ".\\Modbus\\mbmaster\\include\\mbm.h"

#line 537 ".\\Modbus\\mbmaster\\include\\mbm.h"






















 
 void    vMBMReadInputRegistersPolled( xMBMHandle xHdl, UCHAR ucSlaveAddress,
                                              USHORT usRegStartAddress, UBYTE ubNRegs,
                                              USHORT arusBufferOut[],
                                              eMBMQueryState * peState, eMBErrorCode * peStatus );

















 
 void    vMBMWriteMultipleRegistersPolled( xMBMHandle xHdl, UCHAR ucSlaveAddress,
                                                  USHORT usRegStartAddress, UBYTE ubNRegs,
                                                  const USHORT arusBufferIn[],
                                                  eMBMQueryState * peState, eMBErrorCode * peStatus );



#line 621 ".\\Modbus\\mbmaster\\include\\mbm.h"

#line 649 ".\\Modbus\\mbmaster\\include\\mbm.h"

#line 675 ".\\Modbus\\mbmaster\\include\\mbm.h"

#line 694 ".\\Modbus\\mbmaster\\include\\mbm.h"

#line 719 ".\\Modbus\\mbmaster\\include\\mbm.h"

#line 755 ".\\Modbus\\mbmaster\\include\\mbm.h"

#line 790 ".\\Modbus\\mbmaster\\include\\mbm.h"

#line 822 ".\\Modbus\\mbmaster\\include\\mbm.h"

#line 845 ".\\Modbus\\mbmaster\\include\\mbm.h"

 
































 
 eMBErrorCode eMBMSerialInit( xMBMHandle * pxHdl, eMBSerialMode eMode, UCHAR ucPort,
                                     ULONG ulBaudRate, eMBSerialParity eParity );



















 
 eMBErrorCode eMBMSerialInitExt( xMBMHandle * pxHdl, eMBSerialMode eMode, UCHAR ucPort,
                                         ULONG ulBaudRate, eMBSerialParity eParity, UCHAR ucStopBits );


 

#line 942 ".\\Modbus\\mbmaster\\include\\mbm.h"

 

#line 984 ".\\Modbus\\mbmaster\\include\\mbm.h"

 

#line 18 "Modbus\\mbmaster\\rtu\\mbmrtu.c"
#line 1 ".\\Modbus\\mbslave\\include\\common/mbportlayer.h"






 







 
#line 22 ".\\Modbus\\mbslave\\include\\common/mbportlayer.h"
 


 
typedef UBYTE   xMBPEventType;










 
typedef         BOOL( *pbMBPTimerExpiredCB ) ( xMBHandle xHdl );














 
typedef         BOOL( *pbMBPSerialTransmitterEmptyAPIV1CB ) ( xMBHandle xHdl, UBYTE * pubValue ) ;








 
typedef void    ( *pvMBPSerialReceiverAPIV1CB ) ( xMBHandle xHdl, UBYTE ubValue );

















 
typedef         BOOL( *pbMBPSerialTransmitterEmptyAPIV2CB ) ( xMBHandle xHdl, UBYTE * pubBufferOut,
                                                              USHORT usBufferMax,
                                                              USHORT * pusBufferWritten ) ;











 
typedef void    ( *pvMBPSerialReceiverAPIV2CB ) ( xMBHandle xHdl, const UBYTE * pubBufferIn,
                                                  USHORT usBufferLen );








 
#line 116 ".\\Modbus\\mbslave\\include\\common/mbportlayer.h"
typedef void   *pbMBPSerialTransmitterEmptyCB;









 
#line 134 ".\\Modbus\\mbslave\\include\\common/mbportlayer.h"
typedef void   *pvMBPSerialReceiverCB;

















 
typedef         eMBErrorCode( *peMBPTCPClientConnectedCB ) ( xMBHandle xMBHdl,
                                                             xMBPTCPClientHandle xTCPClientHdl ) ;
























 
typedef         eMBErrorCode( *peMBPTCPClientNewDataCB ) ( xMBHandle xMBHdl,
                                                           xMBPTCPClientHandle xTCPClientHdl ) ;







 
typedef         eMBErrorCode( *peMBPTCPClientDisconnectedCB ) ( xMBHandle xMBHdl,
                                                                xMBPTCPClientHandle xTCPClientHdl ) ;








 
typedef         eMBErrorCode( *peMBPUDPClientNewDataCB ) ( xMBHandle xMBHdl ) ;

#line 248 ".\\Modbus\\mbslave\\include\\common/mbportlayer.h"

  



 

































 
eMBErrorCode    eMBPTimerInit( xMBPTimerHandle * xTimerHdl, USHORT usTimeOut1ms,
                               pbMBPTimerExpiredCB pbMBPTimerExpiredFN, xMBHandle xHdl );





 
void            vMBPTimerClose( xMBPTimerHandle xTimerHdl );








 
eMBErrorCode    eMBPTimerSetTimeout( xMBPTimerHandle xTimerHdl, USHORT usTimeOut1ms );











 
eMBErrorCode    eMBPTimerStart( xMBPTimerHandle xTimerHdl );









 
eMBErrorCode    eMBPTimerStop( xMBPTimerHandle xTimerHdl );

 

 



 

























 
eMBErrorCode    eMBPEventCreate( xMBPEventHandle * pxEventHdl );








 
eMBErrorCode    eMBPEventPost( const xMBPEventHandle xEventHdl, xMBPEventType xEvent );







 
BOOL            bMBPEventGet( const xMBPEventHandle xEventHdl, xMBPEventType * pxEvent );




 
void            vMBPEventDelete( xMBPEventHandle xEventHdl );

 

 




 






















 
eMBErrorCode    eMBPSerialInit( xMBPSerialHandle * pxSerialHdl, UCHAR ucPort, ULONG ulBaudRate,
                                UCHAR ucDataBits, eMBSerialParity eParity, UCHAR ucStopBits, xMBHandle xMBHdl );












 
eMBErrorCode    eMBPSerialClose( xMBPSerialHandle xSerialHdl );













 
eMBErrorCode    eMBPSerialTxEnable( xMBPSerialHandle xSerialHdl,
                                    pbMBPSerialTransmitterEmptyCB pbMBPTransmitterEmptyFN );













 
eMBErrorCode    eMBPSerialRxEnable( xMBPSerialHandle xSerialHdl, pvMBPSerialReceiverCB pvMBPReceiveFN );

 

 




 












 
eMBErrorCode    eMBPTCPClientInit( xMBPTCPHandle * pxTCPHdl, xMBHandle xMBHdl,
                                   peMBPTCPClientNewDataCB eMBPTCPClientNewDATAFN,
                                   peMBPTCPClientDisconnectedCB eMBPTCPClientDisconnectedFN );






 
eMBErrorCode    eMBPTCPClientClose( xMBPTCPHandle xTCPHdl );



















 
eMBErrorCode    eMBPTCPClientOpen( xMBPTCPHandle xTCPHdl, xMBPTCPClientHandle * pxTCPClientHdl,
                                   const CHAR * pcConnectAddress, USHORT usTCPPort );























 
eMBErrorCode    eMBPTCPServerInit( xMBPTCPHandle * pxTCPHdl, CHAR * pcBindAddress, USHORT usTCPPort,
                                   xMBHandle xMBHdl,
                                   peMBPTCPClientNewDataCB eMBPTCPClientNewDataFN,
                                   peMBPTCPClientDisconnectedCB eMBPTCPClientDisconnectedFN,
                                   peMBPTCPClientConnectedCB eMBPTCPClientConnectedFN );







 
eMBErrorCode    eMBTCPServerClose( xMBPTCPHandle xTCPHdl );























 
eMBErrorCode    eMBPTCPConRead( xMBPTCPHandle xTCPHdl, xMBPTCPClientHandle xTCPClientHdl, UBYTE * pubBuffer,
                                USHORT * pusBufferLen, USHORT usBufferMax );
















 
eMBErrorCode    eMBPTCPConWrite( xMBPTCPHandle xTCPHdl, xMBPTCPClientHandle xTCPClientHdl, const UBYTE * pubBuffer,
                                 USHORT usBufferLen );











 
eMBErrorCode    eMBPTCPConClose( xMBPTCPHandle xTCPHdl, xMBPTCPClientHandle xTCPClientHdl );

 

 




 


 

 
typedef void   *xMBPUDPHandle;










 
#line 658 ".\\Modbus\\mbslave\\include\\common/mbportlayer.h"





 






 





















 
eMBErrorCode    eMBPUDPClientInit( xMBPUDPHandle * pxUDPHdl, xMBHandle xMBHdl,
                                   const CHAR * pcUDPBindAddress, LONG uUDPListenPort,
                                   peMBPUDPClientNewDataCB eMBPUDPClientNewDATAFN );

















 
eMBErrorCode    eMBPUDPConWrite( xMBPUDPHandle xUDPHdl, const CHAR * pcUDPClientAddress, USHORT usUDPSlavePort,
                                 const UBYTE * pubBuffer, USHORT usBufferLen );


















 
eMBErrorCode    eMBPUDPConRead( xMBPUDPHandle xUDPHdl, UBYTE * pubBuffer, USHORT * pusBufferLen, USHORT usBufferMax );




















 
eMBErrorCode    eMBPUDPConReadExt( xMBPUDPHandle xUDPHdl, CHAR **pucClientAddress, USHORT *pusClientPort, UBYTE * pubBuffer, USHORT * pusBufferLen, USHORT usBufferMax );
 









 
eMBErrorCode    eMBPUDPClientClose( xMBPUDPHandle xUDPHdl );

  

 


 







 
void            vMBPLibraryLoad( void );







 
void            vMBPLibraryUnload( void );

#line 816 ".\\Modbus\\mbslave\\include\\common/mbportlayer.h"

 

 


 

#line 836 ".\\Modbus\\mbslave\\include\\common/mbportlayer.h"

 

#line 19 "Modbus\\mbmaster\\rtu\\mbmrtu.c"
#line 1 ".\\Modbus\\mbslave\\include\\common/mbframe.h"






 













 

 
#line 34 ".\\Modbus\\mbslave\\include\\common/mbframe.h"






 









 










 










 









 



 



 
typedef enum
{
    MB_PDU_EX_NONE = 0x00,
    MB_PDU_EX_ILLEGAL_FUNCTION = 0x01,
    MB_PDU_EX_ILLEGAL_DATA_ADDRESS = 0x02,
    MB_PDU_EX_ILLEGAL_DATA_VALUE = 0x03,
    MB_PDU_EX_SLAVE_DEVICE_FAILURE = 0x04,
    MB_PDU_EX_ACKNOWLEDGE = 0x05,
    MB_PDU_EX_SLAVE_BUSY = 0x06,
    MB_PDU_EX_NOT_ACKNOWLEDGE = 0x07,
    MB_PDU_EX_MEMORY_PARITY_ERROR = 0x08,
    MB_PDU_EX_GATEWAY_PATH_UNAVAILABLE = 0x0A,
    MB_PDU_EX_GATEWAY_TARGET_FAILED = 0x0B
} eMBException;

 





 

#line 20 "Modbus\\mbmaster\\rtu\\mbmrtu.c"
#line 1 ".\\Modbus\\mbslave\\include\\common/mbutils.h"







 







 






 





 








 









 









 





 
#line 71 ".\\Modbus\\mbslave\\include\\common/mbutils.h"





 











 
#line 99 ".\\Modbus\\mbslave\\include\\common/mbutils.h"




 

 

 






 
    eMBErrorCode eMBExceptionToErrorcode( UBYTE ubMBException );







 
eMBException    eMBErrorcodeToException( eMBErrorCode eCode );

#line 21 "Modbus\\mbmaster\\rtu\\mbmrtu.c"
#line 1 ".\\Modbus\\mbmaster\\include\\internal/mbmiframe.h"






 














 

 



 



 
typedef void   *xMBMFrameHandle;
















 
typedef         eMBErrorCode( *peMBMFrameSend ) ( xMBMHandle xHdl, UCHAR ucSlaveAddress, USHORT usMBPDULength );

















 
typedef         eMBErrorCode( *peMBMFrameReceive ) ( xMBMHandle xHdl, UCHAR ucSlaveAddress, USHORT * pusMBPDULength );





 
typedef         eMBErrorCode( *peMBMFrameClose ) ( xMBMHandle xHdl );





 





#line 22 "Modbus\\mbmaster\\rtu\\mbmrtu.c"
#line 1 ".\\Modbus\\mbmaster\\include\\internal/mbmi.h"






 













 

 




 



 




 
typedef struct
{
    xMBPTimerHandle xRespTimeoutHdl;     
    xMBPEventHandle xFrameEventHdl;      
    xMBMFrameHandle xFrameHdl;   

    UBYTE           ubIdx;       

    USHORT          usFrameMBPDULength;  
    UBYTE          *pubFrameMBPDUBuffer;         
    peMBMFrameSend  pFrameSendFN;        
    peMBMFrameReceive pFrameRecvFN;      
    peMBMFrameClose pFrameCloseFN;       
#line 58 ".\\Modbus\\mbmaster\\include\\internal/mbmi.h"
} xMBMInternalHandle;



 
typedef enum
{
    MBM_EV_NONE,                 
    MBM_EV_DONE,                 
    MBM_EV_TIMEDOUT,             
    MBM_EV_RECEIVED,             
    MBM_EV_RECV_ERROR,           
    MBM_EV_SENT,                 
    MBM_EV_SEND_ERROR            
} eMBMEvent;

 

 











 
BOOL            bMBMIsHdlValid( const xMBMInternalHandle * pxIntHdl );





















 
void            vMBMMasterTransactionPolled( xMBMInternalHandle * pxIntHdl, UCHAR ucSlaveAddress,
                                               eMBMQueryState * peState,   eMBErrorCode * peStatus );





 





#line 23 "Modbus\\mbmaster\\rtu\\mbmrtu.c"
#line 1 "Modbus\\mbmaster\\rtu\\mbmrtu.h"






 















 

 

 

 
















 
eMBErrorCode
eMBMSerialRTUInit( xMBMInternalHandle * pxIntHdl, UCHAR ucPort, ULONG ulBaudRate, eMBSerialParity eParity, UCHAR ucStopBits );





 







#line 24 "Modbus\\mbmaster\\rtu\\mbmrtu.c"
#line 1 "Modbus\\mbmaster\\rtu\\mbmcrc.h"






 














 

 

 

 








 
USHORT usMBMCRC16( const UBYTE * pucFrame, USHORT usLen );





 





#line 25 "Modbus\\mbmaster\\rtu\\mbmrtu.c"





 
 
 



 
#line 44 "Modbus\\mbmaster\\rtu\\mbmrtu.c"







 
#line 63 "Modbus\\mbmaster\\rtu\\mbmrtu.c"







#line 77 "Modbus\\mbmaster\\rtu\\mbmrtu.c"

#line 87 "Modbus\\mbmaster\\rtu\\mbmrtu.c"

 
typedef enum
{
    MBM_STATE_RX_IDLE,               
    MBM_STATE_RX_RCV,                
    MBM_STATE_RX_ERROR               
} eMBMRTURcvState;

typedef enum
{
    MBM_STATE_TX_IDLE,               
    MBM_STATE_TX_XMIT                
} eMBMRTUSndState;

typedef struct
{
    UBYTE           ubIdx;
    volatile UBYTE  ubRTUFrameBuffer[( 256 )];

    volatile eMBMRTURcvState eRcvState;
    volatile USHORT usRcvBufferPos;

    volatile eMBMRTUSndState eSndState;
    volatile USHORT usSndBufferCnt;
    UBYTE          *pubSndBufferCur;

    xMBPTimerHandle xTmrHdl;
    xMBPSerialHandle xSerHdl;

    xMBPTimerHandle xTmrWaitHdl;

} xMBMRTUFrameHandle;

 
static BOOL     bIsInitialized = ( BOOL )0;

static xMBMRTUFrameHandle xMBMRTUFrameHdl[( 2 )];

 

static

    BOOL bMBMSerialRTUT35CB( xMBHandle xHdl );

static BOOL     bMBMSerialWaitCB( xMBHandle xHdl );


static void     bMBMSerialRTUReceiverAPIV1CB( xMBHandle xHdl, UBYTE ubValue );

static BOOL     bMBMSerialRTUTransmitterEmptyAPIV1CB( xMBHandle xHdl, UBYTE * ubValue );






static eMBErrorCode eMBMSerialRTUFrameSend( xMBHandle xHdl, UCHAR ucSlaveAddress, USHORT usMBPDULength );
static eMBErrorCode eMBMSerialRTUFrameReceive( xMBHandle xHdl, UCHAR ucSlaveAddress, USHORT * pusMBPDULength );
static eMBErrorCode eMBMSerialRTUFrameClose( xMBHandle xHdl );
static eMBErrorCode eMBMSerialRTUFrameCloseInternal( xMBMRTUFrameHandle * pxRTUHdl );






 

eMBErrorCode
eMBMSerialRTUInit( xMBMInternalHandle * pxIntHdl, UCHAR ucPort, ULONG ulBaudRate, eMBSerialParity eParity, UCHAR ucStopBits )
{
    eMBErrorCode    eStatus = MB_ENOERR, eStatus2;
    xMBMRTUFrameHandle *pxFrameHdl = 0;
    UBYTE           ubIdx;
    USHORT          usTimeoutMS;


    USHORT          usTimeoutMSWaitAfterSend;





    if( ( BOOL )1 )

    {
        vMBPEnterCritical( );
        if( !bIsInitialized )
        {
            for( ubIdx = 0; ubIdx < ( UBYTE ) ( sizeof( xMBMRTUFrameHdl ) / sizeof( ( xMBMRTUFrameHdl )[ 0 ] ) ); ubIdx++ )
            {
                do { ( &xMBMRTUFrameHdl[ubIdx] )->ubIdx = ( 255 ); do { ( &xMBMRTUFrameHdl[ubIdx] )->eRcvState = MBM_STATE_RX_IDLE; ( &xMBMRTUFrameHdl[ubIdx] )->usRcvBufferPos = 0; } while( 0 );; do { ( &xMBMRTUFrameHdl[ubIdx] )->eSndState = MBM_STATE_TX_IDLE; ( &xMBMRTUFrameHdl[ubIdx] )->usSndBufferCnt = 0; ( &xMBMRTUFrameHdl[ubIdx] )->pubSndBufferCur = 0; } while( 0 );; ( &xMBMRTUFrameHdl[ubIdx] )->xTmrHdl = 0; ( &xMBMRTUFrameHdl[ubIdx] )->xSerHdl = 0; do { ( &xMBMRTUFrameHdl[ubIdx] )->xTmrWaitHdl = 0; } while( 0 ); memset( ( void * )&( ( &xMBMRTUFrameHdl[ubIdx] )->ubRTUFrameBuffer[ 0 ] ), 0, ( 256 ) ); } while( 0 );;
            }
            bIsInitialized = ( BOOL )1;
        }

        for( ubIdx = 0; ubIdx < ( UBYTE ) ( sizeof( xMBMRTUFrameHdl ) / sizeof( ( xMBMRTUFrameHdl )[ 0 ] ) ); ubIdx++ )
        {
            if( ( 255 ) == xMBMRTUFrameHdl[ubIdx].ubIdx )
            {
                pxFrameHdl = &xMBMRTUFrameHdl[ubIdx];
                pxFrameHdl->ubIdx = ubIdx;
                break;
            }
        }

        if( 0 != pxFrameHdl )
        {



            

 
            if( ulBaudRate > 19200 )
            {
                usTimeoutMS = 2;
            }
            else
            {
                


 
                usTimeoutMS = ( USHORT ) ( ( 1000UL * 11UL * 7UL ) / ( 2 * ulBaudRate ) );
            }
#line 222 "Modbus\\mbmaster\\rtu\\mbmrtu.c"


            usTimeoutMSWaitAfterSend = ( ( ( 1000UL * 11UL ) + ( ulBaudRate ) - 1 ) / ( ulBaudRate ) );


            if( MB_ENOERR != ( eStatus2 = eMBPSerialInit( &( pxFrameHdl->xSerHdl ), ucPort, ulBaudRate, 8, eParity,
                                                          ucStopBits, pxIntHdl ) ) )
            {
                eStatus = eStatus2;
            }
            else if( MB_ENOERR != ( eStatus2 = eMBPTimerInit( &( pxFrameHdl->xTmrHdl ), usTimeoutMS,
                                                              bMBMSerialRTUT35CB, pxIntHdl ) ) )
            {
                eStatus = eStatus2;
            }

            else if( MB_ENOERR != ( eStatus2 = eMBPTimerInit( &( pxFrameHdl->xTmrWaitHdl ), usTimeoutMSWaitAfterSend,
                                                              bMBMSerialWaitCB, pxIntHdl ) ) )
            {
                eStatus = eStatus2;
            }

            else
            {
                 
                pxIntHdl->pubFrameMBPDUBuffer = ( UBYTE * ) & pxFrameHdl->ubRTUFrameBuffer[( 1 )];
                pxIntHdl->xFrameHdl = pxFrameHdl;
                pxIntHdl->pFrameSendFN = eMBMSerialRTUFrameSend;
                pxIntHdl->pFrameRecvFN = eMBMSerialRTUFrameReceive;
                pxIntHdl->pFrameCloseFN = eMBMSerialRTUFrameClose;
                eStatus = MB_ENOERR;
            }

#line 265 "Modbus\\mbmaster\\rtu\\mbmrtu.c"
            if( MB_ENOERR != eStatus )
            {
                ( void )eMBMSerialRTUFrameCloseInternal( pxFrameHdl );
            }
        }
        else
        {
            eStatus = MB_ENORES;
        }
        vMBPExitCritical( );
    }
#line 282 "Modbus\\mbmaster\\rtu\\mbmrtu.c"


    return eStatus;
}

static          eMBErrorCode
eMBMSerialRTUFrameSend( xMBHandle xHdl, UCHAR ucSlaveAddress, USHORT usMBPDULength )
{
    eMBErrorCode    eStatus = MB_EINVAL;
    USHORT          usCRC16;
    xMBMInternalHandle *pxIntHdl = xHdl;
    xMBMRTUFrameHandle *pxRTUHdl;










    if( ( BOOL )1 )

    {
        pxRTUHdl = pxIntHdl->xFrameHdl;
#line 316 "Modbus\\mbmaster\\rtu\\mbmrtu.c"
        if( ( ( ( pxRTUHdl ) != 0 ) && ( pxRTUHdl ) == &xMBMRTUFrameHdl[ ( pxRTUHdl )->ubIdx ] ) &&
            ( ( ( ucSlaveAddress ) == ( 0 ) ) || ( ( ( ucSlaveAddress ) >= ( 1 ) ) && ( ( ucSlaveAddress ) <= ( 247 ) ) ) ) &&
            ( usMBPDULength <= ( ( 256 ) - ( 1    + 2    ) ) ) )
        {
            vMBPEnterCritical( );
#line 331 "Modbus\\mbmaster\\rtu\\mbmrtu.c"
            ( ( MBM_STATE_TX_IDLE == pxRTUHdl->eSndState ) ? ( void ) 0 : vMBPAssert( ) );
            vMBPExitCritical( );

             
            pxRTUHdl->ubRTUFrameBuffer[( 0 )] = ( UBYTE ) ucSlaveAddress;
            pxRTUHdl->usSndBufferCnt = 1;

             
            pxRTUHdl->usSndBufferCnt += usMBPDULength;

            usCRC16 = usMBMCRC16( ( const UBYTE * )&pxRTUHdl->ubRTUFrameBuffer[0], pxRTUHdl->usSndBufferCnt );
            pxRTUHdl->ubRTUFrameBuffer[pxRTUHdl->usSndBufferCnt] = ( UBYTE )( usCRC16 & 0xFFU );
			pxRTUHdl->usSndBufferCnt++;
            pxRTUHdl->ubRTUFrameBuffer[pxRTUHdl->usSndBufferCnt] = ( UBYTE )( usCRC16 >> 8U );
			pxRTUHdl->usSndBufferCnt++;
			
             
            vMBPEnterCritical( );
            pxRTUHdl->eSndState = MBM_STATE_TX_XMIT;
            pxRTUHdl->pubSndBufferCur = ( UBYTE * ) & pxRTUHdl->ubRTUFrameBuffer[( 0 )];
#line 360 "Modbus\\mbmaster\\rtu\\mbmrtu.c"
            if( MB_ENOERR !=
                ( eStatus =
                  eMBPSerialTxEnable( pxRTUHdl->xSerHdl,
                                      ( pbMBPSerialTransmitterEmptyCB ) bMBMSerialRTUTransmitterEmptyAPIV1CB ) ) )
            {
                do { ( pxRTUHdl )->eSndState = MBM_STATE_TX_IDLE; ( pxRTUHdl )->usSndBufferCnt = 0; ( pxRTUHdl )->pubSndBufferCur = 0; } while( 0 );;
            }



            else
            {
#line 405 "Modbus\\mbmaster\\rtu\\mbmrtu.c"
            }
            vMBPExitCritical( );
        }
    }
    return eStatus;
}

static          eMBErrorCode
eMBMSerialRTUFrameReceive( xMBHandle xHdl, UCHAR ucSlaveAddress, USHORT * pusMBPDULength )
{
    eMBErrorCode    eStatus = MB_EINVAL, eStatus2;
    xMBMInternalHandle *pxIntHdl = xHdl;
    xMBMRTUFrameHandle *pxRTUHdl;

#line 427 "Modbus\\mbmaster\\rtu\\mbmrtu.c"
    if( ( BOOL )1 )

    {
        pxRTUHdl = pxIntHdl->xFrameHdl;
        if( ( ( ( pxRTUHdl ) != 0 ) && ( pxRTUHdl ) == &xMBMRTUFrameHdl[ ( pxRTUHdl )->ubIdx ] ) && ( ( ( ucSlaveAddress ) >= ( 1 ) ) && ( ( ucSlaveAddress ) <= ( 247 ) ) ) )
        {

            if( 0 == pusMBPDULength )
            {
                

 
#line 450 "Modbus\\mbmaster\\rtu\\mbmrtu.c"
            }
            else if( ( pxRTUHdl->usRcvBufferPos >= ( 4 ) ) &&
                     ( ucSlaveAddress == pxRTUHdl->ubRTUFrameBuffer[( 0 )] ) &&
                     ( usMBMCRC16( ( UBYTE * ) & ( pxRTUHdl->ubRTUFrameBuffer[0] ), pxRTUHdl->usRcvBufferPos ) == 0 ) )
            {
                *pusMBPDULength =
                    ( USHORT ) ( pxRTUHdl->usRcvBufferPos - ( ( 1 ) + ( 2 ) ) );
#line 481 "Modbus\\mbmaster\\rtu\\mbmrtu.c"
                eStatus = MB_ENOERR;
            }
            else
            {
#line 505 "Modbus\\mbmaster\\rtu\\mbmrtu.c"
                eStatus = MB_EIO;
            }

#line 518 "Modbus\\mbmaster\\rtu\\mbmrtu.c"
            vMBPEnterCritical( );
            if( MB_ENOERR != ( eStatus2 = eMBPSerialTxEnable( pxRTUHdl->xSerHdl, 0 ) ) )
            {
                eStatus = eStatus2;
            }
            if( MB_ENOERR != ( eStatus2 = eMBPSerialRxEnable( pxRTUHdl->xSerHdl, 0 ) ) )
            {
                eStatus = eStatus2;
            }
            if( MB_ENOERR != ( eStatus2 = eMBPTimerStop( pxRTUHdl->xTmrHdl ) ) )
            {
                eStatus = eStatus2;
            }

            if( MB_ENOERR != ( eStatus2 = eMBPTimerStop( pxRTUHdl->xTmrWaitHdl ) ) )
            {
                eStatus = eStatus2;
            }

            do { ( pxRTUHdl )->eSndState = MBM_STATE_TX_IDLE; ( pxRTUHdl )->usSndBufferCnt = 0; ( pxRTUHdl )->pubSndBufferCur = 0; } while( 0 );;
            do { ( pxRTUHdl )->eRcvState = MBM_STATE_RX_IDLE; ( pxRTUHdl )->usRcvBufferPos = 0; } while( 0 );;
            vMBPExitCritical( );
        }
    }

    return eStatus;
}

static          eMBErrorCode
eMBMSerialRTUFrameClose( xMBHandle xHdl )
{
    eMBErrorCode    eStatus = MB_EINVAL;
    xMBMInternalHandle *pxIntHdl = xHdl;




    if( ( BOOL )1 )

    {
        eStatus = eMBMSerialRTUFrameCloseInternal( ( xMBMRTUFrameHandle * ) pxIntHdl->xFrameHdl );
    }
    return eStatus;
}

static          eMBErrorCode
eMBMSerialRTUFrameCloseInternal( xMBMRTUFrameHandle * pxRTUHdl )
{
    eMBErrorCode    eStatus = MB_EINVAL;

    vMBPEnterCritical( );



    if( ( BOOL )1 )

    {
        eStatus = MB_ENOERR;
        if( 0 != pxRTUHdl->xSerHdl )
        {
            if( MB_ENOERR != eMBPSerialClose( pxRTUHdl->xSerHdl ) )
            {
                eStatus = MB_EPORTERR;
            }
            else
            {
                if( 0 != pxRTUHdl->xTmrHdl )
                {
                    vMBPTimerClose( pxRTUHdl->xTmrHdl );
                }

                if( 0 != pxRTUHdl->xTmrWaitHdl )
                {
                    vMBPTimerClose( pxRTUHdl->xTmrWaitHdl );
                }

                do { ( pxRTUHdl )->ubIdx = ( 255 ); do { ( pxRTUHdl )->eRcvState = MBM_STATE_RX_IDLE; ( pxRTUHdl )->usRcvBufferPos = 0; } while( 0 );; do { ( pxRTUHdl )->eSndState = MBM_STATE_TX_IDLE; ( pxRTUHdl )->usSndBufferCnt = 0; ( pxRTUHdl )->pubSndBufferCur = 0; } while( 0 );; ( pxRTUHdl )->xTmrHdl = 0; ( pxRTUHdl )->xSerHdl = 0; do { ( pxRTUHdl )->xTmrWaitHdl = 0; } while( 0 ); memset( ( void * )&( ( pxRTUHdl )->ubRTUFrameBuffer[ 0 ] ), 0, ( 256 ) ); } while( 0 );;
                eStatus = MB_ENOERR;
            }
        }
        else
        {
            ( ( 0 == pxRTUHdl->xTmrHdl ) ? ( void ) 0 : vMBPAssert( ) );

            ( ( 0 == pxRTUHdl->xTmrWaitHdl ) ? ( void ) 0 : vMBPAssert( ) );

            do { ( pxRTUHdl )->ubIdx = ( 255 ); do { ( pxRTUHdl )->eRcvState = MBM_STATE_RX_IDLE; ( pxRTUHdl )->usRcvBufferPos = 0; } while( 0 );; do { ( pxRTUHdl )->eSndState = MBM_STATE_TX_IDLE; ( pxRTUHdl )->usSndBufferCnt = 0; ( pxRTUHdl )->pubSndBufferCur = 0; } while( 0 );; ( pxRTUHdl )->xTmrHdl = 0; ( pxRTUHdl )->xSerHdl = 0; do { ( pxRTUHdl )->xTmrWaitHdl = 0; } while( 0 ); memset( ( void * )&( ( pxRTUHdl )->ubRTUFrameBuffer[ 0 ] ), 0, ( 256 ) ); } while( 0 );;
            eStatus = MB_ENOERR;
        }
    }
    vMBPExitCritical( );
    return eStatus;
}


static void
bMBMSerialRTUReceiverAPIV1CB( xMBHandle xHdl, UBYTE ubValue )
{
    eMBErrorCode    eStatus;
    xMBMInternalHandle *pxIntHdl = xHdl;
    xMBMRTUFrameHandle *pxRTUFrameHdl;

    ( void )eStatus;
    vMBPEnterCritical( );
    pxRTUFrameHdl = pxIntHdl->xFrameHdl;
    ( ( pxRTUFrameHdl->eSndState == MBM_STATE_TX_IDLE ) ? ( void ) 0 : vMBPAssert( ) );

    switch ( pxRTUFrameHdl->eRcvState )
    {
    case MBM_STATE_RX_IDLE:



        pxRTUFrameHdl->usRcvBufferPos = 0;

        pxRTUFrameHdl->ubRTUFrameBuffer[pxRTUFrameHdl->usRcvBufferPos] = ubValue;
		pxRTUFrameHdl->usRcvBufferPos++;
        pxRTUFrameHdl->eRcvState = MBM_STATE_RX_RCV;

        break;

    case MBM_STATE_RX_RCV:
        if( pxRTUFrameHdl->usRcvBufferPos < ( 256 ) )
        {
            pxRTUFrameHdl->ubRTUFrameBuffer[pxRTUFrameHdl->usRcvBufferPos] = ubValue;
			pxRTUFrameHdl->usRcvBufferPos++;
        }
        else
        {
            pxRTUFrameHdl->eRcvState = MBM_STATE_RX_ERROR;
        }
        break;

    default:
    case MBM_STATE_RX_ERROR:
        pxRTUFrameHdl->eRcvState = MBM_STATE_RX_ERROR;
        break;
    }






    if( MB_ENOERR != eMBPTimerStart( pxRTUFrameHdl->xTmrHdl ) )
    {
         
        eStatus = eMBPSerialRxEnable( pxRTUFrameHdl->xSerHdl, 0 );
        ( ( MB_ENOERR == eStatus ) ? ( void ) 0 : vMBPAssert( ) );
        eStatus = eMBPEventPost( pxIntHdl->xFrameEventHdl, ( xMBPEventType ) MBM_EV_RECV_ERROR );
        ( ( MB_ENOERR == eStatus ) ? ( void ) 0 : vMBPAssert( ) );
        pxRTUFrameHdl->eRcvState = MBM_STATE_RX_ERROR;
    }

    vMBPExitCritical( );
}


static          BOOL
bMBMSerialRTUTransmitterEmptyAPIV1CB( xMBHandle xHdl, UBYTE * pubValue )
{
    eMBErrorCode    eStatus;
    BOOL            bMoreTXData = ( BOOL )0;
    BOOL            bEnableRx = ( BOOL )0;
    xMBMInternalHandle *pxIntHdl = xHdl;
    xMBMRTUFrameHandle *pxRTUFrameHdl;

    vMBPEnterCritical( );
    pxRTUFrameHdl = pxIntHdl->xFrameHdl;
    ( ( pxRTUFrameHdl->eRcvState == MBM_STATE_RX_IDLE ) ? ( void ) 0 : vMBPAssert( ) );
    ( ( pxRTUFrameHdl->eSndState == MBM_STATE_TX_XMIT ) ? ( void ) 0 : vMBPAssert( ) );
	( ( pxRTUFrameHdl->pubSndBufferCur != 0 ) ? ( void ) 0 : vMBPAssert( ) );

    switch ( pxRTUFrameHdl->eSndState )
    {
        




 
    case MBM_STATE_TX_XMIT:
        if( pxRTUFrameHdl->usSndBufferCnt > 0 )
        {
            *pubValue = *( pxRTUFrameHdl->pubSndBufferCur );
            pxRTUFrameHdl->pubSndBufferCur++;
            pxRTUFrameHdl->usSndBufferCnt--;
            bMoreTXData = ( BOOL )1;
        }
        else
        {
            if( ( 0 ) == pxRTUFrameHdl->ubRTUFrameBuffer[( 0 )] )
            {
                eStatus = eMBPEventPost( pxIntHdl->xFrameEventHdl, ( xMBPEventType ) MBM_EV_SENT );
                ( ( MB_ENOERR == eStatus ) ? ( void ) 0 : vMBPAssert( ) );
            }
            else
            {
                bEnableRx = ( BOOL )1;
            }
        }
        break;

         
    default:
        eStatus = eMBPEventPost( pxIntHdl->xFrameEventHdl, ( xMBPEventType ) MBM_EV_SEND_ERROR );
        ( ( MB_ENOERR == eStatus ) ? ( void ) 0 : vMBPAssert( ) );
        break;
    }
    if( !bMoreTXData )
    {
        do { ( pxRTUFrameHdl )->eSndState = MBM_STATE_TX_IDLE; ( pxRTUFrameHdl )->usSndBufferCnt = 0; ( pxRTUFrameHdl )->pubSndBufferCur = 0; } while( 0 );;
    }
    else
    {



    }
    if( bEnableRx )
    {

        if( MB_ENOERR != eMBPTimerStart( pxRTUFrameHdl->xTmrWaitHdl ) )
        {
            eStatus = eMBPEventPost( pxIntHdl->xFrameEventHdl, ( xMBPEventType ) MBM_EV_SEND_ERROR );
            ( ( MB_ENOERR == eStatus ) ? ( void ) 0 : vMBPAssert( ) );
        }
#line 753 "Modbus\\mbmaster\\rtu\\mbmrtu.c"
    }
    vMBPExitCritical( );
    return bMoreTXData;
}


#line 908 "Modbus\\mbmaster\\rtu\\mbmrtu.c"


static

    BOOL
bMBMSerialRTUT35CB( xMBHandle xHdl )
{
    eMBErrorCode    eStatus;
    BOOL            bNeedCtxSwitch = ( BOOL )1;
    xMBMInternalHandle *pxIntHdl = xHdl;
    xMBMRTUFrameHandle *pxRTUFrameHdl;

    vMBPEnterCritical( );
    pxRTUFrameHdl = pxIntHdl->xFrameHdl;
    ( ( pxRTUFrameHdl->eSndState == MBM_STATE_TX_IDLE ) ? ( void ) 0 : vMBPAssert( ) );

    switch ( pxRTUFrameHdl->eRcvState )
    {
    case MBM_STATE_RX_RCV:
        eStatus = eMBPEventPost( pxIntHdl->xFrameEventHdl, ( xMBPEventType ) MBM_EV_RECEIVED );
        ( ( MB_ENOERR == eStatus ) ? ( void ) 0 : vMBPAssert( ) );
        break;

    default:
        eStatus = eMBPEventPost( pxIntHdl->xFrameEventHdl, ( xMBPEventType ) MBM_EV_RECV_ERROR );
        ( ( MB_ENOERR == eStatus ) ? ( void ) 0 : vMBPAssert( ) );
    }
    pxRTUFrameHdl->eRcvState = MBM_STATE_RX_IDLE;
     
    eStatus = eMBPSerialRxEnable( pxRTUFrameHdl->xSerHdl, 0 );
    ( ( MB_ENOERR == eStatus ) ? ( void ) 0 : vMBPAssert( ) );
    eStatus = eMBPTimerStop( pxRTUFrameHdl->xTmrHdl );
    ( ( MB_ENOERR == eStatus ) ? ( void ) 0 : vMBPAssert( ) );

    vMBPExitCritical( );
    return bNeedCtxSwitch;
}


static          BOOL
bMBMSerialWaitCB( xMBHandle xHdl )
{
    eMBErrorCode    eStatus;
    xMBMInternalHandle *pxIntHdl = xHdl;
    xMBMRTUFrameHandle *pxRTUFrameHdl;

    vMBPEnterCritical( );
    pxRTUFrameHdl = pxIntHdl->xFrameHdl;
    ( ( pxRTUFrameHdl->eSndState == MBM_STATE_TX_IDLE ) ? ( void ) 0 : vMBPAssert( ) );




    if( MB_ENOERR !=
        eMBPSerialRxEnable( pxRTUFrameHdl->xSerHdl, ( pvMBPSerialReceiverCB ) bMBMSerialRTUReceiverAPIV1CB ) )

    {
        eStatus = eMBPEventPost( pxIntHdl->xFrameEventHdl, ( xMBPEventType ) MBM_EV_SEND_ERROR );
        ( ( MB_ENOERR == eStatus ) ? ( void ) 0 : vMBPAssert( ) );
    }
    vMBPExitCritical( );
    return ( BOOL )0;
}


#line 998 "Modbus\\mbmaster\\rtu\\mbmrtu.c"

