#line 1 "Common\\soft_fifo.c"
























 



 
#line 1 "Common\\soft_fifo.h"
























 




 




 



 



 



 
 

 

 

 

 

 

 

 

 

 

 

 
typedef struct
{
	float contents[120];
	unsigned char count;
	unsigned char front;
}Soft_FIFO;
extern Soft_FIFO blend_FIFO;



 
extern int Push_FIFO(Soft_FIFO*,float);
extern float Pop_FIFO(Soft_FIFO*,float* );
#line 31 "Common\\soft_fifo.c"


 
 





 



 
 

 

 

 

 

 

 

 

 

 

 

 



 
 

 

 

 

 

 

 

 

 

 

 

 



 



 











 

int Push_FIFO(Soft_FIFO *t_FIFO,float element )
{  
	if( t_FIFO->front == 120)
		t_FIFO->front = 0;
  if(!((((t_FIFO)->count==120)?1:0))) 
  {
	  if((t_FIFO->count + t_FIFO->front) < 120 )
	  {
       t_FIFO->contents[t_FIFO->count + t_FIFO->front] = element;
	  }
	  else
	  {
		   t_FIFO->contents[(t_FIFO->count + t_FIFO->front)-120] = element;
	  }
    (t_FIFO->count)++;
	  return 0;
  }
  else 
	  return -1;
}









 
float Pop_FIFO(Soft_FIFO *t_FIFO ,float *dest )
{
	if(!((((t_FIFO)->count==0)?1:0))) 
	{
		 if(t_FIFO->front == 120) 
		 {
       t_FIFO->front = 0;
     }
		 *dest = t_FIFO->contents[t_FIFO->front];
		 
		 
     t_FIFO->front++;
	   t_FIFO->count--;
	   return 1;
	}
	else 
	   return 0;
	
}


