#line 1 "USB\\usb_config.c"









 





 










































 








































































































#line 178 "USB\\usb_config.c"































#line 220 "USB\\usb_config.c"

































#line 267 "USB\\usb_config.c"


















































#line 334 "USB\\usb_config.c"























 

#line 370 "USB\\usb_config.c"

#line 400 "USB\\usb_config.c"

#line 419 "USB\\usb_config.c"

#line 429 "USB\\usb_config.c"

#line 437 "USB\\usb_config.c"

#line 445 "USB\\usb_config.c"

#line 492 "USB\\usb_config.c"




 




#line 1 "C:\\Keil\\ARM\\RV31\\INC\\usb_lib.c"









 

#line 1 "C:\\Keil\\ARM\\RV31\\INC\\RTL.h"









 




 

 



#line 28 "C:\\Keil\\ARM\\RV31\\INC\\RTL.h"







 typedef unsigned int   size_t;


typedef signed char     S8;
typedef unsigned char   U8;
typedef short           S16;
typedef unsigned short  U16;
typedef int             S32;
typedef unsigned int    U32;
typedef long long       S64;
typedef unsigned long long U64;
typedef unsigned char   BIT;
typedef unsigned int    BOOL;

#line 55 "C:\\Keil\\ARM\\RV31\\INC\\RTL.h"

#line 71 "C:\\Keil\\ARM\\RV31\\INC\\RTL.h"



 





 
typedef U32 OS_SEM[2];

 

typedef U32 OS_MBX[];

 
typedef U32 OS_MUT[3];

 
typedef U32 OS_TID;

 
typedef void *OS_ID;

 
typedef U32 OS_RESULT;

 












 




#line 202 "C:\\Keil\\ARM\\RV31\\INC\\RTL.h"



 



 
extern void      os_set_env    (void);
extern void      rt_sys_init   (void (*task)(void), U8 priority, void *stk);
extern void      rt_tsk_pass   (void);
extern OS_TID    rt_tsk_self   (void);
extern OS_RESULT rt_tsk_prio   (OS_TID task_id, U8 new_prio);
extern OS_TID    rt_tsk_create (void (*task)(void), U8 priority, void *stk, void *argv);
extern OS_RESULT rt_tsk_delete (OS_TID task_id);

#line 238 "C:\\Keil\\ARM\\RV31\\INC\\RTL.h"

extern void      _os_sys_init(U32 p, void (*task)(void), U32 prio_stksz,
                                     void *stk)                        __svc_indirect(0);
extern OS_TID    _os_tsk_create (U32 p, void (*task)(void), U32 prio_stksz,
                                        void *stk, void *argv)         __svc_indirect(0);
extern OS_TID    _os_tsk_create_ex (U32 p, void (*task)(void *), U32 prio_stksz,
                                           void *stk, void *argv)      __svc_indirect(0);
extern OS_TID    _os_tsk_self (U32 p)                                  __svc_indirect(0);
extern void      _os_tsk_pass (U32 p)                                  __svc_indirect(0);
extern OS_RESULT _os_tsk_prio (U32 p, OS_TID task_id, U8 new_prio)     __svc_indirect(0);
extern OS_RESULT _os_tsk_delete (U32 p, OS_TID task_id)                __svc_indirect(0);

 
extern OS_RESULT rt_evt_wait (U16 wait_flags,  U16 timeout, BOOL and_wait);
extern void      rt_evt_set  (U16 event_flags, OS_TID task_id);
extern void      rt_evt_clr  (U16 clear_flags, OS_TID task_id);
extern U16       rt_evt_get  (void);







extern OS_RESULT _os_evt_wait(U32 p, U16 wait_flags, U16 timeout,
                                     BOOL and_wait)                    __svc_indirect(0);
extern void      _os_evt_set (U32 p, U16 event_flags, OS_TID task_id)  __svc_indirect(0);
extern void      _os_evt_clr (U32 p, U16 clear_flags, OS_TID task_id)  __svc_indirect(0);
extern U16       _os_evt_get (U32 p)                                   __svc_indirect(0);
extern void      isr_evt_set (U16 event_flags, OS_TID task_id);

 
extern void      rt_sem_init (OS_ID semaphore, U16 token_count);
extern OS_RESULT rt_sem_send (OS_ID semaphore);
extern OS_RESULT rt_sem_wait (OS_ID semaphore, U16 timeout);





extern void      _os_sem_init (U32 p, OS_ID semaphore, 
                                      U16 token_count)                 __svc_indirect(0);
extern OS_RESULT _os_sem_send (U32 p, OS_ID semaphore)                 __svc_indirect(0);
extern OS_RESULT _os_sem_wait (U32 p, OS_ID semaphore, U16 timeout)    __svc_indirect(0);
extern void      isr_sem_send (OS_ID semaphore);

 
extern void      rt_mbx_init  (OS_ID mailbox, U16 mbx_size);
extern OS_RESULT rt_mbx_send  (OS_ID mailbox, void *p_msg,    U16 timeout);
extern OS_RESULT rt_mbx_wait  (OS_ID mailbox, void **message, U16 timeout);
extern OS_RESULT rt_mbx_check (OS_ID mailbox);







extern void      _os_mbx_init (U32 p, OS_ID mailbox, U16 mbx_size)     __svc_indirect(0);
extern OS_RESULT _os_mbx_send (U32 p, OS_ID mailbox, void *message_ptr,
                                      U16 timeout)                     __svc_indirect(0);
extern OS_RESULT _os_mbx_wait (U32 p, OS_ID mailbox, void  **message,
                                      U16 timeout)                     __svc_indirect(0);
extern OS_RESULT _os_mbx_check (U32 p, OS_ID mailbox)                  __svc_indirect(0);
extern void      isr_mbx_send (OS_ID mailbox, void *message_ptr);
extern OS_RESULT isr_mbx_receive (OS_ID mailbox, void **message);

 
extern void      rt_mut_init    (OS_ID mutex);
extern OS_RESULT rt_mut_release (OS_ID mutex);
extern OS_RESULT rt_mut_wait    (OS_ID mutex, U16 timeout);





extern void      _os_mut_init (U32 p, OS_ID mutex)                     __svc_indirect(0);
extern OS_RESULT _os_mut_release (U32 p, OS_ID mutex)                  __svc_indirect(0);
extern OS_RESULT _os_mut_wait (U32 p, OS_ID mutex, U16 timeout)        __svc_indirect(0);

 
extern U32       rt_time_get (void);
extern void      rt_dly_wait (U16 delay_time);
extern void      rt_itv_set  (U16 interval_time);
extern void      rt_itv_wait (void);






extern U32       _os_time_get (U32 p)                                  __svc_indirect(0);
extern void      _os_dly_wait (U32 p, U16 delay_time)                  __svc_indirect(0);
extern void      _os_itv_set (U32 p, U16 interval_time)                __svc_indirect(0);
extern void      _os_itv_wait (U32 p)                                  __svc_indirect(0);

 
extern OS_ID     rt_tmr_create (U16 tcnt, U16 info);
extern OS_ID     rt_tmr_kill   (OS_ID timer);




extern OS_ID     _os_tmr_create (U32 p, U16 tcnt, U16 info)            __svc_indirect(0);
extern OS_ID     _os_tmr_kill (U32 p, OS_ID timer)                     __svc_indirect(0);

 
extern U32       rt_suspend    (void);
extern void      rt_resume     (U32 sleep_time);
extern void      rt_tsk_lock   (void);
extern void      rt_tsk_unlock (void);






extern U32       _os_suspend (U32 p)                                   __svc_indirect(0);
extern void      _os_resume (U32 p, U32 sleep_time)                    __svc_indirect(0);
extern void      _os_tsk_lock (U32 p)                                  __svc_indirect(0);
extern void      _os_tsk_unlock (U32 p)                                __svc_indirect(0);

 
extern int       _init_box (void *box_mem, U32 box_size, U32 blk_size);
extern void     *_alloc_box (void *box_mem);
extern void     *_calloc_box (void *box_mem);
extern int       _free_box (void *box_mem, void *box);








 




 

typedef struct {                         
  U8  hr;                                
  U8  min;                               
  U8  sec;                               
  U8  day;                               
  U8  mon;                               
  U16 year;                              
} RL_TIME;

typedef struct {                         
  S8  name[256];                         
  U32 size;                              
  U16 fileID;                            
  U8  attrib;                            
  RL_TIME time;                          
} FINFO;

extern int finit (const char *drive);
extern int funinit (const char *drive);
extern int fdelete (const char *filename);
extern int frename (const char *oldname, const char *newname);
extern int ffind (const char *pattern, FINFO *info);
extern U64 ffree (const char *drive);
extern int fformat (const char *drive);
extern int fanalyse (const char *drive);
extern int fcheck (const char *drive);
extern int fdefrag (const char *drive);
extern int fattrib (const char *par, const char *path);
extern int fvol    (const char *drive, char *buf);

 




 

 



 
#line 428 "C:\\Keil\\ARM\\RV31\\INC\\RTL.h"

 
#line 436 "C:\\Keil\\ARM\\RV31\\INC\\RTL.h"

 
#line 449 "C:\\Keil\\ARM\\RV31\\INC\\RTL.h"

 




 




 



 



 



 
#line 484 "C:\\Keil\\ARM\\RV31\\INC\\RTL.h"

 



 





 



 





 
#line 512 "C:\\Keil\\ARM\\RV31\\INC\\RTL.h"

 




 
#line 527 "C:\\Keil\\ARM\\RV31\\INC\\RTL.h"

 
#line 537 "C:\\Keil\\ARM\\RV31\\INC\\RTL.h"

 
#line 545 "C:\\Keil\\ARM\\RV31\\INC\\RTL.h"

 



 
typedef struct sockaddr {          
  U16  sa_family;                  
  char sa_data[14];                
} SOCKADDR;

#pragma push
#pragma anon_unions

typedef struct in_addr {           
  union {
    struct {
      U8 s_b1,s_b2,s_b3,s_b4;      
    };
    struct {
      U16 s_w1,s_w2;               
    };
    U32 s_addr;                    
  };
} IN_ADDR;
#pragma pop

typedef struct sockaddr_in {       
  S16 sin_family;                  
  U16 sin_port;                    
  IN_ADDR sin_addr;                
  S8  sin_zero[8];                 
} SOCKADDR_IN;

typedef struct hostent {           
  char *h_name;                    
  char **h_aliases;                
  S16  h_addrtype;                 
  S16  h_length;                   
  char **h_addr_list;              
} HOSTENT;

extern void init_TcpNet (void);
extern BOOL main_TcpNet (void);
extern void timer_tick (void);
extern U8   udp_get_socket (U8 tos, U8 opt, 
                            U16 (*listener)(U8 socket, U8 *remip, U16 port, U8 *buf, U16 len));
extern BOOL udp_release_socket (U8 socket);
extern BOOL udp_open (U8 socket, U16 locport);
extern BOOL udp_close (U8 socket);
extern BOOL udp_mcast_ttl (U8 socket, U8 ttl);
extern U8  *udp_get_buf (U16 size);
extern BOOL udp_send (U8 socket, U8 *remip, U16 remport, U8 *buf, U16 dlen);
extern U8   tcp_get_socket (U8 type, U8 tos, U16 tout,
                            U16 (*listener)(U8 socket, U8 event, U8 *buf, U16 len));
extern BOOL tcp_release_socket (U8 socket);
extern BOOL tcp_listen (U8 socket, U16 locport);
extern BOOL tcp_connect (U8 socket, U8 *remip, U16 remport, U16 locport);
extern U8  *tcp_get_buf (U16 size);
extern U16  tcp_max_dsize (U8 socket);
extern BOOL tcp_check_send (U8 socket);
extern U8   tcp_get_state (U8 socket);
extern BOOL tcp_send (U8 socket, U8 *buf, U16 dlen);
extern BOOL tcp_close (U8 socket);
extern BOOL tcp_abort (U8 socket);
extern void tcp_reset_window (U8 socket);
extern BOOL arp_cache_ip (U8 *ipadr, U8 type);
extern BOOL arp_cache_mac (U8 *hwadr);
extern void ppp_listen (const char *user, const char *passw);
extern void ppp_connect (const char *dialnum, const char *user, const char *passw);
extern void ppp_close (void);
extern BOOL ppp_is_up (void);
extern void slip_listen (void);
extern void slip_connect (const char *dialnum);
extern void slip_close (void);
extern BOOL slip_is_up (void);
extern U8   get_host_by_name (U8 *hostn, void (*cbfunc)(U8 event, U8 *host_ip));
extern BOOL smtp_connect (U8 *ipadr, U16 port, void (*cbfunc)(U8 event));
extern void dhcp_disable (void);
extern BOOL igmp_join (U8 *group_ip);
extern BOOL igmp_leave (U8 *group_ip);
extern BOOL snmp_trap (U8 *manager_ip, U8 gen_trap, U8 spec_trap, U16 *obj_list);
extern BOOL snmp_set_community (const char *community);
extern BOOL icmp_ping (U8 *remip, void (*cbfunc)(U8 event));
extern BOOL ftpc_connect (U8 *ipadr, U16 port, U8 command, void (*cbfunc)(U8 event));
extern BOOL tftpc_put (U8 *ipadr, U16 port,
                       const char *src, const char *dst, void (*cbfunc)(U8 event));
extern BOOL tftpc_get (U8 *ipadr, U16 port, 
                       const char *src, const char *dst, void (*cbfunc)(U8 event));

 
extern int  socket (int family, int type, int protocol);
extern int  bind (int sock, const SOCKADDR *addr, int addrlen);
extern int  listen (int sock, int backlog);
extern int  accept (int sock, SOCKADDR *addr, int *addrlen);
extern int  connect (int sock, SOCKADDR *addr, int addrlen);
extern int  send (int sock, const char *buf, int len, int flags);
extern int  sendto (int sock, const char *buf, int len, int flags, SOCKADDR *to, int tolen);
extern int  recv (int sock, char *buf, int len, int flags);
extern int  recvfrom (int sock, char *buf, int len, int flags, SOCKADDR *from, int *fromlen);
extern int  closesocket (int sock);
extern int  getpeername (int sock, SOCKADDR *name, int *namelen);
extern int  getsockname (int sock, SOCKADDR *name, int *namelen);
extern int  ioctlsocket (int sock, long cmd, unsigned long *argp);
extern HOSTENT *gethostbyname (const char *name, int *err);







 


 
#line 13 "C:\\Keil\\ARM\\RV31\\INC\\usb_lib.c"
#line 1 "C:\\Keil\\ARM\\RV31\\INC\\rl_usb.h"









 








#line 1 "C:\\Keil\\ARM\\ARMCC\\bin\\..\\include\\stdint.h"
 
 





 










#line 26 "C:\\Keil\\ARM\\ARMCC\\bin\\..\\include\\stdint.h"







 

     

     
typedef   signed          char int8_t;
typedef   signed short     int int16_t;
typedef   signed           int int32_t;
typedef   signed       __int64 int64_t;

     
typedef unsigned          char uint8_t;
typedef unsigned short     int uint16_t;
typedef unsigned           int uint32_t;
typedef unsigned       __int64 uint64_t;

     

     
     
typedef   signed          char int_least8_t;
typedef   signed short     int int_least16_t;
typedef   signed           int int_least32_t;
typedef   signed       __int64 int_least64_t;

     
typedef unsigned          char uint_least8_t;
typedef unsigned short     int uint_least16_t;
typedef unsigned           int uint_least32_t;
typedef unsigned       __int64 uint_least64_t;

     

     
typedef   signed           int int_fast8_t;
typedef   signed           int int_fast16_t;
typedef   signed           int int_fast32_t;
typedef   signed       __int64 int_fast64_t;

     
typedef unsigned           int uint_fast8_t;
typedef unsigned           int uint_fast16_t;
typedef unsigned           int uint_fast32_t;
typedef unsigned       __int64 uint_fast64_t;

     
typedef   signed           int intptr_t;
typedef unsigned           int uintptr_t;

     
typedef   signed       __int64 intmax_t;
typedef unsigned       __int64 uintmax_t;




     

     





     





     





     

     





     





     





     

     





     





     





     

     


     


     


     

     


     


     


     

     



     



     


     
    
 



#line 197 "C:\\Keil\\ARM\\ARMCC\\bin\\..\\include\\stdint.h"

     







     










     











#line 261 "C:\\Keil\\ARM\\ARMCC\\bin\\..\\include\\stdint.h"



 



#line 20 "C:\\Keil\\ARM\\RV31\\INC\\rl_usb.h"
#line 1 "C:\\Keil\\ARM\\ARMCC\\bin\\..\\include\\..\\..\\RL\\USB\\INC\\usb.h"









 




 
#line 1 "C:\\Keil\\ARM\\ARMCC\\bin\\..\\include\\..\\..\\RL\\USB\\INC\\usb_def.h"









 




#pragma anon_unions


 



 





 





 
typedef __packed struct _REQUEST_TYPE {
  U8 Recipient : 5;                      
  U8 Type      : 2;                      
  U8 Dir       : 1;                      
} REQUEST_TYPE;

 
#line 53 "C:\\Keil\\ARM\\ARMCC\\bin\\..\\include\\..\\..\\RL\\USB\\INC\\usb_def.h"

 




 



 
typedef __packed struct _USB_SETUP_PACKET {
  REQUEST_TYPE bmRequestType;            
  U8  bRequest;                          
  __packed union {
    U16        wValue;                   
    __packed struct {
      U8         wValueL;
      U8         wValueH;
    };
  };
  __packed union {
    U16        wIndex;                   
    __packed struct {
      U8         wIndexL;
      U8         wIndexH;
    };
  };
  U16          wLength;                  
} USB_SETUP_PACKET;


 
#line 97 "C:\\Keil\\ARM\\ARMCC\\bin\\..\\include\\..\\..\\RL\\USB\\INC\\usb_def.h"

 
#line 111 "C:\\Keil\\ARM\\ARMCC\\bin\\..\\include\\..\\..\\RL\\USB\\INC\\usb_def.h"

 





 


 




 
#line 142 "C:\\Keil\\ARM\\ARMCC\\bin\\..\\include\\..\\..\\RL\\USB\\INC\\usb_def.h"

 
typedef __packed struct _USB_DEVICE_DESCRIPTOR {
  U8  bLength;
  U8  bDescriptorType;
  U16 bcdUSB;
  U8  bDeviceClass;
  U8  bDeviceSubClass;
  U8  bDeviceProtocol;
  U8  bMaxPacketSize0;
  U16 idVendor;
  U16 idProduct;
  U16 bcdDevice;
  U8  iManufacturer;
  U8  iProduct;
  U8  iSerialNumber;
  U8  bNumConfigurations;
} USB_DEVICE_DESCRIPTOR;

 
typedef __packed struct _USB_DEVICE_QUALIFIER_DESCRIPTOR {
  U8  bLength;
  U8  bDescriptorType;
  U16 bcdUSB;
  U8  bDeviceClass;
  U8  bDeviceSubClass;
  U8  bDeviceProtocol;
  U8  bMaxPacketSize0;
  U8  bNumConfigurations;
  U8  bReserved;
} USB_DEVICE_QUALIFIER_DESCRIPTOR;

 
typedef __packed struct _USB_CONFIGURATION_DESCRIPTOR {
  U8  bLength;
  U8  bDescriptorType;
  U16 wTotalLength;
  U8  bNumInterfaces;
  U8  bConfigurationValue;
  U8  iConfiguration;
  U8  bmAttributes;
  U8  bMaxPower;
} USB_CONFIGURATION_DESCRIPTOR;

 
typedef __packed struct _USB_INTERFACE_DESCRIPTOR {
  U8  bLength;
  U8  bDescriptorType;
  U8  bInterfaceNumber;
  U8  bAlternateSetting;
  U8  bNumEndpoints;
  U8  bInterfaceClass;
  U8  bInterfaceSubClass;
  U8  bInterfaceProtocol;
  U8  iInterface;
} USB_INTERFACE_DESCRIPTOR;

 
typedef __packed struct _USB_ENDPOINT_DESCRIPTOR {
  U8  bLength;
  U8  bDescriptorType;
  U8  bEndpointAddress;
  U8  bmAttributes;
  U16 wMaxPacketSize;
  U8  bInterval;
} USB_ENDPOINT_DESCRIPTOR;

 
typedef __packed struct _USB_STRING_DESCRIPTOR {
  U8  bLength;
  U8  bDescriptorType;
  U16 bString ;
} USB_STRING_DESCRIPTOR;

 
typedef __packed struct _USB_COMMON_DESCRIPTOR {
  U8  bLength;
  U8  bDescriptorType;
} USB_COMMON_DESCRIPTOR;

 
typedef __packed struct _USB_INTERFACE_ASSOCIATION_DESCRIPTOR {
  U8  bLength;
  U8  bDescriptorType;
  U8  bFirstInterface;
  U8  bInterfaceCount;
  U8  bFunctionClass;
  U8  bFunctionSubclass;
  U8  bFunctionProtocol;
  U8  iFunction;
} USB_INTERFACE_ASSOCIATION_DESCRIPTOR;


#line 17 "C:\\Keil\\ARM\\ARMCC\\bin\\..\\include\\..\\..\\RL\\USB\\INC\\usb.h"
#line 1 "C:\\Keil\\ARM\\ARMCC\\bin\\..\\include\\..\\..\\RL\\USB\\INC\\usb_adc.h"









 





 





 



 
#line 33 "C:\\Keil\\ARM\\ARMCC\\bin\\..\\include\\..\\..\\RL\\USB\\INC\\usb_adc.h"


 
#line 45 "C:\\Keil\\ARM\\ARMCC\\bin\\..\\include\\..\\..\\RL\\USB\\INC\\usb_adc.h"

 





 




 
#line 69 "C:\\Keil\\ARM\\ARMCC\\bin\\..\\include\\..\\..\\RL\\USB\\INC\\usb_adc.h"


 
#line 79 "C:\\Keil\\ARM\\ARMCC\\bin\\..\\include\\..\\..\\RL\\USB\\INC\\usb_adc.h"


 
#line 94 "C:\\Keil\\ARM\\ARMCC\\bin\\..\\include\\..\\..\\RL\\USB\\INC\\usb_adc.h"


 


 


 
#line 113 "C:\\Keil\\ARM\\ARMCC\\bin\\..\\include\\..\\..\\RL\\USB\\INC\\usb_adc.h"

 



 
 
 

 
 
 

 
 


 
 




 
 




 
 






 
 

 




 

 
#line 168 "C:\\Keil\\ARM\\ARMCC\\bin\\..\\include\\..\\..\\RL\\USB\\INC\\usb_adc.h"

 







 






 







 

 
#line 201 "C:\\Keil\\ARM\\ARMCC\\bin\\..\\include\\..\\..\\RL\\USB\\INC\\usb_adc.h"

 




 
#line 216 "C:\\Keil\\ARM\\ARMCC\\bin\\..\\include\\..\\..\\RL\\USB\\INC\\usb_adc.h"


 
#line 232 "C:\\Keil\\ARM\\ARMCC\\bin\\..\\include\\..\\..\\RL\\USB\\INC\\usb_adc.h"


 
#line 245 "C:\\Keil\\ARM\\ARMCC\\bin\\..\\include\\..\\..\\RL\\USB\\INC\\usb_adc.h"

 



 
 
 

 
 
 

 
 


 
 





 
 




 
 






 
 

 





 

 




 
#line 307 "C:\\Keil\\ARM\\ARMCC\\bin\\..\\include\\..\\..\\RL\\USB\\INC\\usb_adc.h"

 
#line 317 "C:\\Keil\\ARM\\ARMCC\\bin\\..\\include\\..\\..\\RL\\USB\\INC\\usb_adc.h"

 
#line 325 "C:\\Keil\\ARM\\ARMCC\\bin\\..\\include\\..\\..\\RL\\USB\\INC\\usb_adc.h"

 





 
#line 341 "C:\\Keil\\ARM\\ARMCC\\bin\\..\\include\\..\\..\\RL\\USB\\INC\\usb_adc.h"

 
#line 363 "C:\\Keil\\ARM\\ARMCC\\bin\\..\\include\\..\\..\\RL\\USB\\INC\\usb_adc.h"


#line 18 "C:\\Keil\\ARM\\ARMCC\\bin\\..\\include\\..\\..\\RL\\USB\\INC\\usb.h"
#line 1 "C:\\Keil\\ARM\\ARMCC\\bin\\..\\include\\..\\..\\RL\\USB\\INC\\usb_cdc.h"









 






 
 


 
 


 
 
#line 34 "C:\\Keil\\ARM\\ARMCC\\bin\\..\\include\\..\\..\\RL\\USB\\INC\\usb_cdc.h"

 
 


 
 


 
 
#line 57 "C:\\Keil\\ARM\\ARMCC\\bin\\..\\include\\..\\..\\RL\\USB\\INC\\usb_cdc.h"

 
 



 
 
#line 82 "C:\\Keil\\ARM\\ARMCC\\bin\\..\\include\\..\\..\\RL\\USB\\INC\\usb_cdc.h"

 
 
 
#line 121 "C:\\Keil\\ARM\\ARMCC\\bin\\..\\include\\..\\..\\RL\\USB\\INC\\usb_cdc.h"

 
 



 
 




 
 



 
 
 
#line 149 "C:\\Keil\\ARM\\ARMCC\\bin\\..\\include\\..\\..\\RL\\USB\\INC\\usb_cdc.h"

 
 
#line 173 "C:\\Keil\\ARM\\ARMCC\\bin\\..\\include\\..\\..\\RL\\USB\\INC\\usb_cdc.h"




 

 
 
 
typedef __packed struct _CDC_HEADER_DESCRIPTOR{
  U8  bFunctionLength;                       
  U8  bDescriptorType;                       
  U8  bDescriptorSubtype;                    
  U16 bcdCDC;                                
} CDC_HEADER_DESCRIPTOR;

 
 
 
typedef __packed struct _CDC_CALL_MANAGEMENT_DESCRIPTOR {
  U8  bFunctionLength;                       
  U8  bDescriptorType;                       
  U8  bDescriptorSubtype;                    
  U8  bmCapabilities;                        
  U8  bDataInterface;                        
} CDC_CALL_MANAGEMENT_DESCRIPTOR;

 
 
 
typedef __packed struct _CDC_ABSTRACT_CONTROL_MANAGEMENT_DESCRIPTOR {
  U8  bFunctionLength;                       
  U8  bDescriptorType;                       
  U8  bDescriptorSubtype;                    
  U8  bmCapabilities;                        
} CDC_ABSTRACT_CONTROL_MANAGEMENT_DESCRIPTOR;

 
 
 
typedef __packed struct _CDC_UNION_DESCRIPTOR {
  U8  bFunctionLength;                       
  U8  bDescriptorType;                       
  U8  bDescriptorSubtype;                    
  U8  bMasterInterface;                      
} CDC_UNION_DESCRIPTOR;

 
 
typedef __packed struct _CDC_UNION_1SLAVE_DESCRIPTOR {
  CDC_UNION_DESCRIPTOR sUnion;               
  U8                   bSlaveInterfaces[1];  
} CDC_UNION_1SLAVE_DESCRIPTOR;

 
 
 
typedef __packed struct _CDC_LINE_CODING {
  U32 dwDTERate;                             
  U8  bCharFormat;                           
  U8  bParityType;                           
  U8  bDataBits;                             
} CDC_LINE_CODING;

 
 
 
typedef USB_SETUP_PACKET CDC_NOTIFICATION_HEADER;



#line 19 "C:\\Keil\\ARM\\ARMCC\\bin\\..\\include\\..\\..\\RL\\USB\\INC\\usb.h"
#line 1 "C:\\Keil\\ARM\\ARMCC\\bin\\..\\include\\..\\..\\RL\\USB\\INC\\usb_hid.h"









 





 



 







 





 
typedef __packed struct _HID_DESCRIPTOR {
  U8  bLength;
  U8  bDescriptorType;
  U16 bcdHID;
  U8  bCountryCode;
  U8  bNumDescriptors;
   
  __packed struct _HID_DESCRIPTOR_LIST {
    U8  bDescriptorType;
    U16 wDescriptorLength;
  } DescriptorList[1];
} HID_DESCRIPTOR;


 
#line 56 "C:\\Keil\\ARM\\ARMCC\\bin\\..\\include\\..\\..\\RL\\USB\\INC\\usb_hid.h"

 





 
#line 80 "C:\\Keil\\ARM\\ARMCC\\bin\\..\\include\\..\\..\\RL\\USB\\INC\\usb_hid.h"
 


 
#line 124 "C:\\Keil\\ARM\\ARMCC\\bin\\..\\include\\..\\..\\RL\\USB\\INC\\usb_hid.h"
 

 
 


 

 
 

 
 

 
 

 
 

 

 
extern const unsigned char HID_KEYBOARD_ID_TO_ASCII[256];
extern const unsigned char HID_KEYBOARD_ALT_ID_TO_ASCII[57];

 





 



 







 





 
#line 186 "C:\\Keil\\ARM\\ARMCC\\bin\\..\\include\\..\\..\\RL\\USB\\INC\\usb_hid.h"

 
#line 196 "C:\\Keil\\ARM\\ARMCC\\bin\\..\\include\\..\\..\\RL\\USB\\INC\\usb_hid.h"

 

 
#line 275 "C:\\Keil\\ARM\\ARMCC\\bin\\..\\include\\..\\..\\RL\\USB\\INC\\usb_hid.h"

 
 

 
 

 
#line 290 "C:\\Keil\\ARM\\ARMCC\\bin\\..\\include\\..\\..\\RL\\USB\\INC\\usb_hid.h"
 

 

 

 


 

 






 
#line 325 "C:\\Keil\\ARM\\ARMCC\\bin\\..\\include\\..\\..\\RL\\USB\\INC\\usb_hid.h"

 
#line 334 "C:\\Keil\\ARM\\ARMCC\\bin\\..\\include\\..\\..\\RL\\USB\\INC\\usb_hid.h"

 
#line 363 "C:\\Keil\\ARM\\ARMCC\\bin\\..\\include\\..\\..\\RL\\USB\\INC\\usb_hid.h"

 





#line 20 "C:\\Keil\\ARM\\ARMCC\\bin\\..\\include\\..\\..\\RL\\USB\\INC\\usb.h"
#line 1 "C:\\Keil\\ARM\\ARMCC\\bin\\..\\include\\..\\..\\RL\\USB\\INC\\usb_msc.h"









 





 
#line 23 "C:\\Keil\\ARM\\ARMCC\\bin\\..\\include\\..\\..\\RL\\USB\\INC\\usb_msc.h"

 





 




 
#line 43 "C:\\Keil\\ARM\\ARMCC\\bin\\..\\include\\..\\..\\RL\\USB\\INC\\usb_msc.h"


 
typedef __packed struct _MSC_CBW {
  U32 dSignature;
  U32 dTag;
  U32 dDataLength;
  U8  bmFlags;
  U8  bLUN;
  U8  bCBLength;
  U8  CB[16];
} MSC_CBW;

 
typedef __packed struct _MSC_CSW {
  U32 dSignature;
  U32 dTag;
  U32 dDataResidue;
  U8  bStatus;
} MSC_CSW;





 





 
#line 100 "C:\\Keil\\ARM\\ARMCC\\bin\\..\\include\\..\\..\\RL\\USB\\INC\\usb_msc.h"


#line 21 "C:\\Keil\\ARM\\ARMCC\\bin\\..\\include\\..\\..\\RL\\USB\\INC\\usb.h"

 
#line 1 "C:\\Keil\\ARM\\ARMCC\\bin\\..\\include\\..\\..\\RL\\USB\\INC\\usbd_core.h"









 





 

 
typedef struct _USBD_EP_DATA {
  U8 *pData;
  U16 Count;
} USBD_EP_DATA;


 

 
extern U16         USBD_DeviceStatus;
extern U8          USBD_DeviceAddress;
extern U8          USBD_Configuration;
extern U32         USBD_EndPointMask;
extern U32         USBD_EndPointHalt;
extern U32         USBD_EndPointStall;
extern U8          USBD_NumInterfaces;
extern U8          USBD_HighSpeed;
extern U8          USBD_ZLP;

extern USBD_EP_DATA     USBD_EP0Data;
extern USB_SETUP_PACKET USBD_SetupPacket;

extern OS_TID      USBD_RTX_DevTask;
extern OS_TID      USBD_RTX_EPTask[];
extern OS_TID      USBD_RTX_CoreTask;


 

extern void        USBD_SetupStage     (void);
extern void        USBD_DataInStage    (void);
extern void        USBD_DataOutStage   (void);
extern void        USBD_StatusInStage  (void);
extern void        USBD_StatusOutStage (void);


 

extern        void usbd_class_init    (void);

extern        void USBD_EndPoint0     (U32 event);

extern __declspec(noreturn) void USBD_RTX_EndPoint0 (void);


#line 24 "C:\\Keil\\ARM\\ARMCC\\bin\\..\\include\\..\\..\\RL\\USB\\INC\\usb.h"
#line 1 "C:\\Keil\\ARM\\ARMCC\\bin\\..\\include\\..\\..\\RL\\USB\\INC\\usbd_core_adc.h"









 





 

extern BOOL USBD_EndPoint0_Setup_ADC_ReqToIF (void);
extern BOOL USBD_EndPoint0_Setup_ADC_ReqToEP (void);
extern BOOL USBD_EndPoint0_Out_ADC_ReqToIF   (void);
extern BOOL USBD_EndPoint0_Out_ADC_ReqToEP   (void);


#line 25 "C:\\Keil\\ARM\\ARMCC\\bin\\..\\include\\..\\..\\RL\\USB\\INC\\usb.h"
#line 1 "C:\\Keil\\ARM\\ARMCC\\bin\\..\\include\\..\\..\\RL\\USB\\INC\\usbd_core_cdc.h"










 





 

extern BOOL USBD_EndPoint0_Setup_CDC_ReqToIF (void);
extern BOOL USBD_EndPoint0_Out_CDC_ReqToIF   (void);


#line 26 "C:\\Keil\\ARM\\ARMCC\\bin\\..\\include\\..\\..\\RL\\USB\\INC\\usb.h"
#line 1 "C:\\Keil\\ARM\\ARMCC\\bin\\..\\include\\..\\..\\RL\\USB\\INC\\usbd_core_hid.h"










 





 

extern BOOL USBD_ReqGetDescriptor_HID        (U8 **pD, U32 *len);
extern BOOL USBD_EndPoint0_Setup_HID_ReqToIF (void);
extern BOOL USBD_EndPoint0_Out_HID_ReqToIF   (void);


#line 27 "C:\\Keil\\ARM\\ARMCC\\bin\\..\\include\\..\\..\\RL\\USB\\INC\\usb.h"
#line 1 "C:\\Keil\\ARM\\ARMCC\\bin\\..\\include\\..\\..\\RL\\USB\\INC\\usbd_core_msc.h"










 





 

extern void USBD_ReqClrFeature_MSC           (U32 EPNum);
extern BOOL USBD_EndPoint0_Setup_MSC_ReqToIF (void);
extern BOOL USBD_EndPoint0_Out_MSC_ReqToIF   (void);


#line 28 "C:\\Keil\\ARM\\ARMCC\\bin\\..\\include\\..\\..\\RL\\USB\\INC\\usb.h"
#line 1 "C:\\Keil\\ARM\\ARMCC\\bin\\..\\include\\..\\..\\RL\\USB\\INC\\usbd_core_cls.h"









 





 

extern BOOL USBD_EndPoint0_Setup_CLS_ReqToDEV (void);
extern BOOL USBD_EndPoint0_Setup_CLS_ReqToIF  (void);
extern BOOL USBD_EndPoint0_Setup_CLS_ReqToEP  (void);
extern BOOL USBD_EndPoint0_Out_CLS_ReqToDEV   (void);
extern BOOL USBD_EndPoint0_Out_CLS_ReqToIF    (void);
extern BOOL USBD_EndPoint0_Out_CLS_ReqToEP    (void);


#line 29 "C:\\Keil\\ARM\\ARMCC\\bin\\..\\include\\..\\..\\RL\\USB\\INC\\usb.h"
#line 1 "C:\\Keil\\ARM\\ARMCC\\bin\\..\\include\\..\\..\\RL\\USB\\INC\\usbd_desc.h"









 




#line 25 "C:\\Keil\\ARM\\ARMCC\\bin\\..\\include\\..\\..\\RL\\USB\\INC\\usbd_desc.h"

#line 30 "C:\\Keil\\ARM\\ARMCC\\bin\\..\\include\\..\\..\\RL\\USB\\INC\\usb.h"
#line 1 "C:\\Keil\\ARM\\ARMCC\\bin\\..\\include\\..\\..\\RL\\USB\\INC\\usbd_event.h"









 





 
#line 25 "C:\\Keil\\ARM\\ARMCC\\bin\\..\\include\\..\\..\\RL\\USB\\INC\\usbd_event.h"

 
#line 40 "C:\\Keil\\ARM\\ARMCC\\bin\\..\\include\\..\\..\\RL\\USB\\INC\\usbd_event.h"

 





 
extern void (* const USBD_P_Power_Event    )(BOOL power);
extern void (* const USBD_P_Reset_Event    )(void);
extern void (* const USBD_P_Suspend_Event  )(void);
extern void (* const USBD_P_Resume_Event   )(void);
extern void (* const USBD_P_WakeUp_Event   )(void);
extern void (* const USBD_P_SOF_Event      )(void);
extern void (* const USBD_P_Error_Event    )(U32 error);

 
extern void (* const USBD_P_EP[16])         (U32 event);

 
extern void (* const USBD_P_Configure_Event)(void);
extern void (* const USBD_P_Interface_Event)(void);
extern void (* const USBD_P_Feature_Event  )(void);

 
extern void USBD_RTX_TaskInit               (void);

#line 31 "C:\\Keil\\ARM\\ARMCC\\bin\\..\\include\\..\\..\\RL\\USB\\INC\\usb.h"
#line 1 "C:\\Keil\\ARM\\ARMCC\\bin\\..\\include\\..\\..\\RL\\USB\\INC\\usbd_adc.h"









 





 

 
extern        U16 USBD_ADC_VolCur;
extern const  U16 USBD_ADC_VolMin;
extern const  U16 USBD_ADC_VolMax;
extern const  U16 USBD_ADC_VolRes;
extern        U8  USBD_ADC_Mute;
extern        U32 USBD_ADC_Volume;
extern        U16 USBD_ADC_DataOut;
extern        U16 USBD_ADC_DataIn;
extern        U8  USBD_ADC_DataRun;

 
extern const  U32 usbd_adc_cfg_datafreq;
extern const  U32 usbd_adc_cfg_p_s;
extern const  U32 usbd_adc_cfg_p_c;
extern const  U32 usbd_adc_cfg_b_s;
extern        S16 USBD_ADC_DataBuf      [];


 

extern void USBD_ADC_SOF_Event     (void);


#line 32 "C:\\Keil\\ARM\\ARMCC\\bin\\..\\include\\..\\..\\RL\\USB\\INC\\usb.h"
#line 1 "C:\\Keil\\ARM\\ARMCC\\bin\\..\\include\\..\\..\\RL\\USB\\INC\\usbd_cdc_acm.h"










 





 

extern           void USBD_CDC_ACM_Reset_Event          (void);

extern           void USBD_CDC_ACM_SOF_Event            (void);

extern           void USBD_CDC_ACM_EP_INTIN_Event       (U32 event);
extern           void USBD_CDC_ACM_EP_BULKIN_Event      (U32 event);
extern           void USBD_CDC_ACM_EP_BULKOUT_Event     (U32 event);
extern           void USBD_CDC_ACM_EP_BULK_Event        (U32 event);

extern    __declspec(noreturn) void USBD_RTX_CDC_ACM_EP_INTIN_Event   (void);
extern    __declspec(noreturn) void USBD_RTX_CDC_ACM_EP_BULKIN_Event  (void);
extern    __declspec(noreturn) void USBD_RTX_CDC_ACM_EP_BULKOUT_Event (void);
extern    __declspec(noreturn) void USBD_RTX_CDC_ACM_EP_BULK_Event    (void);


#line 33 "C:\\Keil\\ARM\\ARMCC\\bin\\..\\include\\..\\..\\RL\\USB\\INC\\usb.h"
#line 1 "C:\\Keil\\ARM\\ARMCC\\bin\\..\\include\\..\\..\\RL\\USB\\INC\\usbd_hid.h"









 





 

 
enum {
  USBD_HID_REQ_EP_CTRL = 0,              
  USBD_HID_REQ_EP_INT,                   
  USBD_HID_REQ_PERIOD_UPDATE             
};


 

extern        void USBD_HID_Configure_Event    (void);
extern        void USBD_HID_SOF_Event          (void);

extern        void USBD_HID_EP_INTIN_Event     (U32 event);
extern        void USBD_HID_EP_INTOUT_Event    (U32 event);
extern        void USBD_HID_EP_INT_Event       (U32 event);

extern __declspec(noreturn) void USBD_RTX_HID_EP_INTIN_Event (void);
extern __declspec(noreturn) void USBD_RTX_HID_EP_INTOUT_Event(void); 
extern __declspec(noreturn) void USBD_RTX_HID_EP_INT_Event   (void);


#line 34 "C:\\Keil\\ARM\\ARMCC\\bin\\..\\include\\..\\..\\RL\\USB\\INC\\usb.h"
#line 1 "C:\\Keil\\ARM\\ARMCC\\bin\\..\\include\\..\\..\\RL\\USB\\INC\\usbd_msc.h"









 





 

 
extern       BOOL USBD_MSC_MediaReady;
extern       BOOL USBD_MSC_ReadOnly;
extern       U32  USBD_MSC_MemorySize;
extern       U32  USBD_MSC_BlockSize;
extern       U32  USBD_MSC_BlockGroup;
extern       U32  USBD_MSC_BlockCount;
extern       U8  *USBD_MSC_BlockBuf;


 

extern        void USBD_MSC_EP_BULKIN_Event      (U32 event);
extern        void USBD_MSC_EP_BULKOUT_Event     (U32 event);
extern        void USBD_MSC_EP_BULK_Event        (U32 event);

extern __declspec(noreturn) void USBD_RTX_MSC_EP_BULKIN_Event  (void);
extern __declspec(noreturn) void USBD_RTX_MSC_EP_BULKOUT_Event (void);
extern __declspec(noreturn) void USBD_RTX_MSC_EP_BULK_Event    (void);


#line 35 "C:\\Keil\\ARM\\ARMCC\\bin\\..\\include\\..\\..\\RL\\USB\\INC\\usb.h"
#line 1 "C:\\Keil\\ARM\\ARMCC\\bin\\..\\include\\..\\..\\RL\\USB\\INC\\usbd_cls.h"









 





 

extern void USBD_CLS_SOF_Event     (void);


#line 36 "C:\\Keil\\ARM\\ARMCC\\bin\\..\\include\\..\\..\\RL\\USB\\INC\\usb.h"
#line 1 "C:\\Keil\\ARM\\ARMCC\\bin\\..\\include\\..\\..\\RL\\USB\\INC\\usbd_hw.h"









 





 
extern void USBD_Init        (void);
extern void USBD_Connect     (BOOL con);
extern void USBD_Reset       (void);
extern void USBD_Suspend     (void);
extern void USBD_Resume      (void);
extern void USBD_WakeUp      (void);
extern void USBD_WakeUpCfg   (BOOL cfg);
extern void USBD_SetAddress  (U32  adr, U32 setup);
extern void USBD_Configure   (BOOL cfg);
extern void USBD_ConfigEP    (USB_ENDPOINT_DESCRIPTOR *pEPD);
extern void USBD_DirCtrlEP   (U32  dir);
extern void USBD_EnableEP    (U32  EPNum);
extern void USBD_DisableEP   (U32  EPNum);
extern void USBD_ResetEP     (U32  EPNum);
extern void USBD_SetStallEP  (U32  EPNum);
extern void USBD_ClrStallEP  (U32  EPNum);
extern void USBD_ClearEPBuf  (U32  EPNum);
extern U32  USBD_ReadEP      (U32  EPNum, U8 *pData);
extern U32  USBD_WriteEP     (U32  EPNum, U8 *pData, U32 cnt);
extern U32  USBD_GetFrame    (void);
extern U32  USBD_GetError    (void);

#line 37 "C:\\Keil\\ARM\\ARMCC\\bin\\..\\include\\..\\..\\RL\\USB\\INC\\usb.h"

 
#line 1 "C:\\Keil\\ARM\\ARMCC\\bin\\..\\include\\..\\..\\RL\\USB\\INC\\usbh.h"









 




#pragma anon_unions


 

 
typedef enum { 
  ERROR_SUCCESS = 0,                     
                                         
  ERROR_USBH_HCI,                        
  ERROR_USBH_HCD,                        
  ERROR_USBH_DCI,                        
  ERROR_USBH_DCD,                        

  ERROR_USBH_MEM_INIT,                   
  ERROR_USBH_MEM_ALLOC,                  
  ERROR_USBH_MEM_DEALLOC,                

  ERROR_USBH_PINS_CONFIG,                
  ERROR_USBH_INIT,                       
  ERROR_USBH_PORT_POWER,                 
  ERROR_USBH_PORT_RESET,                 

  ERROR_USBH_EP,                         
  ERROR_USBH_EP_ADD,                     
  ERROR_USBH_EP_CONFIG,                  
  ERROR_USBH_EP_REMOVE,                  

  ERROR_USBH_URB,                        
  ERROR_USBH_URB_SUBMIT,                 
  ERROR_USBH_URB_CANCEL,                 
  ERROR_USBH_URB_TRANSFER,               
  ERROR_USBH_URB_TOUT,                   

  ERROR_USBH_ENUMERATE,                  
  ERROR_USBH_UNINIT_DEVS,                

  ERROR_USBH_MSC,                        
  ERROR_USBH_MSC_SIG,                    
  ERROR_USBH_MSC_TAG,                    
  ERROR_USBH_MSC_RESID,                  

  ERROR_USBH_HID,                        

  ERROR_USBH_CLS,                        

  ERROR_USBH_CLS_UNKNOWN,                
} USBH_ERROR;

 
enum { 
  USBH_LS  = 0,                          
  USBH_FS,                               
  USBH_HS                                
};

 
enum {
  USBH_PACKET_OUT      =  1,             
  USBH_PACKET_IN       =  9,             
  USBH_PACKET_SOF      =  5,             
  USBH_PACKET_SETUP    = 13,             
  USBH_PACKET_DATA0    =  3,             
  USBH_PACKET_DATA1    = 11,             
  USBH_PACKET_DATA2    =  7,             
  USBH_PACKET_MDATA    = 15,             
  USBH_PACKET_ACK      =  2,             
  USBH_PACKET_NAK      = 10,             
  USBH_PACKET_STALL    = 14,             
  USBH_PACKET_NYET     =  6,             
  USBH_PACKET_PRE      = 12,             
  USBH_PACKET_ERR      = 12,             
  USBH_PACKET_SPLIT    =  8,             
  USBH_PACKET_PING     =  4,             
  USBH_PACKET_RESERVED =  0              
};

 
enum {
  USBH_TR_NO_ERROR     =  0,             
  USBH_TR_ERROR_BSTUFF =  1,             
  USBH_TR_ERROR_PID    =  2,             
  USBH_TR_ERROR_CRC    =  3,             
  USBH_TR_ERROR_BUSTT  =  4,             
  USBH_TR_ERROR_FEOP   =  4,             
  USBH_TR_ERROR_BABBLE =  4,             
  USBH_TR_ERROR_EOF    =  5,             
  USBH_TR_ERROR_DOVER  =  6,             
  USBH_TR_ERROR_DUNDER =  7,             
  USBH_TR_ERROR_OTHER  =  8,             
};

 

#line 116 "C:\\Keil\\ARM\\ARMCC\\bin\\..\\include\\..\\..\\RL\\USB\\INC\\usbh.h"

#line 125 "C:\\Keil\\ARM\\ARMCC\\bin\\..\\include\\..\\..\\RL\\USB\\INC\\usbh.h"

#line 133 "C:\\Keil\\ARM\\ARMCC\\bin\\..\\include\\..\\..\\RL\\USB\\INC\\usbh.h"

#line 141 "C:\\Keil\\ARM\\ARMCC\\bin\\..\\include\\..\\..\\RL\\USB\\INC\\usbh.h"

#line 148 "C:\\Keil\\ARM\\ARMCC\\bin\\..\\include\\..\\..\\RL\\USB\\INC\\usbh.h"

#line 156 "C:\\Keil\\ARM\\ARMCC\\bin\\..\\include\\..\\..\\RL\\USB\\INC\\usbh.h"

#line 164 "C:\\Keil\\ARM\\ARMCC\\bin\\..\\include\\..\\..\\RL\\USB\\INC\\usbh.h"

#line 171 "C:\\Keil\\ARM\\ARMCC\\bin\\..\\include\\..\\..\\RL\\USB\\INC\\usbh.h"







#line 184 "C:\\Keil\\ARM\\ARMCC\\bin\\..\\include\\..\\..\\RL\\USB\\INC\\usbh.h"

#line 191 "C:\\Keil\\ARM\\ARMCC\\bin\\..\\include\\..\\..\\RL\\USB\\INC\\usbh.h"

#line 198 "C:\\Keil\\ARM\\ARMCC\\bin\\..\\include\\..\\..\\RL\\USB\\INC\\usbh.h"

#line 222 "C:\\Keil\\ARM\\ARMCC\\bin\\..\\include\\..\\..\\RL\\USB\\INC\\usbh.h"

 

typedef volatile struct {                
  U8          *ptrDataBuffer;            
  U8          *ptrCurrentDataBuffer;     
  U32          DataLength;               
  U32          DataTransferred;          
  union {
    U32        Parameters;               
    struct {
      U32      PacketType        :  4;   
      U32      ToggleBit         :  1;   
      U32      ToggleForce       :  1;  
 
    };
  };
  union {
    U32        Status;                   
    struct {
      U32      Submitted         :  1;   
      U32      InProgress        :  1;   
      U32      Cancelled         :  1;   
      U32      Completed         :  1;   
      U32      Timeout           :  1;   
      U32      ResponsePacketType:  4;   
      U32      Reserved          :  7;   
      U32      Error             :  8;   
    };
  };
  U32          NAKRetries;               
  U32          TimeoutCount;             
  void       (*CompletedCallback)(void); 
} USBH_URB;

typedef __packed struct {                
  U32          Handle;                   
  __packed union {
    U32 Para;                            
    __packed struct {
      U8       Address           : 8;    
      U8       Speed             : 8;    
    };
  };
  USB_ENDPOINT_DESCRIPTOR Descriptor;    
} USBH_EP;

typedef struct {                         
  union {
    struct {
      U32      MultiPckt;                
    };
  };
  U32          MaxDataSz;                
  U32          CtrlNAKs;                 
  U32          BulkNAKs;                 
} USBH_HCI_CAP;

typedef struct {                         
  USBH_HCI_CAP Cap;                      
  U32          PortCon;                  
  U8           LastDevAdr;               
  USBH_EP      EP0;                      
  U32          LastError;                
} USBH_HCI;

typedef struct {                         
  U8           DoPing;                   
  USBH_EP      BulkInEP;                 
  USBH_EP      BulkOutEP;                
  U8           MaxLUN;                   
  U32          Tag;                      
} USBH_MSC;

typedef struct {                         
  USBH_URB     IntUrb;                   
  USBH_EP      IntInEP;                  
  USBH_EP      IntOutEP;                 
  U8           SubClass;                 
  U8           ReportDescTyp;            
  U16          ReportDescLen;            
  U8           ReportInDataBuf[8];       
  struct {
    U8         ReportInReceived  : 1;    
  };
} USBH_HID;

typedef struct {                         
  U8           Protocol;                 
  U8           Port;                     
  U8           Address;                  
  U8           Speed;                     
  struct {
    U8         Config            : 1;    
    U8         Init              : 1;    
  };
  U32          LastError;                
  union {
    USBH_MSC  *ptrMSC;                   
    USBH_HID  *ptrHID;                   
    void      *ptrCLS;                   
  };
} USBH_DCI;

typedef struct {                         
  void       (*get_capabilities) (USBH_HCI_CAP *cap);  
  void       (*delay_ms        ) (U32  ms);    
  BOOL       (*pins_config     ) (BOOL on);    
  BOOL       (*init            ) (BOOL on);    
  BOOL       (*port_power      ) (BOOL on);    
  BOOL       (*port_reset      ) (U8   port);  
  U32        (*get_connect     ) (void);       
  U32        (*get_speed       ) (void);       
  U32        (*ep_add          ) (            U8 dev_adr, U8 ep_spd, USB_ENDPOINT_DESCRIPTOR *ptr_epd);
  BOOL       (*ep_config       ) (U32  hndl,  U8 dev_adr, U8 ep_spd, USB_ENDPOINT_DESCRIPTOR *ptr_epd);
  BOOL       (*ep_remove       ) (U32  hndl);
  BOOL       (*urb_submit      ) (U32  hndl,  USBH_URB *ptr_urb);
  BOOL       (*urb_cancel      ) (U32  hndl,  USBH_URB *ptr_urb);
} USBH_HCD;

typedef struct {                         
  U32          Ports;                    
  U16          MaxED;                    
  U16          MaxTD;                    
  U16          MaxITD;                   
  U32         *PtrHCCA;                  
  U32         *PtrED;                    
  U32         *PtrTD;                    
  U32         *PtrITD;                   
  U32         *PtrTDURB;                 
  void       (*get_capabilities) (USBH_HCI_CAP *cap);  
  void       (*delay_ms        ) (U32  ms);    
  void       (*reg_wr          ) (U32  reg_ofs, U32 val);    
  U32        (*reg_rd          ) (U32  reg_ofs);             
  BOOL       (*pins_config     ) (BOOL on);    
  BOOL       (*init            ) (BOOL on);    
  BOOL       (*port_power      ) (U32  on);    
  BOOL       (*irq_en          ) (BOOL on);    
} USBH_HWD_OHCI;

typedef struct {                         
  U32          Ports;                    
  U16          Max_qH;                   
  U16          Max_qTD;                  
  U16          Max_iTD;                  
  U16          Max_siTD;                 
  U16          Max_FSTN;                 
  U32         *Ptr_PFL;                  
  U32         *Ptr_qH;                   
  U32         *Ptr_qTD;                  
  U32         *Ptr_iTD;                  
  U32         *Ptr_siTD;                 
  U32         *Ptr_FSTN;                 
  U32         *Ptr_qTDURB;               
  void       (*get_capabilities) (USBH_HCI_CAP *cap);  
  void       (*delay_ms        ) (U32  ms);    
  void       (*reg_wr          ) (U32  reg_ofs, U32 val);    
  U32        (*reg_rd          ) (U32  reg_ofs);             
  BOOL       (*pins_config     ) (BOOL on);    
  BOOL       (*init            ) (BOOL on);    
  BOOL       (*port_power      ) (U32  on);    
  BOOL       (*irq_en          ) (BOOL on);    
} USBH_HWD_EHCI;

typedef struct {                         
  U8           ClassID;
  U8         (*config          ) (U8 ctrl, U8 port, U8 spd, U8 adr, USB_CONFIGURATION_DESCRIPTOR *ptr_cfg_desc);
  BOOL       (*unconfig        ) (U8 ctrl, U8 dev_idx);
  BOOL       (*init            ) (U8 ctrl, U8 dev_idx);
  BOOL       (*uninit          ) (U8 ctrl, U8 dev_idx);
  U32        (*get_last_error  ) (U8 ctrl, U8 dev_idx);
} USBH_DCD;


 

extern BOOL USBH_Send_Setup      (U8 ctrl, U8 *ptr_data);
extern BOOL USBH_Send_Data       (U8 ctrl, U8 *ptr_data, U16 data_len);
extern BOOL USBH_Rece_Data       (U8 ctrl, U8 *ptr_data, U16 data_len);

extern BOOL USBH_GetStatus       (U8 ctrl, U8  rcpnt, U8 idx, U8 *stat_dat);
extern BOOL USBH_ClearFeature    (U8 ctrl, U8  rcpnt, U8 idx, U8  feat_sel);
extern BOOL USBH_SetFeature      (U8 ctrl, U8  rcpnt, U8 idx, U8  feat_sel);
extern BOOL USBH_SetAddress      (U8 ctrl, U8  dev_adr);
extern BOOL USBH_GetDescriptor   (U8 ctrl, U8  rcpnt, U8 desc_typ, U8 desc_idx, U8 lang_id, U8 *desc_dat, U16 desc_len);
extern BOOL USBH_SetDescriptor   (U8 ctrl, U8  rcpnt, U8 desc_typ, U8 desc_idx, U8 lang_id, U8 *desc_dat, U16 desc_len);
extern BOOL USBH_GetConfiguration(U8 ctrl, U8 *cfg_dat);
extern BOOL USBH_SetConfiguration(U8 ctrl, U8  cfg_val);
extern BOOL USBH_GetInterface    (U8 ctrl, U8  idx, U8 *alt_dat);
extern BOOL USBH_SetInterface    (U8 ctrl, U8  idx, U8  alt_set);
extern BOOL USBH_SyncFrame       (U8 ctrl, U8  idx, U8 *frm_num);


#pragma no_anon_unions

#line 40 "C:\\Keil\\ARM\\ARMCC\\bin\\..\\include\\..\\..\\RL\\USB\\INC\\usb.h"

#line 21 "C:\\Keil\\ARM\\RV31\\INC\\rl_usb.h"

 

 
extern BOOL  usbh_mem_init              (U8 ctrl, U32 *ptr_pool, U32 pool_sz);
extern BOOL  usbh_mem_alloc             (U8 ctrl, U8 **ptr, U32 sz);
extern BOOL  usbh_mem_free              (U8 ctrl, U8  *ptr);
extern BOOL  usbh_transfer              (U8 ctrl, USBH_EP *ptr_ep, USBH_URB *ptr_urb, U16 tout);
extern BOOL  usbh_init                  (U8 ctrl);
extern BOOL  usbh_init_all              (void);
extern BOOL  usbh_uninit                (U8 ctrl);
extern BOOL  usbh_uninit_all            (void);
extern BOOL  usbh_engine                (U8 ctrl);
extern BOOL  usbh_engine_all            (void);
extern U32   usbh_get_last_error        (U8 ctrl);
extern U8   *usbh_get_error_string      (U32 err);

 
extern BOOL  usbh_msc_status            (U8 ctrl, U8 dev_idx);
extern BOOL  usbh_msc_read              (U8 ctrl, U8 dev_idx, U32  blk_adr, U8 *ptr_data, U16 blk_num);
extern BOOL  usbh_msc_write             (U8 ctrl, U8 dev_idx, U32  blk_adr, U8 *ptr_data, U16 blk_num);
extern BOOL  usbh_msc_read_config       (U8 ctrl, U8 dev_idx, U32 *tot_blk_num, U32 *blk_sz);
extern U32   usbh_msc_get_last_error    (U8 ctrl, U8 dev_idx);

 
extern BOOL  usbh_hid_status            (U8 ctrl, U8 dev_idx);
extern int   usbh_hid_data_in           (U8 ctrl, U8 dev_idx, U8  *ptr_data);
extern int   usbh_hid_data_out          (U8 ctrl, U8 dev_idx, U8  *ptr_data, U16 data_len);
extern U32   usbh_hid_get_last_error    (U8 ctrl, U8 dev_idx);
 
extern void  usbh_hid_parse_report_desc (U8 ctrl, U8 dev_idx, U8  *ptrHIDReportDesc);
extern void  usbh_hid_data_in_callback  (U8 ctrl, U8 dev_idx, U8  *ptr_data, U16 data_len);
extern int   usbh_hid_kbd_getkey        (U8 ctrl, U8 dev_idx);  
extern BOOL  usbh_hid_mouse_getdata     (U8 ctrl, U8 dev_idx, U8  *btn, S8 *x, S8 *y, S8 *wheel);

 
extern void  usbd_init                  (void);
extern void  usbd_connect               (BOOL con);
extern void  usbd_reset_core            (void);
extern BOOL  usbd_configured            (void);

 
extern void  usbd_hid_init              (void);
extern BOOL  usbd_hid_get_report_trigger(U8 rid,   U8 *buf, int len);
extern int   usbd_hid_get_report        (U8 rtype, U8 rid, U8 *buf, U8  req);
extern void  usbd_hid_set_report        (U8 rtype, U8 rid, U8 *buf, int len, U8 req);
extern U8    usbd_hid_get_protocol      (void);
extern void  usbd_hid_set_protocol      (U8 protocol);

 
extern void  usbd_msc_init              (void);
extern void  usbd_msc_read_sect         (U32 block, U8 *buf, U32 num_of_blocks);
extern void  usbd_msc_write_sect        (U32 block, U8 *buf, U32 num_of_blocks);
extern void  usbd_msc_start_stop        (BOOL start);

 
extern void  usbd_adc_init              (void);

 
extern int32_t  USBD_CDC_ACM_Initialize                (void);
extern int32_t  USBD_CDC_ACM_Uninitialize              (void);
extern int32_t  USBD_CDC_ACM_Reset                     (void);
 
extern int32_t  USBD_CDC_ACM_PortInitialize            (void);
extern int32_t  USBD_CDC_ACM_PortUninitialize          (void);
extern int32_t  USBD_CDC_ACM_PortReset                 (void);
extern int32_t  USBD_CDC_ACM_PortSetLineCoding         (CDC_LINE_CODING *line_coding);
extern int32_t  USBD_CDC_ACM_PortGetLineCoding         (CDC_LINE_CODING *line_coding);
extern int32_t  USBD_CDC_ACM_PortSetControlLineState   (uint16_t ctrl_bmp);
extern int32_t  USBD_CDC_ACM_DataSend                  (const uint8_t *buf, int32_t len);
extern int32_t  USBD_CDC_ACM_PutChar                   (const uint8_t  ch);
extern int32_t  USBD_CDC_ACM_DataRead                  (      uint8_t *buf, int32_t len);
extern int32_t  USBD_CDC_ACM_GetChar                   (void);
extern int32_t  USBD_CDC_ACM_DataAvailable             (void);
extern int32_t  USBD_CDC_ACM_Notify                    (uint16_t stat);
 
extern int32_t  USBD_CDC_ACM_SendEncapsulatedCommand   (void);
extern int32_t  USBD_CDC_ACM_GetEncapsulatedResponse   (void);
extern int32_t  USBD_CDC_ACM_SetCommFeature            (uint16_t feat);
extern int32_t  USBD_CDC_ACM_GetCommFeature            (uint16_t feat);
extern int32_t  USBD_CDC_ACM_ClearCommFeature          (uint16_t feat);
extern int32_t  USBD_CDC_ACM_SetLineCoding             (void);
extern int32_t  USBD_CDC_ACM_GetLineCoding             (void);
extern int32_t  USBD_CDC_ACM_SetControlLineState       (uint16_t ctrl_bmp);
extern int32_t  USBD_CDC_ACM_SendBreak                 (uint16_t dur);

 
extern void  usbd_cls_init              (void);
extern void  usbd_cls_sof               (void);
extern BOOL  usbd_cls_dev_req           (BOOL setup);
extern BOOL  usbd_cls_if_req            (BOOL setup);
extern BOOL  usbd_cls_ep_req            (BOOL setup);





#line 14 "C:\\Keil\\ARM\\RV31\\INC\\usb_lib.c"
#line 15 "C:\\Keil\\ARM\\RV31\\INC\\usb_lib.c"

#pragma thumb
#pragma O3




 






 


                                         








extern  USBH_HCD         usbh0_hcd_ohci;
extern  USBH_HWD_OHCI    usbh0_hwd_ohci;
#line 57 "C:\\Keil\\ARM\\RV31\\INC\\usb_lib.c"

#line 76 "C:\\Keil\\ARM\\RV31\\INC\\usb_lib.c"

                                         
const U8  usbh_hc_num          = (1 + 0);
const U8  usbh_hc_msk          = (((0 & 1) << 1) | (1 & 1));
const U8  usbh_ohci_num        = (1 + (0 * (1 == 1)));
const U8  usbh_ehci_NXP_num    = (1 + (0 * (1 == 2)));
const U8  usbh_dcd_num         = (((0x0001 & 0x01) == 0x01) + ((0x0001 & 0x02) == 0x02) + ((0x0001 & 0x04) == 0x04));
const U8  usbh_msc_num         = 1;
const U8  usbh_hid_num         = 0;
const U8  usbh_cls_num         = 0;

                                         
USBH_HCD *usbh_hcd_ptr[(1 + 0)] = {  

                         &usbh0_hcd_ohci,
#line 97 "C:\\Keil\\ARM\\RV31\\INC\\usb_lib.c"
                       };


USBH_HWD_OHCI *usbh_hwd_ohci_ptr[(1 + (0 * (1 == 1)))] = {  

                         &usbh0_hwd_ohci,
#line 109 "C:\\Keil\\ARM\\RV31\\INC\\usb_lib.c"
                       };


#line 125 "C:\\Keil\\ARM\\RV31\\INC\\usb_lib.c"


extern  USBH_DCD         usbh_dcd_msc;
#line 135 "C:\\Keil\\ARM\\RV31\\INC\\usb_lib.c"
USBH_DCD *usbh_dcd_ptr[(((0x0001 & 0x01) == 0x01) + ((0x0001 & 0x02) == 0x02) + ((0x0001 & 0x04) == 0x04))] = { 

                        &usbh_dcd_msc,
#line 145 "C:\\Keil\\ARM\\RV31\\INC\\usb_lib.c"
                      };

USBH_HCI usbh_hci    [(1 + 0)]  = { 0 };

USBH_DCI usbh_dci_msc[(1 + 0) * 1] = { 0 };
USBH_MSC usbh_msc    [(1 + 0) * 1] = { 0 };
#line 160 "C:\\Keil\\ARM\\RV31\\INC\\usb_lib.c"

USBH_DCI *usbh_dci_ptr[3] = {

  usbh_dci_msc,
#line 170 "C:\\Keil\\ARM\\RV31\\INC\\usb_lib.c"
  ((void *) 0),




  ((void *) 0),

};





 

#line 2151 "C:\\Keil\\ARM\\RV31\\INC\\usb_lib.c"

#line 503 "USB\\usb_config.c"


